Algorithm,M,N,P,Base,Seed,Execution time,GFLOPS,perf1,perf1_val,perf2,perf2_val,perf3,perf3_val,perf4,perf4_val
ijk_normal,32,32,32,16,2112,7e-06,9.36229,ref_cycles,79464,instructions,269647,l1_reads,105521,l1_read_misses,267
ijk_normal,32,32,32,16,2112,0,inf,ref_cycles,70224,instructions,269647,l1_reads,105521,l1_read_misses,267
ijk_normal,32,32,32,16,2112,0,inf,ref_cycles,69888,instructions,269647,l1_reads,105521,l1_read_misses,270
ijk_normal,32,32,32,16,2112,5e-06,13.1072,ref_cycles,74592,instructions,269647,l1_reads,105521,l1_read_misses,258
ijk_normal,32,32,32,16,2112,0,inf,ref_cycles,69552,instructions,269647,l1_reads,105521,l1_read_misses,262
ijk_normal,32,32,32,16,2112,4e-06,16.384,ref_cycles,69804,instructions,269647,l1_reads,105521,l1_read_misses,265
ijk_normal,32,32,32,16,2112,0,inf,ref_cycles,70056,instructions,269648,l1_reads,105521,l1_read_misses,268
ijk_normal,32,32,32,16,2112,0,inf,ref_cycles,69636,instructions,269647,l1_reads,105521,l1_read_misses,264
ijk_normal,32,32,32,16,2112,0,inf,ref_cycles,69552,instructions,269647,l1_reads,105521,l1_read_misses,265
ijk_normal,32,32,32,16,2112,0,inf,ref_cycles,65772,instructions,269647,l1_reads,105521,l1_read_misses,270
ijk_normal,32,32,32,16,2112,0,inf,ref_cycles,70980,instructions,269647,l1_reads,105521,l1_read_misses,267
ijk_normal,32,32,32,16,2112,5.7e-05,1.14975,ref_cycles,70308,instructions,269648,l1_reads,105521,l1_read_misses,283
ijk_normal,32,32,32,16,2112,6.7e-05,0.978149,ref_cycles,66360,instructions,269648,l1_reads,105521,l1_read_misses,285
ijk_normal,32,32,32,16,2112,5e-06,13.1072,ref_cycles,65688,instructions,269647,l1_reads,105521,l1_read_misses,262
ijk_normal,32,32,32,16,2112,0,inf,ref_cycles,69804,instructions,269647,l1_reads,105521,l1_read_misses,264
ijk_normal,32,32,32,16,2112,0,inf,ref_cycles,69888,instructions,269647,l1_reads,105521,l1_read_misses,261
ijk_normal,32,32,32,16,2112,5e-06,13.1072,ref_cycles,69636,instructions,269647,l1_reads,105521,l1_read_misses,262
ijk_normal,32,32,32,16,2112,0,inf,ref_cycles,69552,instructions,269647,l1_reads,105521,l1_read_misses,265
ijk_normal,32,32,32,16,2112,1e-05,6.5536,ref_cycles,69636,instructions,269647,l1_reads,105521,l1_read_misses,265
ijk_normal,32,32,32,16,2112,0,inf,ref_cycles,74088,instructions,269647,l1_reads,105521,l1_read_misses,254
ijk_normal,512,512,512,16,2112,0.155551,1.72571,ref_cycles,324350796,instructions,1012667241,l1_reads,404488721,l1_read_misses,110960243
ijk_normal,512,512,512,16,2112,0.15663,1.71382,ref_cycles,326406696,instructions,1012667252,l1_reads,404488721,l1_read_misses,112012390
ijk_normal,512,512,512,16,2112,0.15822,1.6966,ref_cycles,329568372,instructions,1012667201,l1_reads,404486410,l1_read_misses,112121217
ijk_normal,512,512,512,16,2112,0.156264,1.71783,ref_cycles,326755884,instructions,1012667106,l1_reads,404488721,l1_read_misses,111672979
ijk_normal,512,512,512,16,2112,0.156949,1.71034,ref_cycles,328318032,instructions,1012667122,l1_reads,404488721,l1_read_misses,111956189
ijk_normal,512,512,512,16,2112,0.157633,1.70291,ref_cycles,329601888,instructions,1012667191,l1_reads,404488721,l1_read_misses,111745900
ijk_normal,512,512,512,16,2112,0.156019,1.72053,ref_cycles,325911096,instructions,1012667154,l1_reads,404488721,l1_read_misses,111040202
ijk_normal,512,512,512,16,2112,0.154815,1.73391,ref_cycles,322205856,instructions,1012667218,l1_reads,404486472,l1_read_misses,110632266
ijk_normal,512,512,512,16,2112,0.156489,1.71536,ref_cycles,326992176,instructions,1012667155,l1_reads,404488721,l1_read_misses,111894180
ijk_normal,512,512,512,16,2112,0.15733,1.70619,ref_cycles,328226472,instructions,1012667189,l1_reads,404488721,l1_read_misses,111747911
ijk_normal,512,512,512,16,2112,0.157752,1.70163,ref_cycles,328951308,instructions,1012667249,l1_reads,404488721,l1_read_misses,111894585
ijk_normal,512,512,512,16,2112,0.158761,1.69081,ref_cycles,331533468,instructions,1012667122,l1_reads,404488721,l1_read_misses,111545129
ijk_normal,512,512,512,16,2112,0.159691,1.68097,ref_cycles,333141564,instructions,1012667156,l1_reads,404486306,l1_read_misses,112491566
ijk_normal,512,512,512,16,2112,0.158003,1.69893,ref_cycles,332323824,instructions,1012667139,l1_reads,404488721,l1_read_misses,111944299
ijk_normal,512,512,512,16,2112,0.158059,1.69832,ref_cycles,329277732,instructions,1012667196,l1_reads,404488721,l1_read_misses,111702010
ijk_normal,512,512,512,16,2112,0.164651,1.63033,ref_cycles,343470792,instructions,1012667272,l1_reads,404488721,l1_read_misses,112490024
ijk_normal,512,512,512,16,2112,0.156543,1.71477,ref_cycles,327300372,instructions,1012667203,l1_reads,404488721,l1_read_misses,111760576
ijk_normal,512,512,512,16,2112,0.158409,1.69457,ref_cycles,330225924,instructions,1012667171,l1_reads,404486414,l1_read_misses,112168600
ijk_normal,512,512,512,16,2112,0.159048,1.68776,ref_cycles,331800588,instructions,1012667147,l1_reads,404488721,l1_read_misses,112749922
ijk_normal,512,512,512,16,2112,0.157861,1.70045,ref_cycles,329297556,instructions,1012667145,l1_reads,404488721,l1_read_misses,111631469
ijk_normal,4096,4096,4096,16,2112,177.972,0.772251,ref_cycles,371033892684,instructions,515782443038,l1_reads,206275746131,l1_read_misses,104976907147
ijk_normal,4096,4096,4096,16,2112,200.973,0.683866,ref_cycles,419414429364,instructions,515782472115,l1_reads,206275557697,l1_read_misses,105152518090
ijk_normal,4096,4096,4096,16,2112,206.54,0.665435,ref_cycles,430744956348,instructions,515782501063,l1_reads,206275498213,l1_read_misses,107061437221
ijk_normal,4096,4096,4096,16,2112,200.218,0.686447,ref_cycles,417738275640,instructions,515782475478,l1_reads,206275576262,l1_read_misses,106422383112
ijk_normal,4096,4096,4096,16,2112,195.939,0.701437,ref_cycles,408413923764,instructions,515782484733,l1_reads,206275871021,l1_read_misses,106704790221
ijk_normal,4096,4096,4096,16,2112,190.007,0.723337,ref_cycles,396376275960,instructions,515782465735,l1_reads,206275607448,l1_read_misses,105415922179
ijk_normal,4096,4096,4096,16,2112,133.742,1.02765,ref_cycles,278881743672,instructions,515782336190,l1_reads,206275527140,l1_read_misses,101053530671
ijk_normal,4096,4096,4096,16,2112,137.499,0.999562,ref_cycles,286936085184,instructions,515782338370,l1_reads,206275623215,l1_read_misses,101999674059
ijk_normal,4096,4096,4096,16,2112,187.569,0.732738,ref_cycles,390958874460,instructions,515782462786,l1_reads,206275870808,l1_read_misses,105852969756
ijk_normal,4096,4096,4096,16,2112,186.111,0.738479,ref_cycles,388363597524,instructions,515782454254,l1_reads,206275597759,l1_read_misses,105415967493
ijk_normal,4096,4096,4096,16,2112,195.471,0.703116,ref_cycles,407534238468,instructions,515782484826,l1_reads,206275737631,l1_read_misses,106813927024
ijk_normal,4096,4096,4096,16,2112,194.258,0.707509,ref_cycles,405418942572,instructions,515782490467,l1_reads,206275629503,l1_read_misses,106539243522
ijk_normal,4096,4096,4096,16,2112,146.521,0.938013,ref_cycles,305665309404,instructions,515782357516,l1_reads,206275870548,l1_read_misses,102712421947
ijk_normal,4096,4096,4096,16,2112,214.504,0.640728,ref_cycles,447587416248,instructions,515782506644,l1_reads,206275561743,l1_read_misses,106658186145
ijk_normal,4096,4096,4096,16,2112,177.388,0.774791,ref_cycles,369762149064,instructions,515782440275,l1_reads,206275736706,l1_read_misses,105140912626
ijk_normal,4096,4096,4096,16,2112,194.998,0.704823,ref_cycles,406888057380,instructions,515782474056,l1_reads,206275587851,l1_read_misses,106265499775
ijk_normal,4096,4096,4096,16,2112,206.622,0.665172,ref_cycles,430946709144,instructions,515782501120,l1_reads,206275572588,l1_read_misses,106304533647
ijk_normal,4096,4096,4096,16,2112,199.234,0.689837,ref_cycles,415323916308,instructions,515782484692,l1_reads,206275609182,l1_read_misses,106429283623
ijk_normal,4096,4096,4096,16,2112,204.289,0.672766,ref_cycles,425976512304,instructions,515782495586,l1_reads,206275872557,l1_read_misses,107497286773
ikj_normal,32,32,32,16,2112,0,inf,ref_cycles,62580,instructions,238059,l1_reads,106608,l1_read_misses,258
ikj_normal,32,32,32,16,2112,4e-06,16.384,ref_cycles,59304,instructions,238059,l1_reads,106608,l1_read_misses,260
ikj_normal,32,32,32,16,2112,0,inf,ref_cycles,61152,instructions,238059,l1_reads,106608,l1_read_misses,267
ikj_normal,32,32,32,16,2112,0,inf,ref_cycles,61992,instructions,238059,l1_reads,106608,l1_read_misses,251
ikj_normal,32,32,32,16,2112,0,inf,ref_cycles,59808,instructions,238059,l1_reads,106608,l1_read_misses,270
ikj_normal,32,32,32,16,2112,0,inf,ref_cycles,64092,instructions,238059,l1_reads,106608,l1_read_misses,261
ikj_normal,32,32,32,16,2112,3e-06,21.8453,ref_cycles,55776,instructions,238059,l1_reads,106608,l1_read_misses,264
ikj_normal,32,32,32,16,2112,0,inf,ref_cycles,59304,instructions,238059,l1_reads,106608,l1_read_misses,264
ikj_normal,32,32,32,16,2112,0,inf,ref_cycles,55524,instructions,238059,l1_reads,106608,l1_read_misses,263
ikj_normal,32,32,32,16,2112,0,inf,ref_cycles,59220,instructions,238059,l1_reads,106608,l1_read_misses,260
ikj_normal,32,32,32,16,2112,0,inf,ref_cycles,59052,instructions,238059,l1_reads,106608,l1_read_misses,261
ikj_normal,32,32,32,16,2112,4e-06,16.384,ref_cycles,55776,instructions,238059,l1_reads,106608,l1_read_misses,259
ikj_normal,32,32,32,16,2112,0,inf,ref_cycles,59052,instructions,238059,l1_reads,106608,l1_read_misses,264
ikj_normal,32,32,32,16,2112,0,inf,ref_cycles,59052,instructions,238059,l1_reads,106608,l1_read_misses,258
ikj_normal,32,32,32,16,2112,0,inf,ref_cycles,59640,instructions,238059,l1_reads,106608,l1_read_misses,263
ikj_normal,32,32,32,16,2112,0,inf,ref_cycles,58800,instructions,238059,l1_reads,106608,l1_read_misses,261
ikj_normal,32,32,32,16,2112,0,inf,ref_cycles,59220,instructions,238059,l1_reads,106608,l1_read_misses,264
ikj_normal,32,32,32,16,2112,0,inf,ref_cycles,58884,instructions,238059,l1_reads,106608,l1_read_misses,259
ikj_normal,32,32,32,16,2112,4e-06,16.384,ref_cycles,59052,instructions,238059,l1_reads,106608,l1_read_misses,263
ikj_normal,32,32,32,16,2112,4e-06,16.384,ref_cycles,59052,instructions,238059,l1_reads,106608,l1_read_misses,264
ikj_normal,512,512,512,16,2112,0.093716,2.86435,ref_cycles,195325032,instructions,878714096,l1_reads,404751888,l1_read_misses,8550590
ikj_normal,512,512,512,16,2112,0.093556,2.86925,ref_cycles,195929076,instructions,878714057,l1_reads,404751888,l1_read_misses,8549130
ikj_normal,512,512,512,16,2112,0.09381,2.86148,ref_cycles,195885228,instructions,878714014,l1_reads,404751888,l1_read_misses,8549345
ikj_normal,512,512,512,16,2112,0.093973,2.85652,ref_cycles,196155120,instructions,878714037,l1_reads,404751888,l1_read_misses,8549385
ikj_normal,512,512,512,16,2112,0.09364,2.86668,ref_cycles,195619116,instructions,878714034,l1_reads,404751888,l1_read_misses,8550817
ikj_normal,512,512,512,16,2112,0.09441,2.84329,ref_cycles,197242500,instructions,878714092,l1_reads,404751888,l1_read_misses,8551033
ikj_normal,512,512,512,16,2112,0.093878,2.85941,ref_cycles,195632892,instructions,878714113,l1_reads,404751888,l1_read_misses,8551715
ikj_normal,512,512,512,16,2112,0.094365,2.84465,ref_cycles,195844572,instructions,878714205,l1_reads,404751888,l1_read_misses,8552316
ikj_normal,512,512,512,16,2112,0.094486,2.84101,ref_cycles,196682220,instructions,878714097,l1_reads,404751888,l1_read_misses,8551671
ikj_normal,512,512,512,16,2112,0.102153,2.62778,ref_cycles,213364452,instructions,878714066,l1_reads,404751888,l1_read_misses,8550409
ikj_normal,512,512,512,16,2112,0.093985,2.85615,ref_cycles,196305732,instructions,878714037,l1_reads,404751888,l1_read_misses,8549552
ikj_normal,512,512,512,16,2112,0.093883,2.85926,ref_cycles,195715380,instructions,878714074,l1_reads,404751888,l1_read_misses,8551165
ikj_normal,512,512,512,16,2112,0.093693,2.86505,ref_cycles,195462708,instructions,878714057,l1_reads,404751888,l1_read_misses,8550655
ikj_normal,512,512,512,16,2112,0.093809,2.86151,ref_cycles,196374864,instructions,878714070,l1_reads,404751888,l1_read_misses,8549473
ikj_normal,512,512,512,16,2112,0.095066,2.82367,ref_cycles,197245188,instructions,878714196,l1_reads,404751888,l1_read_misses,8551019
ikj_normal,512,512,512,16,2112,0.093531,2.87002,ref_cycles,195472200,instructions,878714088,l1_reads,404751888,l1_read_misses,8551229
ikj_normal,512,512,512,16,2112,0.093836,2.86069,ref_cycles,196174944,instructions,878714060,l1_reads,404751888,l1_read_misses,8550930
ikj_normal,512,512,512,16,2112,0.103952,2.5823,ref_cycles,217122612,instructions,878714034,l1_reads,404751888,l1_read_misses,8545521
ikj_normal,512,512,512,16,2112,0.094006,2.85551,ref_cycles,195760236,instructions,878714119,l1_reads,404751888,l1_read_misses,8549993
ikj_normal,512,512,512,16,2112,0.093458,2.87226,ref_cycles,195390216,instructions,878714031,l1_reads,404751888,l1_read_misses,8549501
ikj_normal,4096,4096,4096,16,2112,50.6445,2.7138,ref_cycles,105598650192,instructions,447079529599,l1_reads,206292658585,l1_read_misses,5132314661
ijk_normal,4096,4096,4096,16,2112,214.697,0.640152,ref_cycles,447886527228,instructions,515782505814,l1_reads,206275560353,l1_read_misses,106556966452
ikj_normal,4096,4096,4096,16,2112,50.7265,2.70941,ref_cycles,105784901292,instructions,447079529072,l1_reads,206292660247,l1_read_misses,5129713666
ikj_normal,4096,4096,4096,16,2112,53.1934,2.58376,ref_cycles,111046843992,instructions,447079531431,l1_reads,206292659474,l1_read_misses,5129486253
ikj_normal,4096,4096,4096,16,2112,50.5842,2.71704,ref_cycles,105512816304,instructions,447079515378,l1_reads,206292660246,l1_read_misses,5129778789
ikj_normal,4096,4096,4096,16,2112,53.0879,2.5889,ref_cycles,110816040552,instructions,447079531796,l1_reads,206292659516,l1_read_misses,5132823592
ikj_normal,4096,4096,4096,16,2112,50.6037,2.71599,ref_cycles,105530125008,instructions,447079514919,l1_reads,206292660247,l1_read_misses,5128573248
ikj_normal,4096,4096,4096,16,2112,56.5995,2.42827,ref_cycles,118059082764,instructions,447079522961,l1_reads,206292659534,l1_read_misses,5128272040
ikj_normal,4096,4096,4096,16,2112,55.7179,2.46669,ref_cycles,116236361220,instructions,447079521890,l1_reads,206292660231,l1_read_misses,5126876378
ikj_normal,4096,4096,4096,16,2112,53.1323,2.58673,ref_cycles,110899803504,instructions,447079518161,l1_reads,206292659504,l1_read_misses,5129381761
ikj_normal,4096,4096,4096,16,2112,50.6897,2.71138,ref_cycles,105748490736,instructions,447079516682,l1_reads,206292660251,l1_read_misses,5128917652
ikj_normal,4096,4096,4096,16,2112,53.0318,2.59163,ref_cycles,110707719696,instructions,447079516231,l1_reads,206292659506,l1_read_misses,5123216694
ikj_normal,4096,4096,4096,16,2112,51.914,2.64744,ref_cycles,108234100296,instructions,447079518951,l1_reads,206292658459,l1_read_misses,5125881489
ikj_normal,4096,4096,4096,16,2112,51.8743,2.64946,ref_cycles,108087199584,instructions,447079515925,l1_reads,206292660259,l1_read_misses,5128019257
ikj_normal,4096,4096,4096,16,2112,52.9954,2.59341,ref_cycles,110647618620,instructions,447079515284,l1_reads,206292659458,l1_read_misses,5125581609
ikj_normal,4096,4096,4096,16,2112,52.6676,2.60955,ref_cycles,109851750204,instructions,447079515788,l1_reads,206292660250,l1_read_misses,5127471320
ikj_normal,4096,4096,4096,16,2112,53.3518,2.57609,ref_cycles,111362276676,instructions,447079550366,l1_reads,206292674671,l1_read_misses,5130125729
ikj_normal,4096,4096,4096,16,2112,52.4698,2.61939,ref_cycles,109400602248,instructions,447079519941,l1_reads,206292660258,l1_read_misses,5130125933
ikj_normal,4096,4096,4096,16,2112,53.4014,2.5737,ref_cycles,111397839420,instructions,447079557188,l1_reads,206292674654,l1_read_misses,5128469176
ikj_normal,4096,4096,4096,16,2112,60.6941,2.26445,ref_cycles,126610007328,instructions,447079529642,l1_reads,206292660228,l1_read_misses,5125264796
ijk_l1_tiled,32,32,32,16,2112,0,inf,ref_cycles,76020,instructions,271791,l1_reads,105575,l1_read_misses,261
ijk_l1_tiled,32,32,32,16,2112,0,inf,ref_cycles,70476,instructions,271791,l1_reads,105575,l1_read_misses,259
ijk_l1_tiled,32,32,32,16,2112,0,inf,ref_cycles,70560,instructions,271791,l1_reads,105575,l1_read_misses,266
ijk_l1_tiled,32,32,32,16,2112,0,inf,ref_cycles,70476,instructions,271791,l1_reads,105575,l1_read_misses,261
ijk_l1_tiled,32,32,32,16,2112,0,inf,ref_cycles,69888,instructions,271791,l1_reads,105575,l1_read_misses,254
ijk_l1_tiled,32,32,32,16,2112,0,inf,ref_cycles,66612,instructions,271791,l1_reads,105575,l1_read_misses,270
ijk_l1_tiled,32,32,32,16,2112,0,inf,ref_cycles,70392,instructions,271791,l1_reads,105575,l1_read_misses,263
ijk_l1_tiled,32,32,32,16,2112,0,inf,ref_cycles,69804,instructions,271791,l1_reads,105575,l1_read_misses,255
ijk_l1_tiled,32,32,32,16,2112,0,inf,ref_cycles,70308,instructions,271791,l1_reads,105575,l1_read_misses,260
ijk_l1_tiled,32,32,32,16,2112,0,inf,ref_cycles,70728,instructions,271791,l1_reads,105575,l1_read_misses,263
ijk_l1_tiled,32,32,32,16,2112,0,inf,ref_cycles,70392,instructions,271791,l1_reads,105575,l1_read_misses,265
ijk_l1_tiled,32,32,32,16,2112,0,inf,ref_cycles,70392,instructions,271791,l1_reads,105575,l1_read_misses,268
ijk_l1_tiled,32,32,32,16,2112,0,inf,ref_cycles,92736,instructions,271791,l1_reads,105575,l1_read_misses,253
ijk_l1_tiled,32,32,32,16,2112,0,inf,ref_cycles,70392,instructions,271791,l1_reads,105575,l1_read_misses,269
ijk_l1_tiled,32,32,32,16,2112,5e-06,13.1072,ref_cycles,70224,instructions,271791,l1_reads,105575,l1_read_misses,267
ijk_l1_tiled,32,32,32,16,2112,6e-06,10.9227,ref_cycles,88788,instructions,271791,l1_reads,105575,l1_read_misses,258
ijk_l1_tiled,32,32,32,16,2112,0,inf,ref_cycles,70476,instructions,271791,l1_reads,105575,l1_read_misses,264
ijk_l1_tiled,32,32,32,16,2112,0,inf,ref_cycles,70224,instructions,271791,l1_reads,105575,l1_read_misses,260
ijk_l1_tiled,32,32,32,16,2112,0,inf,ref_cycles,70392,instructions,271791,l1_reads,105575,l1_read_misses,265
ijk_l1_tiled,32,32,32,16,2112,0,inf,ref_cycles,69216,instructions,271791,l1_reads,105575,l1_read_misses,253
ijk_l1_tiled,512,512,512,16,2112,0.143695,1.86809,ref_cycles,298731384,instructions,1032923675,l1_reads,410010428,l1_read_misses,10869079
ijk_l1_tiled,512,512,512,16,2112,0.144104,1.86279,ref_cycles,299955852,instructions,1032923611,l1_reads,410010428,l1_read_misses,10880769
ijk_l1_tiled,512,512,512,16,2112,0.144495,1.85775,ref_cycles,300882960,instructions,1032923713,l1_reads,410010428,l1_read_misses,11746654
ijk_l1_tiled,512,512,512,16,2112,0.142799,1.87981,ref_cycles,297517332,instructions,1032923665,l1_reads,410010428,l1_read_misses,10684266
ijk_l1_tiled,512,512,512,16,2112,0.141518,1.89683,ref_cycles,295506288,instructions,1032923546,l1_reads,410010428,l1_read_misses,11450025
ijk_l1_tiled,512,512,512,16,2112,0.141921,1.89144,ref_cycles,296165016,instructions,1032923575,l1_reads,410010428,l1_read_misses,10872814
ijk_l1_tiled,512,512,512,16,2112,0.143722,1.86774,ref_cycles,299467392,instructions,1032923678,l1_reads,410010428,l1_read_misses,11248363
ijk_l1_tiled,512,512,512,16,2112,0.145245,1.84816,ref_cycles,302772372,instructions,1032923659,l1_reads,410010428,l1_read_misses,10849505
ijk_l1_tiled,512,512,512,16,2112,0.138241,1.94179,ref_cycles,293470296,instructions,1032923538,l1_reads,410010428,l1_read_misses,10871396
ijk_l1_tiled,512,512,512,16,2112,0.143358,1.87248,ref_cycles,298967256,instructions,1032923617,l1_reads,410010428,l1_read_misses,11262924
ijk_l1_tiled,512,512,512,16,2112,0.14173,1.89399,ref_cycles,295778028,instructions,1032923578,l1_reads,410010428,l1_read_misses,11471571
ijk_l1_tiled,512,512,512,16,2112,0.141802,1.89303,ref_cycles,296062032,instructions,1032923584,l1_reads,410010428,l1_read_misses,11454459
ijk_l1_tiled,512,512,512,16,2112,0.145008,1.85118,ref_cycles,301226772,instructions,1032923831,l1_reads,410010428,l1_read_misses,11053502
ijk_l1_tiled,512,512,512,16,2112,0.143278,1.87353,ref_cycles,299667984,instructions,1032923642,l1_reads,410010428,l1_read_misses,11132027
ikj_normal,4096,4096,4096,16,2112,61.8696,2.22143,ref_cycles,129147223044,instructions,447079531353,l1_reads,206292659482,l1_read_misses,5128210543
ijk_l1_tiled,512,512,512,16,2112,0.141086,1.90264,ref_cycles,294434532,instructions,1032923569,l1_reads,410010428,l1_read_misses,10943804
ijk_l1_tiled,512,512,512,16,2112,0.138102,1.94375,ref_cycles,289403772,instructions,1032923561,l1_reads,410010428,l1_read_misses,11299301
ijk_l1_tiled,512,512,512,16,2112,0.139715,1.92131,ref_cycles,293379072,instructions,1032923561,l1_reads,410010429,l1_read_misses,11131054
ijk_l1_tiled,512,512,512,16,2112,0.139739,1.92098,ref_cycles,291699072,instructions,1032923593,l1_reads,410010428,l1_read_misses,10747565
ijk_l1_tiled,512,512,512,16,2112,0.144381,1.85922,ref_cycles,300989472,instructions,1032923610,l1_reads,410010428,l1_read_misses,10819502
ijk_l1_tiled,512,512,512,16,2112,0.138565,1.93725,ref_cycles,289494240,instructions,1032923597,l1_reads,410010428,l1_read_misses,11548938
ijk_l1_tiled,4096,4096,4096,16,2112,71.8741,1.91222,ref_cycles,150074956752,instructions,528856756663,l1_reads,209925263532,l1_read_misses,6792793184
ijk_l1_tiled,4096,4096,4096,16,2112,73.0268,1.88203,ref_cycles,152180188440,instructions,528856763151,l1_reads,209925245974,l1_read_misses,7196966548
ijk_l1_tiled,4096,4096,4096,16,2112,71.5967,1.91963,ref_cycles,149492111160,instructions,528856754372,l1_reads,209925263095,l1_read_misses,7019539244
ijk_l1_tiled,4096,4096,4096,16,2112,71.4273,1.92418,ref_cycles,149151232608,instructions,528856759122,l1_reads,209925281010,l1_read_misses,6574294049
ijk_l1_tiled,4096,4096,4096,16,2112,71.1132,1.93268,ref_cycles,148512175392,instructions,528856751481,l1_reads,209925262994,l1_read_misses,7179719597
ijk_l1_tiled,4096,4096,4096,16,2112,71.0321,1.93489,ref_cycles,148350397272,instructions,528856756328,l1_reads,209925281012,l1_read_misses,6770845047
ijk_l1_tiled,4096,4096,4096,16,2112,79.4891,1.72903,ref_cycles,166073114256,instructions,528856769546,l1_reads,209925280663,l1_read_misses,7348766731
ijk_l1_tiled,4096,4096,4096,16,2112,80.4773,1.7078,ref_cycles,168081931164,instructions,528856808380,l1_reads,209925276146,l1_read_misses,7005831662
ijk_l1_tiled,4096,4096,4096,16,2112,71.0448,1.93454,ref_cycles,148392836928,instructions,528856755779,l1_reads,209925210912,l1_read_misses,6874203963
ijk_l1_tiled,4096,4096,4096,16,2112,71.5334,1.92133,ref_cycles,149327182956,instructions,528856756872,l1_reads,209925262665,l1_read_misses,6542685048
ijk_l1_tiled,4096,4096,4096,16,2112,70.9843,1.93619,ref_cycles,148266350652,instructions,528856756400,l1_reads,209925281014,l1_read_misses,6977255489
ijk_l1_tiled,4096,4096,4096,16,2112,71.2911,1.92786,ref_cycles,148829502360,instructions,528856754880,l1_reads,209925263166,l1_read_misses,6764400319
ijk_l1_tiled,4096,4096,4096,16,2112,70.7658,1.94217,ref_cycles,147774851112,instructions,528856752926,l1_reads,209925281011,l1_read_misses,7188969778
ijk_l1_tiled,4096,4096,4096,16,2112,71.0511,1.93437,ref_cycles,148346815260,instructions,528856754065,l1_reads,209925264006,l1_read_misses,6924463368
ijk_l1_tiled,4096,4096,4096,16,2112,81.0758,1.69519,ref_cycles,169372597884,instructions,528856776875,l1_reads,209925280635,l1_read_misses,6928276816
ijk_l1_tiled,4096,4096,4096,16,2112,84.0776,1.63467,ref_cycles,175616270676,instructions,528856775399,l1_reads,209925258939,l1_read_misses,7705237579
ijk_l1_tiled,4096,4096,4096,16,2112,71.0798,1.93359,ref_cycles,148444801596,instructions,528856758832,l1_reads,209925244254,l1_read_misses,6530454149
ijk_l1_tiled,4096,4096,4096,16,2112,71.5183,1.92173,ref_cycles,149264064012,instructions,528856757893,l1_reads,209925264096,l1_read_misses,6586989339
ijk_l1_tiled,4096,4096,4096,16,2112,70.9588,1.93688,ref_cycles,148188694500,instructions,528856758198,l1_reads,209925281016,l1_read_misses,6721700782
ikj_reg_tiled,32,32,32,16,2112,3e-06,21.8453,ref_cycles,49644,instructions,164029,l1_reads,102432,l1_read_misses,259
ikj_reg_tiled,32,32,32,16,2112,4e-06,16.384,ref_cycles,49476,instructions,164029,l1_reads,102432,l1_read_misses,263
ikj_reg_tiled,32,32,32,16,2112,0,inf,ref_cycles,49392,instructions,164029,l1_reads,102432,l1_read_misses,266
ikj_reg_tiled,32,32,32,16,2112,0,inf,ref_cycles,50148,instructions,164029,l1_reads,102432,l1_read_misses,259
ikj_reg_tiled,32,32,32,16,2112,0,inf,ref_cycles,47124,instructions,164029,l1_reads,102432,l1_read_misses,258
ikj_reg_tiled,32,32,32,16,2112,0,inf,ref_cycles,49476,instructions,164029,l1_reads,102432,l1_read_misses,264
ikj_reg_tiled,32,32,32,16,2112,0,inf,ref_cycles,49392,instructions,164029,l1_reads,102432,l1_read_misses,263
ikj_reg_tiled,32,32,32,16,2112,0,inf,ref_cycles,50148,instructions,164029,l1_reads,102432,l1_read_misses,261
ikj_reg_tiled,32,32,32,16,2112,0,inf,ref_cycles,50148,instructions,164029,l1_reads,102432,l1_read_misses,265
ikj_reg_tiled,32,32,32,16,2112,0,inf,ref_cycles,49476,instructions,164029,l1_reads,102432,l1_read_misses,272
ikj_reg_tiled,32,32,32,16,2112,4e-06,16.384,ref_cycles,49476,instructions,164029,l1_reads,102432,l1_read_misses,267
ikj_reg_tiled,32,32,32,16,2112,0,inf,ref_cycles,50064,instructions,164029,l1_reads,102432,l1_read_misses,262
ikj_reg_tiled,32,32,32,16,2112,0,inf,ref_cycles,49392,instructions,164029,l1_reads,102432,l1_read_misses,266
ikj_reg_tiled,32,32,32,16,2112,0,inf,ref_cycles,49644,instructions,164029,l1_reads,102432,l1_read_misses,259
ikj_reg_tiled,32,32,32,16,2112,0,inf,ref_cycles,49644,instructions,164029,l1_reads,102432,l1_read_misses,267
ikj_reg_tiled,32,32,32,16,2112,0,inf,ref_cycles,50148,instructions,164029,l1_reads,102432,l1_read_misses,271
ikj_reg_tiled,32,32,32,16,2112,0,inf,ref_cycles,49560,instructions,164029,l1_reads,102432,l1_read_misses,267
ikj_reg_tiled,32,32,32,16,2112,0,inf,ref_cycles,49476,instructions,164029,l1_reads,102432,l1_read_misses,268
ikj_reg_tiled,32,32,32,16,2112,0,inf,ref_cycles,50064,instructions,164029,l1_reads,102432,l1_read_misses,268
ikj_reg_tiled,32,32,32,16,2112,0,inf,ref_cycles,47124,instructions,164029,l1_reads,102432,l1_read_misses,262
ikj_reg_tiled,512,512,512,16,2112,0.074749,3.59116,ref_cycles,155552628,instructions,639633905,l1_reads,403702032,l1_read_misses,4290655
ikj_reg_tiled,512,512,512,16,2112,0.075,3.57914,ref_cycles,156309636,instructions,639633835,l1_reads,403702032,l1_read_misses,4289864
ikj_reg_tiled,512,512,512,16,2112,0.074402,3.60791,ref_cycles,155450064,instructions,639633816,l1_reads,403702032,l1_read_misses,4289687
ikj_reg_tiled,512,512,512,16,2112,0.073756,3.63951,ref_cycles,154781760,instructions,639633784,l1_reads,403702032,l1_read_misses,4289520
ikj_reg_tiled,512,512,512,16,2112,0.074249,3.61534,ref_cycles,155221500,instructions,639633812,l1_reads,403702032,l1_read_misses,4289515
ikj_reg_tiled,512,512,512,16,2112,0.074136,3.62085,ref_cycles,155459724,instructions,639633788,l1_reads,403702032,l1_read_misses,4289238
ikj_reg_tiled,512,512,512,16,2112,0.075771,3.54272,ref_cycles,157127712,instructions,639633950,l1_reads,403702032,l1_read_misses,4291308
ikj_reg_tiled,512,512,512,16,2112,0.074502,3.60306,ref_cycles,155747592,instructions,639633816,l1_reads,403702032,l1_read_misses,4290072
ikj_reg_tiled,512,512,512,16,2112,0.074132,3.62105,ref_cycles,154819140,instructions,639633824,l1_reads,403702032,l1_read_misses,4290147
ikj_reg_tiled,512,512,512,16,2112,0.07477,3.59015,ref_cycles,155581188,instructions,639633901,l1_reads,403702032,l1_read_misses,4290791
ikj_reg_tiled,512,512,512,16,2112,0.07485,3.58631,ref_cycles,155898036,instructions,639633887,l1_reads,403702032,l1_read_misses,4291341
ikj_reg_tiled,512,512,512,16,2112,0.073712,3.64168,ref_cycles,155312808,instructions,639633811,l1_reads,403702032,l1_read_misses,4289663
ikj_reg_tiled,512,512,512,16,2112,0.073293,3.6625,ref_cycles,155351112,instructions,639633799,l1_reads,403702032,l1_read_misses,4289667
ikj_reg_tiled,512,512,512,16,2112,0.074352,3.61033,ref_cycles,155834028,instructions,639633823,l1_reads,403702032,l1_read_misses,4289946
ikj_reg_tiled,512,512,512,16,2112,0.074063,3.62442,ref_cycles,155705844,instructions,639633842,l1_reads,403702032,l1_read_misses,4289964
ikj_reg_tiled,512,512,512,16,2112,0.074969,3.58062,ref_cycles,156307452,instructions,639633825,l1_reads,403702032,l1_read_misses,4289486
ikj_reg_tiled,512,512,512,16,2112,0.074598,3.59843,ref_cycles,155562036,instructions,639633828,l1_reads,403702032,l1_read_misses,4289906
ikj_reg_tiled,512,512,512,16,2112,0.075595,3.55097,ref_cycles,156967356,instructions,639633955,l1_reads,403702032,l1_read_misses,4290969
ikj_reg_tiled,512,512,512,16,2112,0.075475,3.55661,ref_cycles,156793224,instructions,639633893,l1_reads,403702032,l1_read_misses,4290692
ikj_reg_tiled,512,512,512,16,2112,0.073959,3.62952,ref_cycles,155621928,instructions,639633816,l1_reads,403702032,l1_read_misses,4289769
ijk_l1_tiled,4096,4096,4096,16,2112,71.3904,1.92517,ref_cycles,149038934352,instructions,528856756590,l1_reads,209925263861,l1_read_misses,6764961197
ikj_reg_tiled,4096,4096,4096,16,2112,42.0671,3.26714,ref_cycles,87739677900,instructions,326551940035,l1_reads,206225541147,l1_read_misses,6478241592
ikj_reg_tiled,4096,4096,4096,16,2112,42.0817,3.26601,ref_cycles,87773183316,instructions,326551941116,l1_reads,206225540182,l1_read_misses,6477339811
ikj_reg_tiled,4096,4096,4096,16,2112,42.1411,3.2614,ref_cycles,87915796080,instructions,326551949064,l1_reads,206225541136,l1_read_misses,6478016930
ikj_reg_tiled,4096,4096,4096,16,2112,42.4216,3.23983,ref_cycles,88424558796,instructions,326551950630,l1_reads,206225555096,l1_read_misses,6477453642
ikj_reg_tiled,4096,4096,4096,16,2112,47.321,2.9044,ref_cycles,98779841160,instructions,326551951663,l1_reads,206225541112,l1_read_misses,6478756951
ikj_reg_tiled,4096,4096,4096,16,2112,48.2068,2.85103,ref_cycles,100614261300,instructions,326551956041,l1_reads,206225540093,l1_read_misses,6478186083
ikj_reg_tiled,4096,4096,4096,16,2112,42.0964,3.26486,ref_cycles,87810941736,instructions,326551949140,l1_reads,206225541140,l1_read_misses,6477979102
ikj_reg_tiled,4096,4096,4096,16,2112,42.8139,3.21014,ref_cycles,89299449792,instructions,326551949205,l1_reads,206225540172,l1_read_misses,6477476520
ikj_reg_tiled,4096,4096,4096,16,2112,42.0323,3.26984,ref_cycles,87651931164,instructions,326551946320,l1_reads,206225551696,l1_read_misses,6477711216
ikj_reg_tiled,4096,4096,4096,16,2112,42.108,3.26396,ref_cycles,87805286604,instructions,326551943768,l1_reads,206225540078,l1_read_misses,6477266638
ikj_reg_tiled,4096,4096,4096,16,2112,42.0695,3.26695,ref_cycles,87784937772,instructions,326551941587,l1_reads,206225541143,l1_read_misses,6478266951
ikj_reg_tiled,4096,4096,4096,16,2112,42.8439,3.2079,ref_cycles,89394399612,instructions,326551940534,l1_reads,206225540308,l1_read_misses,6477752369
ikj_reg_tiled,4096,4096,4096,16,2112,42.1424,3.26129,ref_cycles,87914614704,instructions,326551941059,l1_reads,206225541139,l1_read_misses,6478418744
ikj_reg_tiled,4096,4096,4096,16,2112,42.6717,3.22085,ref_cycles,88996937148,instructions,326551950346,l1_reads,206225540246,l1_read_misses,6477441033
ikj_reg_tiled,4096,4096,4096,16,2112,41.9972,3.27258,ref_cycles,87631629120,instructions,326551947477,l1_reads,206225541139,l1_read_misses,6478018512
ikj_reg_tiled,4096,4096,4096,16,2112,42.0717,3.26678,ref_cycles,87730858320,instructions,326551943674,l1_reads,206225540187,l1_read_misses,6477456068
ikj_reg_tiled,4096,4096,4096,16,2112,42.1355,3.26183,ref_cycles,87924543084,instructions,326551944209,l1_reads,206225541148,l1_read_misses,6478120687
ikj_reg_tiled,4096,4096,4096,16,2112,43.154,3.18485,ref_cycles,90037980396,instructions,326551943192,l1_reads,206225540217,l1_read_misses,6477735050
ikj_reg_tiled,4096,4096,4096,16,2112,48.4037,2.83943,ref_cycles,100996996296,instructions,326551950208,l1_reads,206225541107,l1_read_misses,6479093677
ikj_l1_tiled,32,32,32,16,2112,0,inf,ref_cycles,44604,instructions,175741,l1_reads,99155,l1_read_misses,300
ikj_l1_tiled,32,32,32,16,2112,0,inf,ref_cycles,49812,instructions,175741,l1_reads,99155,l1_read_misses,302
ikj_l1_tiled,32,32,32,16,2112,3e-06,21.8453,ref_cycles,47880,instructions,175741,l1_reads,99155,l1_read_misses,304
ikj_l1_tiled,32,32,32,16,2112,0,inf,ref_cycles,48300,instructions,175741,l1_reads,99155,l1_read_misses,303
ikj_l1_tiled,32,32,32,16,2112,0,inf,ref_cycles,47880,instructions,175741,l1_reads,99155,l1_read_misses,300
ikj_l1_tiled,32,32,32,16,2112,3e-06,21.8453,ref_cycles,47880,instructions,175741,l1_reads,99155,l1_read_misses,299
ikj_l1_tiled,32,32,32,16,2112,3e-06,21.8453,ref_cycles,47880,instructions,175741,l1_reads,99155,l1_read_misses,299
ikj_l1_tiled,32,32,32,16,2112,0,inf,ref_cycles,47712,instructions,175741,l1_reads,99155,l1_read_misses,302
ikj_l1_tiled,32,32,32,16,2112,4e-06,16.384,ref_cycles,47880,instructions,175741,l1_reads,99155,l1_read_misses,300
ikj_l1_tiled,32,32,32,16,2112,0,inf,ref_cycles,48048,instructions,175741,l1_reads,99155,l1_read_misses,301
ikj_l1_tiled,32,32,32,16,2112,0,inf,ref_cycles,47796,instructions,175741,l1_reads,99155,l1_read_misses,300
ikj_l1_tiled,32,32,32,16,2112,0,inf,ref_cycles,47796,instructions,175741,l1_reads,99155,l1_read_misses,310
ikj_l1_tiled,32,32,32,16,2112,0,inf,ref_cycles,47880,instructions,175741,l1_reads,99155,l1_read_misses,302
ikj_l1_tiled,32,32,32,16,2112,0,inf,ref_cycles,48552,instructions,175741,l1_reads,99155,l1_read_misses,306
ikj_l1_tiled,32,32,32,16,2112,0,inf,ref_cycles,50736,instructions,175741,l1_reads,99155,l1_read_misses,298
ikj_l1_tiled,32,32,32,16,2112,5.1e-05,1.28502,ref_cycles,48636,instructions,175742,l1_reads,99155,l1_read_misses,307
ikj_l1_tiled,32,32,32,16,2112,0,inf,ref_cycles,47880,instructions,175741,l1_reads,99155,l1_read_misses,307
ikj_l1_tiled,32,32,32,16,2112,0,inf,ref_cycles,47880,instructions,175741,l1_reads,99155,l1_read_misses,304
ikj_l1_tiled,32,32,32,16,2112,4e-06,16.384,ref_cycles,48804,instructions,175741,l1_reads,99155,l1_read_misses,299
ikj_l1_tiled,32,32,32,16,2112,0,inf,ref_cycles,47880,instructions,175741,l1_reads,99155,l1_read_misses,301
ikj_l1_tiled,512,512,512,16,2112,0.073941,3.6304,ref_cycles,154712880,instructions,707354229,l1_reads,403215352,l1_read_misses,5731614
ikj_l1_tiled,512,512,512,16,2112,0.074463,3.60495,ref_cycles,155188656,instructions,707354239,l1_reads,403215352,l1_read_misses,5732199
ikj_l1_tiled,512,512,512,16,2112,0.074687,3.59414,ref_cycles,154892052,instructions,707354356,l1_reads,403215352,l1_read_misses,5733537
ikj_l1_tiled,512,512,512,16,2112,0.073626,3.64593,ref_cycles,154593600,instructions,707354287,l1_reads,403215352,l1_read_misses,5733056
ikj_l1_tiled,512,512,512,16,2112,0.075003,3.579,ref_cycles,156002280,instructions,707354274,l1_reads,403215352,l1_read_misses,5732472
ikj_l1_tiled,512,512,512,16,2112,0.07457,3.59978,ref_cycles,154978824,instructions,707354330,l1_reads,403215352,l1_read_misses,5732932
ikj_l1_tiled,512,512,512,16,2112,0.0756,3.55073,ref_cycles,156759876,instructions,707354325,l1_reads,403215352,l1_read_misses,5733243
ikj_l1_tiled,512,512,512,16,2112,0.073601,3.64717,ref_cycles,154035504,instructions,707354209,l1_reads,403215352,l1_read_misses,5732673
ikj_l1_tiled,512,512,512,16,2112,0.072894,3.68255,ref_cycles,154185024,instructions,707354218,l1_reads,403215352,l1_read_misses,5732470
ikj_l1_tiled,512,512,512,16,2112,0.073891,3.63286,ref_cycles,154405104,instructions,707354220,l1_reads,403215352,l1_read_misses,5731897
ikj_l1_tiled,512,512,512,16,2112,0.073701,3.64222,ref_cycles,154381500,instructions,707354241,l1_reads,403215352,l1_read_misses,5734347
ikj_l1_tiled,512,512,512,16,2112,0.074026,3.62623,ref_cycles,154570248,instructions,707354235,l1_reads,403215352,l1_read_misses,5733143
ikj_l1_tiled,512,512,512,16,2112,0.074302,3.61276,ref_cycles,155526756,instructions,707354243,l1_reads,403215352,l1_read_misses,5733919
ikj_l1_tiled,512,512,512,16,2112,0.073739,3.64035,ref_cycles,154339752,instructions,707354201,l1_reads,403215352,l1_read_misses,5734198
ikj_l1_tiled,512,512,512,16,2112,0.074357,3.61009,ref_cycles,155479716,instructions,707354244,l1_reads,403215352,l1_read_misses,5732532
ikj_l1_tiled,512,512,512,16,2112,0.075591,3.55116,ref_cycles,156767436,instructions,707354308,l1_reads,403215352,l1_read_misses,5733913
ikj_l1_tiled,512,512,512,16,2112,0.073679,3.64331,ref_cycles,154723296,instructions,707354205,l1_reads,403215352,l1_read_misses,5732770
ikj_l1_tiled,512,512,512,16,2112,0.076936,3.48907,ref_cycles,160154652,instructions,707354258,l1_reads,403215352,l1_read_misses,5733583
ikj_l1_tiled,512,512,512,16,2112,0.073438,3.65527,ref_cycles,153762840,instructions,707354197,l1_reads,403215352,l1_read_misses,5732733
ikj_l1_tiled,512,512,512,16,2112,0.074208,3.61734,ref_cycles,154710360,instructions,707354316,l1_reads,403215352,l1_read_misses,5733341
ikj_reg_tiled,4096,4096,4096,16,2112,50.4647,2.72347,ref_cycles,105317920512,instructions,326551968387,l1_reads,206225539987,l1_read_misses,6478344193
ikj_l1_tiled,4096,4096,4096,16,2112,40.4575,3.39712,ref_cycles,84498669696,instructions,362164952792,l1_reads,206446136696,l1_read_misses,2964289139
ikj_l1_tiled,4096,4096,4096,16,2112,40.7368,3.37383,ref_cycles,85018245648,instructions,362164972318,l1_reads,206446135684,l1_read_misses,2965367611
ikj_l1_tiled,4096,4096,4096,16,2112,40.4258,3.39978,ref_cycles,84407029560,instructions,362165005708,l1_reads,206446147546,l1_read_misses,2964931035
ikj_l1_tiled,4096,4096,4096,16,2112,40.817,3.3672,ref_cycles,85192166052,instructions,362164966689,l1_reads,206446135707,l1_read_misses,2964871233
ikj_l1_tiled,4096,4096,4096,16,2112,40.5311,3.39095,ref_cycles,84645578304,instructions,362164965653,l1_reads,206446136690,l1_read_misses,2964111464
ikj_l1_tiled,4096,4096,4096,16,2112,40.8105,3.36773,ref_cycles,85223455716,instructions,362164963682,l1_reads,206446135565,l1_read_misses,2965912563
ikj_l1_tiled,4096,4096,4096,16,2112,40.4621,3.39673,ref_cycles,84521289300,instructions,362164962715,l1_reads,206446136691,l1_read_misses,2964239316
ikj_l1_tiled,4096,4096,4096,16,2112,41.1035,3.34373,ref_cycles,85827694512,instructions,362164962997,l1_reads,206446135783,l1_read_misses,2965566461
ikj_l1_tiled,4096,4096,4096,16,2112,40.4054,3.4015,ref_cycles,84385386540,instructions,362164960268,l1_reads,206446136696,l1_read_misses,2964288156
ikj_l1_tiled,4096,4096,4096,16,2112,40.4453,3.39814,ref_cycles,84447130992,instructions,362164953578,l1_reads,206446135678,l1_read_misses,2965088092
ikj_l1_tiled,4096,4096,4096,16,2112,40.4756,3.3956,ref_cycles,84529582452,instructions,362164959628,l1_reads,206446136691,l1_read_misses,2963993056
ikj_l1_tiled,4096,4096,4096,16,2112,40.9051,3.35995,ref_cycles,85380776376,instructions,362164957624,l1_reads,206446135711,l1_read_misses,2966124690
ikj_l1_tiled,4096,4096,4096,16,2112,44.9179,3.05978,ref_cycles,93825695880,instructions,362164966657,l1_reads,206446136671,l1_read_misses,2965163619
ikj_l1_tiled,4096,4096,4096,16,2112,46.6774,2.94444,ref_cycles,97514890536,instructions,362164960504,l1_reads,206446135583,l1_read_misses,2966155916
ikj_l1_tiled,4096,4096,4096,16,2112,40.5124,3.39251,ref_cycles,84589791384,instructions,362164967373,l1_reads,206446136693,l1_read_misses,2964317549
ikj_l1_tiled,4096,4096,4096,16,2112,40.5693,3.38776,ref_cycles,84681793056,instructions,362164958348,l1_reads,206446135728,l1_read_misses,2965356738
ikj_l1_tiled,4096,4096,4096,16,2112,40.361,3.40524,ref_cycles,84285299196,instructions,362164961848,l1_reads,206446132337,l1_read_misses,2964037914
ikj_l1_tiled,4096,4096,4096,16,2112,40.5908,3.38597,ref_cycles,84715208592,instructions,362164954348,l1_reads,206446135703,l1_read_misses,2965778120
ikj_l1_tiled,4096,4096,4096,16,2112,40.4412,3.39849,ref_cycles,84422339736,instructions,362164962173,l1_reads,206446136696,l1_read_misses,2965761711
ikj_l2_tiled,32,32,32,16,2112,3e-06,21.8453,ref_cycles,46620,instructions,159589,l1_reads,98955,l1_read_misses,263
ikj_l2_tiled,32,32,32,16,2112,0,inf,ref_cycles,47040,instructions,159590,l1_reads,98955,l1_read_misses,286
ikj_l2_tiled,32,32,32,16,2112,0,inf,ref_cycles,49560,instructions,159589,l1_reads,98955,l1_read_misses,254
ikj_l2_tiled,32,32,32,16,2112,0,inf,ref_cycles,46536,instructions,159589,l1_reads,98955,l1_read_misses,265
ikj_l2_tiled,32,32,32,16,2112,0,inf,ref_cycles,46536,instructions,159589,l1_reads,98955,l1_read_misses,259
ikj_l2_tiled,32,32,32,16,2112,0,inf,ref_cycles,46536,instructions,159589,l1_reads,98955,l1_read_misses,268
ikj_l2_tiled,32,32,32,16,2112,4e-06,16.384,ref_cycles,46620,instructions,159589,l1_reads,98955,l1_read_misses,265
ikj_l2_tiled,32,32,32,16,2112,0,inf,ref_cycles,47376,instructions,159589,l1_reads,98955,l1_read_misses,260
ikj_l2_tiled,32,32,32,16,2112,0,inf,ref_cycles,46536,instructions,159589,l1_reads,98955,l1_read_misses,264
ikj_l2_tiled,32,32,32,16,2112,4e-06,16.384,ref_cycles,46536,instructions,159589,l1_reads,98955,l1_read_misses,267
ikj_l2_tiled,32,32,32,16,2112,4.4e-05,1.48945,ref_cycles,47040,instructions,159590,l1_reads,98955,l1_read_misses,278
ikj_l2_tiled,32,32,32,16,2112,7e-06,9.36229,ref_cycles,46872,instructions,159589,l1_reads,98955,l1_read_misses,259
ikj_l2_tiled,32,32,32,16,2112,0,inf,ref_cycles,46536,instructions,159589,l1_reads,98955,l1_read_misses,263
ikj_l2_tiled,32,32,32,16,2112,7.4e-05,0.885622,ref_cycles,50232,instructions,159590,l1_reads,98955,l1_read_misses,277
ikj_l2_tiled,32,32,32,16,2112,0,inf,ref_cycles,46368,instructions,159589,l1_reads,98955,l1_read_misses,266
ikj_l2_tiled,32,32,32,16,2112,0,inf,ref_cycles,46536,instructions,159589,l1_reads,98955,l1_read_misses,268
ikj_l2_tiled,32,32,32,16,2112,0,inf,ref_cycles,46788,instructions,159589,l1_reads,98955,l1_read_misses,272
ikj_l2_tiled,32,32,32,16,2112,0,inf,ref_cycles,46536,instructions,159589,l1_reads,98955,l1_read_misses,273
ikj_l2_tiled,32,32,32,16,2112,0,inf,ref_cycles,47208,instructions,159589,l1_reads,98955,l1_read_misses,273
ikj_l2_tiled,32,32,32,16,2112,0,inf,ref_cycles,50232,instructions,159589,l1_reads,98955,l1_read_misses,272
ikj_l2_tiled,512,512,512,16,2112,0.074252,3.61519,ref_cycles,155602272,instructions,641259499,l1_reads,403202820,l1_read_misses,5719597
ikj_l2_tiled,512,512,512,16,2112,0.074079,3.62364,ref_cycles,155069628,instructions,641259505,l1_reads,403202820,l1_read_misses,5717662
ikj_l2_tiled,512,512,512,16,2112,0.074265,3.61456,ref_cycles,155038968,instructions,641259570,l1_reads,403202820,l1_read_misses,5719562
ikj_l2_tiled,512,512,512,16,2112,0.074039,3.6256,ref_cycles,154703556,instructions,641259505,l1_reads,403202820,l1_read_misses,5720470
ikj_l2_tiled,512,512,512,16,2112,0.074082,3.62349,ref_cycles,154535136,instructions,641259576,l1_reads,403202820,l1_read_misses,5719999
ikj_l2_tiled,512,512,512,16,2112,0.074515,3.60244,ref_cycles,154890288,instructions,641259622,l1_reads,403202820,l1_read_misses,5720902
ikj_l2_tiled,512,512,512,16,2112,0.074419,3.60708,ref_cycles,154703136,instructions,641259626,l1_reads,403202820,l1_read_misses,5722102
ikj_l2_tiled,512,512,512,16,2112,0.074167,3.61934,ref_cycles,154967568,instructions,641259521,l1_reads,403202820,l1_read_misses,5719124
ikj_l2_tiled,512,512,512,16,2112,0.073392,3.65756,ref_cycles,153651372,instructions,641259497,l1_reads,403202820,l1_read_misses,5719905
ikj_l2_tiled,512,512,512,16,2112,0.073973,3.62883,ref_cycles,154305900,instructions,641259534,l1_reads,403202820,l1_read_misses,5720209
ikj_l2_tiled,512,512,512,16,2112,0.074675,3.59472,ref_cycles,155796480,instructions,641259558,l1_reads,403202820,l1_read_misses,5719776
ikj_l2_tiled,512,512,512,16,2112,0.074452,3.60548,ref_cycles,155544816,instructions,641259562,l1_reads,403202820,l1_read_misses,5720716
ikj_l2_tiled,512,512,512,16,2112,0.074295,3.6131,ref_cycles,155102976,instructions,641259526,l1_reads,403202820,l1_read_misses,5719778
ikj_l2_tiled,512,512,512,16,2112,0.074972,3.58048,ref_cycles,155845284,instructions,641259610,l1_reads,403202820,l1_read_misses,5720902
ikj_l2_tiled,512,512,512,16,2112,0.073914,3.63173,ref_cycles,154599900,instructions,641259602,l1_reads,403202820,l1_read_misses,5720233
ikj_l2_tiled,512,512,512,16,2112,0.074327,3.61155,ref_cycles,155337588,instructions,641259556,l1_reads,403202820,l1_read_misses,5720684
ikj_l2_tiled,512,512,512,16,2112,0.074228,3.61636,ref_cycles,154767984,instructions,641259535,l1_reads,403202820,l1_read_misses,5721086
ikj_l2_tiled,512,512,512,16,2112,0.074561,3.60021,ref_cycles,155814792,instructions,641259536,l1_reads,403202820,l1_read_misses,5719444
ikj_l2_tiled,512,512,512,16,2112,0.074421,3.60699,ref_cycles,155046444,instructions,641259545,l1_reads,403202820,l1_read_misses,5718566
ikj_l2_tiled,512,512,512,16,2112,0.074692,3.5939,ref_cycles,155793456,instructions,641259542,l1_reads,403202820,l1_read_misses,5720130
ikj_l1_tiled,4096,4096,4096,16,2112,40.4668,3.39634,ref_cycles,84465037356,instructions,362164952066,l1_reads,206446135700,l1_read_misses,2965065578
ikj_l2_tiled,4096,4096,4096,16,2112,40.409,3.4012,ref_cycles,84383521236,instructions,328324956445,l1_reads,206439833203,l1_read_misses,2961038189
ikj_l2_tiled,4096,4096,4096,16,2112,42.4429,3.23821,ref_cycles,88693656912,instructions,328324960576,l1_reads,206439832189,l1_read_misses,2961986716
ikj_l2_tiled,4096,4096,4096,16,2112,40.2586,3.41391,ref_cycles,84047731152,instructions,328324954934,l1_reads,206439833204,l1_read_misses,2961636118
ikj_l2_tiled,4096,4096,4096,16,2112,40.46,3.39691,ref_cycles,84455103936,instructions,328325007112,l1_reads,206439847792,l1_read_misses,2960176674
ikj_l2_tiled,4096,4096,4096,16,2112,40.5374,3.39042,ref_cycles,84631465548,instructions,328324954864,l1_reads,206439833208,l1_read_misses,2961349887
ikj_l2_tiled,4096,4096,4096,16,2112,41.2242,3.33394,ref_cycles,86097870936,instructions,328324966646,l1_reads,206439832279,l1_read_misses,2962050613
ikj_l2_tiled,4096,4096,4096,16,2112,44.0106,3.12286,ref_cycles,91898395512,instructions,328324985375,l1_reads,206439833163,l1_read_misses,2961018624
ikj_l2_tiled,4096,4096,4096,16,2112,47.0908,2.91859,ref_cycles,98340179784,instructions,328324983250,l1_reads,206439832065,l1_read_misses,2961577320
ikj_l2_tiled,4096,4096,4096,16,2112,40.8476,3.36468,ref_cycles,85233771420,instructions,328324964780,l1_reads,206439833212,l1_read_misses,2960050330
ikj_l2_tiled,4096,4096,4096,16,2112,40.5751,3.38728,ref_cycles,84670876332,instructions,328325008377,l1_reads,206439847666,l1_read_misses,2961770756
ikj_l2_tiled,4096,4096,4096,16,2112,40.2709,3.41286,ref_cycles,84062325228,instructions,328324960578,l1_reads,206439833205,l1_read_misses,2961051676
ikj_l2_tiled,4096,4096,4096,16,2112,40.3635,3.40503,ref_cycles,84212589636,instructions,328324961929,l1_reads,206439832204,l1_read_misses,2962342626
ikj_l2_tiled,4096,4096,4096,16,2112,40.4152,3.40068,ref_cycles,84367797948,instructions,328324957880,l1_reads,206439828901,l1_read_misses,2961640709
ikj_l2_tiled,4096,4096,4096,16,2112,41.6378,3.30082,ref_cycles,86947023744,instructions,328324964239,l1_reads,206439832254,l1_read_misses,2961835091
ikj_l2_tiled,4096,4096,4096,16,2112,40.2278,3.41651,ref_cycles,84019800564,instructions,328324954440,l1_reads,206439833206,l1_read_misses,2960728844
ikj_l2_tiled,4096,4096,4096,16,2112,40.6973,3.3771,ref_cycles,84985295976,instructions,328324956799,l1_reads,206439832237,l1_read_misses,2962038574
ikj_l2_tiled,4096,4096,4096,16,2112,40.6448,3.38146,ref_cycles,84829635996,instructions,328324953767,l1_reads,206439833212,l1_read_misses,2960870692
ikj_l2_tiled,4096,4096,4096,16,2112,40.7982,3.36875,ref_cycles,85182533520,instructions,328324952985,l1_reads,206439832160,l1_read_misses,2961866178
ikj_l2_tiled,4096,4096,4096,16,2112,40.3192,3.40877,ref_cycles,84187664988,instructions,328324970775,l1_reads,206439833203,l1_read_misses,2961066601
ikj_l3_tiled,32,32,32,16,2112,0,inf,ref_cycles,48216,instructions,159622,l1_reads,98962,l1_read_misses,256
ikj_l3_tiled,32,32,32,16,2112,0,inf,ref_cycles,51156,instructions,159622,l1_reads,98962,l1_read_misses,252
ikj_l3_tiled,32,32,32,16,2112,0,inf,ref_cycles,46956,instructions,159622,l1_reads,98962,l1_read_misses,267
ikj_l3_tiled,32,32,32,16,2112,3e-06,21.8453,ref_cycles,46536,instructions,159622,l1_reads,98962,l1_read_misses,268
ikj_l3_tiled,32,32,32,16,2112,0,inf,ref_cycles,44436,instructions,159622,l1_reads,98962,l1_read_misses,269
ikj_l3_tiled,32,32,32,16,2112,0,inf,ref_cycles,46704,instructions,159622,l1_reads,98962,l1_read_misses,267
ikj_l3_tiled,32,32,32,16,2112,3e-06,21.8453,ref_cycles,46704,instructions,159622,l1_reads,98962,l1_read_misses,271
ikj_l3_tiled,32,32,32,16,2112,0,inf,ref_cycles,46872,instructions,159622,l1_reads,98962,l1_read_misses,270
ikj_l3_tiled,32,32,32,16,2112,0,inf,ref_cycles,46620,instructions,159622,l1_reads,98962,l1_read_misses,266
ikj_l3_tiled,32,32,32,16,2112,0,inf,ref_cycles,46620,instructions,159622,l1_reads,98962,l1_read_misses,268
ikj_l3_tiled,32,32,32,16,2112,0,inf,ref_cycles,44016,instructions,159622,l1_reads,98962,l1_read_misses,262
ikj_l3_tiled,32,32,32,16,2112,0,inf,ref_cycles,47376,instructions,159622,l1_reads,98962,l1_read_misses,262
ikj_l3_tiled,32,32,32,16,2112,0,inf,ref_cycles,46536,instructions,159622,l1_reads,98962,l1_read_misses,262
ikj_l3_tiled,32,32,32,16,2112,0,inf,ref_cycles,46872,instructions,159622,l1_reads,98962,l1_read_misses,260
ikj_l3_tiled,32,32,32,16,2112,0,inf,ref_cycles,46788,instructions,159622,l1_reads,98962,l1_read_misses,263
ikj_l3_tiled,32,32,32,16,2112,0,inf,ref_cycles,46956,instructions,159622,l1_reads,98962,l1_read_misses,262
ikj_l3_tiled,32,32,32,16,2112,4e-06,16.384,ref_cycles,46704,instructions,159622,l1_reads,98962,l1_read_misses,266
ikj_l3_tiled,32,32,32,16,2112,0,inf,ref_cycles,46956,instructions,159622,l1_reads,98962,l1_read_misses,268
ikj_l3_tiled,32,32,32,16,2112,3e-06,21.8453,ref_cycles,47544,instructions,159622,l1_reads,98962,l1_read_misses,261
ikj_l3_tiled,32,32,32,16,2112,0,inf,ref_cycles,47208,instructions,159622,l1_reads,98962,l1_read_misses,266
ikj_l3_tiled,512,512,512,16,2112,0.074244,3.61558,ref_cycles,154703892,instructions,641259679,l1_reads,403202827,l1_read_misses,5720963
ikj_l3_tiled,512,512,512,16,2112,0.074654,3.59573,ref_cycles,155484756,instructions,641259574,l1_reads,403202827,l1_read_misses,5719743
ikj_l3_tiled,512,512,512,16,2112,0.075137,3.57261,ref_cycles,156969036,instructions,641259523,l1_reads,403202827,l1_read_misses,5720829
ikj_l3_tiled,512,512,512,16,2112,0.074229,3.61632,ref_cycles,155196384,instructions,641259563,l1_reads,403202827,l1_read_misses,5714830
ikj_l3_tiled,512,512,512,16,2112,0.074515,3.60244,ref_cycles,155201592,instructions,641259574,l1_reads,403202827,l1_read_misses,5720406
ikj_l3_tiled,512,512,512,16,2112,0.073823,3.6362,ref_cycles,154830060,instructions,641259520,l1_reads,403202827,l1_read_misses,5718755
ikj_l3_tiled,512,512,512,16,2112,0.074654,3.59573,ref_cycles,155628060,instructions,641259600,l1_reads,403202828,l1_read_misses,5718760
ikj_l3_tiled,512,512,512,16,2112,0.074346,3.61062,ref_cycles,155567496,instructions,641259593,l1_reads,403202827,l1_read_misses,5719759
ikj_l3_tiled,512,512,512,16,2112,0.073741,3.64025,ref_cycles,154233576,instructions,641259551,l1_reads,403202827,l1_read_misses,5719246
ikj_l3_tiled,512,512,512,16,2112,0.073807,3.63699,ref_cycles,154421568,instructions,641259542,l1_reads,403202827,l1_read_misses,5718898
ikj_l3_tiled,512,512,512,16,2112,0.096748,2.77458,ref_cycles,202388508,instructions,641259579,l1_reads,403202827,l1_read_misses,5720024
ikj_l3_tiled,512,512,512,16,2112,0.084327,3.18327,ref_cycles,177476124,instructions,641259543,l1_reads,403202827,l1_read_misses,5717265
ikj_l3_tiled,512,512,512,16,2112,0.075532,3.55393,ref_cycles,156923844,instructions,641259645,l1_reads,403202827,l1_read_misses,5721358
ikj_l3_tiled,512,512,512,16,2112,0.07433,3.6114,ref_cycles,155339772,instructions,641259536,l1_reads,403202827,l1_read_misses,5720722
ikj_l3_tiled,512,512,512,16,2112,0.073875,3.63364,ref_cycles,154673652,instructions,641259525,l1_reads,403202827,l1_read_misses,5718719
ikj_l3_tiled,512,512,512,16,2112,0.074423,3.60689,ref_cycles,155289456,instructions,641259566,l1_reads,403202827,l1_read_misses,5721239
ikj_l3_tiled,512,512,512,16,2112,0.075037,3.57737,ref_cycles,155557668,instructions,641259712,l1_reads,403202827,l1_read_misses,5723636
ikj_l3_tiled,512,512,512,16,2112,0.074499,3.60321,ref_cycles,155362704,instructions,641259606,l1_reads,403202827,l1_read_misses,5719429
ikj_l3_tiled,512,512,512,16,2112,0.074517,3.60234,ref_cycles,155401764,instructions,641259568,l1_reads,403202827,l1_read_misses,5719313
ikj_l3_tiled,512,512,512,16,2112,0.073695,3.64252,ref_cycles,154833000,instructions,641259536,l1_reads,403202827,l1_read_misses,5719719
ikj_l2_tiled,4096,4096,4096,16,2112,41.0976,3.34421,ref_cycles,85788877188,instructions,328324973239,l1_reads,206439832274,l1_read_misses,2961628660
ikj_l3_tiled,4096,4096,4096,16,2112,41.922,3.27844,ref_cycles,87541129116,instructions,328324970645,l1_reads,206439833240,l1_read_misses,2960356140
ikj_l3_tiled,4096,4096,4096,16,2112,45.7412,3.00471,ref_cycles,95542650756,instructions,328324988232,l1_reads,206439832100,l1_read_misses,2962087124
ikj_l3_tiled,4096,4096,4096,16,2112,40.3134,3.40926,ref_cycles,84198390360,instructions,328324959722,l1_reads,206439833268,l1_read_misses,2961718556
ikj_l3_tiled,4096,4096,4096,16,2112,42.4052,3.24109,ref_cycles,88608379608,instructions,328324961944,l1_reads,206439832231,l1_read_misses,2961681470
ikj_l3_tiled,4096,4096,4096,16,2112,40.2517,3.41448,ref_cycles,84027285216,instructions,328324956905,l1_reads,206439833265,l1_read_misses,2960920377
ikj_l3_tiled,4096,4096,4096,16,2112,42.301,3.24907,ref_cycles,88426264332,instructions,328324976056,l1_reads,206439832202,l1_read_misses,2961599607
ikj_l3_tiled,4096,4096,4096,16,2112,40.3492,3.40624,ref_cycles,84258705972,instructions,328324954709,l1_reads,206439829026,l1_read_misses,2961100776
ikj_l3_tiled,4096,4096,4096,16,2112,42.4029,3.24127,ref_cycles,88572010296,instructions,328324970162,l1_reads,206439832253,l1_read_misses,2961610096
ikj_l3_tiled,4096,4096,4096,16,2112,40.2402,3.41546,ref_cycles,84016341864,instructions,328324954243,l1_reads,206439833268,l1_read_misses,2960435889
ikj_l3_tiled,4096,4096,4096,16,2112,42.3306,3.2468,ref_cycles,88499093004,instructions,328324964667,l1_reads,206439832215,l1_read_misses,2961531994
ikj_l3_tiled,4096,4096,4096,16,2112,40.3948,3.40239,ref_cycles,84365962380,instructions,328324952629,l1_reads,206439833265,l1_read_misses,2960368531
ikj_l3_tiled,4096,4096,4096,16,2112,42.3004,3.24912,ref_cycles,88423971972,instructions,328324981981,l1_reads,206439832255,l1_read_misses,2961661166
ikj_l3_tiled,4096,4096,4096,16,2112,40.2204,3.41715,ref_cycles,83991946080,instructions,328325015637,l1_reads,206439848779,l1_read_misses,2960423443
ikj_l3_tiled,4096,4096,4096,16,2112,42.4538,3.23737,ref_cycles,88659290748,instructions,328324982811,l1_reads,206439832260,l1_read_misses,2961655558
ikj_l3_tiled,4096,4096,4096,16,2112,40.9023,3.36018,ref_cycles,85348676280,instructions,328324972560,l1_reads,206439833272,l1_read_misses,2962887160
ikj_l3_tiled,4096,4096,4096,16,2112,48.0925,2.85781,ref_cycles,100488062724,instructions,328324982686,l1_reads,206439832070,l1_read_misses,2961108914
ikj_l3_tiled,4096,4096,4096,16,2112,50.9341,2.69837,ref_cycles,106410182256,instructions,328324989136,l1_reads,206439833237,l1_read_misses,2961797788
ikj_l3_tiled,4096,4096,4096,16,2112,42.365,3.24416,ref_cycles,88507445460,instructions,328324970711,l1_reads,206439832176,l1_read_misses,2962857872
ikj_l3_tiled,4096,4096,4096,16,2112,40.2173,3.41741,ref_cycles,84010764516,instructions,328324961912,l1_reads,206439833267,l1_read_misses,2961302389
ikj_hierarchical,32,32,32,16,2112,0,inf,ref_cycles,59136,instructions,235887,l1_reads,103296,l1_read_misses,392
ikj_hierarchical,32,32,32,16,2112,0,inf,ref_cycles,56028,instructions,235887,l1_reads,103296,l1_read_misses,397
ikj_hierarchical,32,32,32,16,2112,9e-06,7.28178,ref_cycles,52584,instructions,235887,l1_reads,103296,l1_read_misses,394
ikj_hierarchical,32,32,32,16,2112,0,inf,ref_cycles,55104,instructions,235887,l1_reads,103296,l1_read_misses,396
ikj_hierarchical,32,32,32,16,2112,0,inf,ref_cycles,55020,instructions,235887,l1_reads,103296,l1_read_misses,402
ikj_hierarchical,32,32,32,16,2112,0,inf,ref_cycles,54768,instructions,235887,l1_reads,103296,l1_read_misses,390
ikj_hierarchical,32,32,32,16,2112,0,inf,ref_cycles,54936,instructions,235887,l1_reads,103296,l1_read_misses,411
ikj_hierarchical,32,32,32,16,2112,0,inf,ref_cycles,51996,instructions,235887,l1_reads,103296,l1_read_misses,403
ikj_hierarchical,32,32,32,16,2112,3e-06,21.8453,ref_cycles,51912,instructions,235887,l1_reads,103296,l1_read_misses,390
ikj_hierarchical,32,32,32,16,2112,0,inf,ref_cycles,56196,instructions,235887,l1_reads,103296,l1_read_misses,390
ikj_hierarchical,32,32,32,16,2112,5e-05,1.31072,ref_cycles,55524,instructions,235888,l1_reads,103296,l1_read_misses,418
ikj_hierarchical,32,32,32,16,2112,0,inf,ref_cycles,55104,instructions,235887,l1_reads,103296,l1_read_misses,387
ikj_hierarchical,32,32,32,16,2112,5.4e-05,1.21363,ref_cycles,55356,instructions,235888,l1_reads,103296,l1_read_misses,426
ikj_hierarchical,32,32,32,16,2112,0,inf,ref_cycles,55860,instructions,235887,l1_reads,103296,l1_read_misses,391
ikj_hierarchical,32,32,32,16,2112,0,inf,ref_cycles,54768,instructions,235887,l1_reads,103296,l1_read_misses,389
ikj_hierarchical,32,32,32,16,2112,4e-06,16.384,ref_cycles,54852,instructions,235887,l1_reads,103296,l1_read_misses,396
ikj_hierarchical,32,32,32,16,2112,4e-06,16.384,ref_cycles,55272,instructions,235887,l1_reads,103296,l1_read_misses,406
ikj_hierarchical,32,32,32,16,2112,0,inf,ref_cycles,54852,instructions,235887,l1_reads,103296,l1_read_misses,406
ikj_hierarchical,32,32,32,16,2112,0,inf,ref_cycles,55188,instructions,235887,l1_reads,103296,l1_read_misses,404
ikj_hierarchical,32,32,32,16,2112,0,inf,ref_cycles,52332,instructions,235887,l1_reads,103296,l1_read_misses,395
ikj_hierarchical,512,512,512,16,2112,0.075769,3.54281,ref_cycles,157357116,instructions,707887428,l1_reads,403208721,l1_read_misses,5727973
ikj_hierarchical,512,512,512,16,2112,0.074345,3.61067,ref_cycles,155493744,instructions,707887356,l1_reads,403208721,l1_read_misses,5725552
ikj_hierarchical,512,512,512,16,2112,0.073642,3.64514,ref_cycles,154240464,instructions,707887288,l1_reads,403208721,l1_read_misses,5724359
ikj_hierarchical,512,512,512,16,2112,0.074362,3.60985,ref_cycles,155427048,instructions,707887287,l1_reads,403208721,l1_read_misses,5724675
ikj_hierarchical,512,512,512,16,2112,0.074209,3.61729,ref_cycles,155028552,instructions,707887383,l1_reads,403208721,l1_read_misses,5727069
ikj_hierarchical,512,512,512,16,2112,0.074207,3.61739,ref_cycles,155002344,instructions,707887352,l1_reads,403208721,l1_read_misses,5727213
ikj_hierarchical,512,512,512,16,2112,0.072903,3.68209,ref_cycles,153771240,instructions,707887284,l1_reads,403208721,l1_read_misses,5724920
ikj_hierarchical,512,512,512,16,2112,0.074147,3.62031,ref_cycles,155083068,instructions,707887389,l1_reads,403208721,l1_read_misses,5727939
ikj_hierarchical,512,512,512,16,2112,0.073755,3.63956,ref_cycles,154829640,instructions,707887368,l1_reads,403208721,l1_read_misses,5726016
ikj_hierarchical,512,512,512,16,2112,0.074418,3.60713,ref_cycles,155120448,instructions,707887390,l1_reads,403208721,l1_read_misses,5727894
ikj_hierarchical,512,512,512,16,2112,0.073858,3.63448,ref_cycles,154271544,instructions,707887327,l1_reads,403208721,l1_read_misses,5726601
ikj_hierarchical,512,512,512,16,2112,0.073798,3.63744,ref_cycles,155553804,instructions,707887298,l1_reads,403208721,l1_read_misses,5725751
ikj_hierarchical,512,512,512,16,2112,0.075127,3.57309,ref_cycles,156765504,instructions,707887329,l1_reads,403208721,l1_read_misses,5726995
ikj_hierarchical,512,512,512,16,2112,0.074865,3.58559,ref_cycles,155651916,instructions,707887371,l1_reads,403208721,l1_read_misses,5726193
ikj_hierarchical,512,512,512,16,2112,0.073807,3.63699,ref_cycles,154347816,instructions,707887300,l1_reads,403208721,l1_read_misses,5724526
ikj_hierarchical,512,512,512,16,2112,0.073776,3.63852,ref_cycles,154610904,instructions,707887304,l1_reads,403208721,l1_read_misses,5726186
ikj_hierarchical,512,512,512,16,2112,0.07488,3.58488,ref_cycles,156042012,instructions,707887340,l1_reads,403208721,l1_read_misses,5726550
ikj_hierarchical,512,512,512,16,2112,0.074472,3.60452,ref_cycles,154803348,instructions,707887443,l1_reads,403208721,l1_read_misses,5729175
ikj_hierarchical,512,512,512,16,2112,0.073334,3.66045,ref_cycles,153645408,instructions,707887286,l1_reads,403208721,l1_read_misses,5726680
ikj_hierarchical,512,512,512,16,2112,0.095671,2.80582,ref_cycles,202481328,instructions,707887340,l1_reads,403208721,l1_read_misses,5728309
ikj_l3_tiled,4096,4096,4096,16,2112,42.354,3.245,ref_cycles,88497024756,instructions,328324963658,l1_reads,206439832101,l1_read_misses,2962139091
ikj_hierarchical,4096,4096,4096,16,2112,48.5285,2.83213,ref_cycles,101401888728,instructions,328325675980,l1_reads,206440036619,l1_read_misses,2962430986
ikj_hierarchical,4096,4096,4096,16,2112,42.3253,3.2472,ref_cycles,88432573236,instructions,328325684338,l1_reads,206440039778,l1_read_misses,2962783946
ikj_hierarchical,4096,4096,4096,16,2112,40.2447,3.41508,ref_cycles,84033424020,instructions,328325663363,l1_reads,206440040729,l1_read_misses,2962725595
ikj_hierarchical,4096,4096,4096,16,2112,42.3961,3.24179,ref_cycles,88578301392,instructions,328325678591,l1_reads,206440039767,l1_read_misses,2962513116
ikj_hierarchical,4096,4096,4096,16,2112,40.3056,3.40993,ref_cycles,84167106828,instructions,328325661807,l1_reads,206440040726,l1_read_misses,2961655145
ikj_hierarchical,4096,4096,4096,16,2112,42.3107,3.24832,ref_cycles,88438265748,instructions,328325673220,l1_reads,206440039800,l1_read_misses,2962775222
ikj_hierarchical,4096,4096,4096,16,2112,40.3336,3.40756,ref_cycles,84206397492,instructions,328325658914,l1_reads,206440040729,l1_read_misses,2962750328
ikj_hierarchical,4096,4096,4096,16,2112,42.4606,3.23686,ref_cycles,88668800220,instructions,328325667828,l1_reads,206440039794,l1_read_misses,2963376301
ikj_hierarchical,4096,4096,4096,16,2112,40.6928,3.37747,ref_cycles,84947176020,instructions,328325681254,l1_reads,206440040686,l1_read_misses,2961986547
ikj_hierarchical,4096,4096,4096,16,2112,48.7886,2.81703,ref_cycles,101954141772,instructions,328325695921,l1_reads,206440039646,l1_read_misses,2963304817
ikj_hierarchical,4096,4096,4096,16,2112,40.4575,3.39712,ref_cycles,84457588572,instructions,328325679542,l1_reads,206440040728,l1_read_misses,2962349113
ikj_hierarchical,4096,4096,4096,16,2112,40.5218,3.39173,ref_cycles,84582466584,instructions,328325676505,l1_reads,206440039797,l1_read_misses,2963910867
ikj_hierarchical,4096,4096,4096,16,2112,40.2462,3.41496,ref_cycles,84033996648,instructions,328325673070,l1_reads,206440040724,l1_read_misses,2962228519
ikj_hierarchical,4096,4096,4096,16,2112,40.8319,3.36597,ref_cycles,85242626112,instructions,328325675069,l1_reads,206440039764,l1_read_misses,2962655700
ikj_hierarchical,4096,4096,4096,16,2112,40.6572,3.38044,ref_cycles,84897042888,instructions,328325674121,l1_reads,206440036756,l1_read_misses,2962598709
ikj_hierarchical,4096,4096,4096,16,2112,41.0615,3.34715,ref_cycles,85732664220,instructions,328325671523,l1_reads,206440039818,l1_read_misses,2963089438
ikj_hierarchical,4096,4096,4096,16,2112,40.2714,3.41282,ref_cycles,84069418524,instructions,328325669402,l1_reads,206440040723,l1_read_misses,2963013122
ikj_hierarchical,4096,4096,4096,16,2112,41.2404,3.33263,ref_cycles,86069177376,instructions,328325671384,l1_reads,206440039830,l1_read_misses,2962465964
ikj_hierarchical,4096,4096,4096,16,2112,40.7008,3.37681,ref_cycles,84964030116,instructions,328325670094,l1_reads,206440040728,l1_read_misses,2961292115
ijk_oblivious,32,32,32,2,2112,8e-06,8.192,ref_cycles,180516,instructions,922788,l1_reads,263300,l1_read_misses,276
ijk_oblivious,32,32,32,2,2112,0,inf,ref_cycles,168252,instructions,922788,l1_reads,263300,l1_read_misses,278
ijk_oblivious,32,32,32,2,2112,0,inf,ref_cycles,179760,instructions,922788,l1_reads,263300,l1_read_misses,269
ijk_oblivious,32,32,32,2,2112,0,inf,ref_cycles,177660,instructions,922788,l1_reads,263300,l1_read_misses,279
ijk_oblivious,32,32,32,2,2112,0.000107,0.612486,ref_cycles,179424,instructions,922789,l1_reads,263300,l1_read_misses,304
ijk_oblivious,32,32,32,2,2112,0,inf,ref_cycles,183204,instructions,922788,l1_reads,263300,l1_read_misses,263
ijk_oblivious,32,32,32,2,2112,0,inf,ref_cycles,171696,instructions,922788,l1_reads,263300,l1_read_misses,288
ijk_oblivious,32,32,32,2,2112,0.000111,0.590414,ref_cycles,169008,instructions,922789,l1_reads,263300,l1_read_misses,296
ijk_oblivious,32,32,32,2,2112,0,inf,ref_cycles,168252,instructions,922788,l1_reads,263300,l1_read_misses,287
ijk_oblivious,32,32,32,2,2112,0,inf,ref_cycles,179256,instructions,922788,l1_reads,263300,l1_read_misses,280
ijk_oblivious,32,32,32,2,2112,0,inf,ref_cycles,179340,instructions,922788,l1_reads,263300,l1_read_misses,283
ijk_oblivious,32,32,32,2,2112,1.7e-05,3.85506,ref_cycles,178668,instructions,922788,l1_reads,263300,l1_read_misses,286
ijk_oblivious,32,32,32,2,2112,0,inf,ref_cycles,178752,instructions,922788,l1_reads,263300,l1_read_misses,279
ijk_oblivious,32,32,32,2,2112,0.000105,0.624152,ref_cycles,179844,instructions,922789,l1_reads,263300,l1_read_misses,313
ijk_oblivious,32,32,32,2,2112,0,inf,ref_cycles,173040,instructions,922788,l1_reads,263300,l1_read_misses,277
ijk_oblivious,32,32,32,2,2112,0,inf,ref_cycles,178752,instructions,922788,l1_reads,263300,l1_read_misses,280
ijk_oblivious,32,32,32,2,2112,0,inf,ref_cycles,182868,instructions,922788,l1_reads,263300,l1_read_misses,285
ijk_oblivious,32,32,32,2,2112,0,inf,ref_cycles,178920,instructions,922788,l1_reads,263300,l1_read_misses,284
ijk_oblivious,32,32,32,2,2112,0,inf,ref_cycles,178836,instructions,922788,l1_reads,263300,l1_read_misses,276
ijk_oblivious,32,32,32,2,2112,8e-06,8.192,ref_cycles,178668,instructions,922788,l1_reads,263300,l1_read_misses,267
ijk_oblivious,512,512,512,2,2112,0.294501,0.911493,ref_cycles,615972084,instructions,3779667635,l1_reads,1078535300,l1_read_misses,1476554
ijk_oblivious,512,512,512,2,2112,0.292402,0.918036,ref_cycles,612131856,instructions,3779667591,l1_reads,1078535300,l1_read_misses,1482344
ijk_oblivious,512,512,512,2,2112,0.293095,0.915865,ref_cycles,612446268,instructions,3779667578,l1_reads,1078535300,l1_read_misses,1486231
ijk_oblivious,512,512,512,2,2112,0.292588,0.917452,ref_cycles,612144456,instructions,3779667567,l1_reads,1078535300,l1_read_misses,1480361
ijk_oblivious,512,512,512,2,2112,0.292397,0.918051,ref_cycles,611227680,instructions,3779667688,l1_reads,1078535300,l1_read_misses,1486536
ijk_oblivious,512,512,512,2,2112,0.293196,0.91555,ref_cycles,612904908,instructions,3779667567,l1_reads,1078535300,l1_read_misses,1474699
ijk_oblivious,512,512,512,2,2112,0.292266,0.918463,ref_cycles,611220960,instructions,3779667594,l1_reads,1078535300,l1_read_misses,1466627
ijk_oblivious,512,512,512,2,2112,0.293522,0.914533,ref_cycles,612246516,instructions,3779667776,l1_reads,1078535300,l1_read_misses,1485598
ijk_oblivious,512,512,512,2,2112,0.295011,0.909917,ref_cycles,615540492,instructions,3779667685,l1_reads,1078535300,l1_read_misses,1472223
ijk_oblivious,512,512,512,2,2112,0.293201,0.915534,ref_cycles,612635604,instructions,3779667539,l1_reads,1078535300,l1_read_misses,1487051
ijk_oblivious,512,512,512,2,2112,0.293405,0.914897,ref_cycles,611852472,instructions,3779667823,l1_reads,1078535300,l1_read_misses,1495553
ijk_oblivious,512,512,512,2,2112,0.292802,0.916781,ref_cycles,611668596,instructions,3779667596,l1_reads,1078535300,l1_read_misses,1483260
ijk_oblivious,512,512,512,2,2112,0.293747,0.913832,ref_cycles,613422264,instructions,3779667575,l1_reads,1078535300,l1_read_misses,1463890
ijk_oblivious,512,512,512,2,2112,0.292571,0.917505,ref_cycles,610867908,instructions,3779667655,l1_reads,1078535300,l1_read_misses,1496368
ijk_oblivious,512,512,512,2,2112,0.292516,0.917678,ref_cycles,612505152,instructions,3779667732,l1_reads,1078535300,l1_read_misses,1488502
ijk_oblivious,512,512,512,2,2112,0.292465,0.917838,ref_cycles,611518656,instructions,3779667590,l1_reads,1078535300,l1_read_misses,1470232
ijk_oblivious,512,512,512,2,2112,0.296854,0.904268,ref_cycles,619795848,instructions,3779667671,l1_reads,1078535300,l1_read_misses,1483703
ijk_oblivious,512,512,512,2,2112,0.293594,0.914308,ref_cycles,613052580,instructions,3779667646,l1_reads,1078535300,l1_read_misses,1478335
ijk_oblivious,512,512,512,2,2112,0.2924,0.918042,ref_cycles,611504460,instructions,3779667568,l1_reads,1078535300,l1_read_misses,1483011
ijk_oblivious,512,512,512,2,2112,0.294075,0.912813,ref_cycles,613320708,instructions,3779667731,l1_reads,1078535300,l1_read_misses,1498304
ikj_hierarchical,4096,4096,4096,16,2112,40.3189,3.4088,ref_cycles,84158741016,instructions,328325662785,l1_reads,206440039868,l1_read_misses,2963153867
ijk_oblivious,4096,4096,4096,2,2112,167.807,0.819032,ref_cycles,350562724176,instructions,1935190002939,l1_reads,552210080819,l1_read_misses,1733423504
ijk_oblivious,4096,4096,4096,2,2112,182.35,0.753709,ref_cycles,381031724052,instructions,1935189956209,l1_reads,552210054312,l1_read_misses,1761216151
ijk_oblivious,4096,4096,4096,2,2112,150.338,0.914198,ref_cycles,313989562992,instructions,1935189914957,l1_reads,552210045050,l1_read_misses,1747639236
ijk_oblivious,4096,4096,4096,2,2112,153.819,0.893513,ref_cycles,321185688936,instructions,1935189931106,l1_reads,552210057029,l1_read_misses,1746683842
ijk_oblivious,4096,4096,4096,2,2112,172.23,0.797998,ref_cycles,359833202820,instructions,1935189999328,l1_reads,552210063378,l1_read_misses,1742402494
ijk_oblivious,4096,4096,4096,2,2112,189.139,0.726654,ref_cycles,395210915988,instructions,1935190022077,l1_reads,552210053024,l1_read_misses,1736721090
ijk_oblivious,4096,4096,4096,2,2112,150.403,0.913805,ref_cycles,314161639596,instructions,1935189908375,l1_reads,552210080910,l1_read_misses,1756817012
ijk_oblivious,4096,4096,4096,2,2112,160.084,0.858543,ref_cycles,334336825788,instructions,1935189987400,l1_reads,552210056627,l1_read_misses,1722278859
ijk_oblivious,4096,4096,4096,2,2112,173.122,0.793883,ref_cycles,361760277984,instructions,1935189994675,l1_reads,552210045868,l1_read_misses,1733461788
ijk_oblivious,4096,4096,4096,2,2112,152.04,0.903964,ref_cycles,317465066604,instructions,1935189906473,l1_reads,552210058661,l1_read_misses,1750124520
ijk_oblivious,4096,4096,4096,2,2112,158.809,0.865436,ref_cycles,331718532432,instructions,1935189993100,l1_reads,552210080911,l1_read_misses,1718084934
ijk_oblivious,4096,4096,4096,2,2112,168.762,0.814396,ref_cycles,352797374580,instructions,1935189978872,l1_reads,552210056204,l1_read_misses,1735582903
ijk_oblivious,4096,4096,4096,2,2112,177.013,0.776434,ref_cycles,369924595488,instructions,1935189956109,l1_reads,552210056459,l1_read_misses,1757371521
ijk_oblivious,4096,4096,4096,2,2112,154.396,0.890172,ref_cycles,322465530240,instructions,1935189906166,l1_reads,552210057148,l1_read_misses,1759046632
ijk_oblivious,4096,4096,4096,2,2112,166.088,0.827507,ref_cycles,346979584476,instructions,1935189967014,l1_reads,552210080844,l1_read_misses,1746532803
ijk_oblivious,4096,4096,4096,2,2112,171.56,0.801112,ref_cycles,358475248824,instructions,1935189982809,l1_reads,552210055773,l1_read_misses,1740041758
ijk_oblivious,4096,4096,4096,2,2112,158.652,0.866291,ref_cycles,331421160840,instructions,1935189983530,l1_reads,552210063539,l1_read_misses,1730219666
ijk_oblivious,4096,4096,4096,2,2112,153.014,0.89821,ref_cycles,319595995572,instructions,1935189973561,l1_reads,552210058147,l1_read_misses,1716488710
ijk_oblivious,4096,4096,4096,2,2112,170.501,0.80609,ref_cycles,356286963900,instructions,1935189942733,l1_reads,552210080805,l1_read_misses,1757208388
ijk_oblivious,32,32,32,16,2112,0,inf,ref_cycles,62076,instructions,294476,l1_reads,106900,l1_read_misses,258
ijk_oblivious,32,32,32,16,2112,0,inf,ref_cycles,61992,instructions,294476,l1_reads,106900,l1_read_misses,254
ijk_oblivious,32,32,32,16,2112,0,inf,ref_cycles,61404,instructions,294476,l1_reads,106900,l1_read_misses,262
ijk_oblivious,32,32,32,16,2112,0,inf,ref_cycles,62580,instructions,294476,l1_reads,106900,l1_read_misses,263
ijk_oblivious,32,32,32,16,2112,0,inf,ref_cycles,61404,instructions,294476,l1_reads,106900,l1_read_misses,261
ijk_oblivious,32,32,32,16,2112,0,inf,ref_cycles,61740,instructions,294476,l1_reads,106900,l1_read_misses,262
ijk_oblivious,32,32,32,16,2112,4e-06,16.384,ref_cycles,61656,instructions,294476,l1_reads,106900,l1_read_misses,267
ijk_oblivious,32,32,32,16,2112,4e-06,16.384,ref_cycles,61572,instructions,294476,l1_reads,106900,l1_read_misses,258
ijk_oblivious,32,32,32,16,2112,4e-06,16.384,ref_cycles,61656,instructions,294476,l1_reads,106900,l1_read_misses,264
ijk_oblivious,32,32,32,16,2112,0,inf,ref_cycles,65856,instructions,294476,l1_reads,106900,l1_read_misses,275
ijk_oblivious,32,32,32,16,2112,4e-06,16.384,ref_cycles,65436,instructions,294476,l1_reads,106900,l1_read_misses,265
ijk_oblivious,32,32,32,16,2112,3e-06,21.8453,ref_cycles,61404,instructions,294476,l1_reads,106900,l1_read_misses,261
ijk_oblivious,32,32,32,16,2112,0,inf,ref_cycles,65352,instructions,294476,l1_reads,106900,l1_read_misses,265
ijk_oblivious,32,32,32,16,2112,0,inf,ref_cycles,61908,instructions,294476,l1_reads,106900,l1_read_misses,268
ijk_oblivious,32,32,32,16,2112,0,inf,ref_cycles,61572,instructions,294476,l1_reads,106900,l1_read_misses,270
ijk_oblivious,32,32,32,16,2112,0,inf,ref_cycles,65016,instructions,294476,l1_reads,106900,l1_read_misses,252
ijk_oblivious,32,32,32,16,2112,0,inf,ref_cycles,61656,instructions,294476,l1_reads,106900,l1_read_misses,262
ijk_oblivious,32,32,32,16,2112,0,inf,ref_cycles,61320,instructions,294476,l1_reads,106900,l1_read_misses,277
ijk_oblivious,32,32,32,16,2112,0,inf,ref_cycles,61488,instructions,294476,l1_reads,106900,l1_read_misses,265
ijk_oblivious,32,32,32,16,2112,0,inf,ref_cycles,61320,instructions,294476,l1_reads,106900,l1_read_misses,266
ijk_oblivious,512,512,512,16,2112,0.108342,2.47767,ref_cycles,226674840,instructions,1206101360,l1_reads,437920900,l1_read_misses,2848746
ijk_oblivious,512,512,512,16,2112,0.109544,2.45048,ref_cycles,227981880,instructions,1206101423,l1_reads,437920900,l1_read_misses,2751538
ijk_oblivious,512,512,512,16,2112,0.108937,2.46413,ref_cycles,227425548,instructions,1206101324,l1_reads,437920900,l1_read_misses,3082390
ijk_oblivious,512,512,512,16,2112,0.109258,2.4569,ref_cycles,227750208,instructions,1206101367,l1_reads,437920900,l1_read_misses,2949008
ijk_oblivious,512,512,512,16,2112,0.108499,2.47408,ref_cycles,227110800,instructions,1206101281,l1_reads,437920900,l1_read_misses,2917995
ijk_oblivious,512,512,512,16,2112,0.108792,2.46742,ref_cycles,227321724,instructions,1206101334,l1_reads,437920900,l1_read_misses,2925179
ijk_oblivious,512,512,512,16,2112,0.109006,2.46258,ref_cycles,227558604,instructions,1206101397,l1_reads,437920900,l1_read_misses,3008082
ijk_oblivious,512,512,512,16,2112,0.108792,2.46742,ref_cycles,228098976,instructions,1206101374,l1_reads,437920900,l1_read_misses,2434927
ijk_oblivious,512,512,512,16,2112,0.109223,2.45768,ref_cycles,227627568,instructions,1206101404,l1_reads,437920900,l1_read_misses,2767674
ijk_oblivious,512,512,512,16,2112,0.109308,2.45577,ref_cycles,228025224,instructions,1206101341,l1_reads,437920900,l1_read_misses,2839057
ijk_oblivious,512,512,512,16,2112,0.108541,2.47312,ref_cycles,226876860,instructions,1206101312,l1_reads,437920900,l1_read_misses,3004923
ijk_oblivious,512,512,512,16,2112,0.108762,2.4681,ref_cycles,227117436,instructions,1206101367,l1_reads,437920900,l1_read_misses,3016756
ijk_oblivious,512,512,512,16,2112,0.108752,2.46833,ref_cycles,227199168,instructions,1206101387,l1_reads,437920900,l1_read_misses,2978779
ijk_oblivious,512,512,512,16,2112,0.109286,2.45627,ref_cycles,227861844,instructions,1206101350,l1_reads,437920900,l1_read_misses,2933967
ijk_oblivious,512,512,512,16,2112,0.109528,2.45084,ref_cycles,228165252,instructions,1206101386,l1_reads,437920900,l1_read_misses,2777500
ijk_oblivious,512,512,512,16,2112,0.108478,2.47456,ref_cycles,226860144,instructions,1206101296,l1_reads,437920900,l1_read_misses,2815104
ijk_oblivious,512,512,512,16,2112,0.109261,2.45683,ref_cycles,227757012,instructions,1206101348,l1_reads,437920900,l1_read_misses,2995592
ijk_oblivious,512,512,512,16,2112,0.108475,2.47463,ref_cycles,226798488,instructions,1206101302,l1_reads,437920900,l1_read_misses,2972332
ijk_oblivious,512,512,512,16,2112,0.108651,2.47062,ref_cycles,227148600,instructions,1206101322,l1_reads,437920900,l1_read_misses,2966088
ijk_oblivious,512,512,512,16,2112,0.108476,2.47461,ref_cycles,226880724,instructions,1206101311,l1_reads,437920900,l1_read_misses,2981137
ijk_oblivious,4096,4096,4096,2,2112,179.499,0.76568,ref_cycles,375123801024,instructions,1935189964131,l1_reads,552210053592,l1_read_misses,1758556135
ijk_oblivious,4096,4096,4096,16,2112,59.985,2.29122,ref_cycles,125348332704,instructions,617524032794,l1_reads,224215485423,l1_read_misses,7702075660
ijk_oblivious,4096,4096,4096,16,2112,55.0242,2.49779,ref_cycles,114848675676,instructions,617524024348,l1_reads,224215500071,l1_read_misses,7847850216
ijk_oblivious,4096,4096,4096,16,2112,57.4816,2.39101,ref_cycles,120043685412,instructions,617524001635,l1_reads,224215508103,l1_read_misses,7676434517
ijk_oblivious,4096,4096,4096,16,2112,56.8379,2.41808,ref_cycles,118647197508,instructions,617523996120,l1_reads,224215499153,l1_read_misses,7742622576
ijk_oblivious,4096,4096,4096,16,2112,57.226,2.40169,ref_cycles,119518656348,instructions,617523985583,l1_reads,224215508104,l1_read_misses,7605762395
ijk_oblivious,4096,4096,4096,16,2112,54.9973,2.49901,ref_cycles,114790588332,instructions,617523995579,l1_reads,224215500218,l1_read_misses,7759597169
ijk_oblivious,4096,4096,4096,16,2112,58.1157,2.36492,ref_cycles,121361209284,instructions,617523991516,l1_reads,224215507677,l1_read_misses,7619264494
ijk_oblivious,4096,4096,4096,16,2112,65.7241,2.09115,ref_cycles,137289696432,instructions,617523998414,l1_reads,224215497797,l1_read_misses,7674711458
ijk_oblivious,4096,4096,4096,16,2112,57.3097,2.39818,ref_cycles,119701461852,instructions,617523996040,l1_reads,224215508104,l1_read_misses,7594246573
ijk_oblivious,4096,4096,4096,16,2112,54.6018,2.51711,ref_cycles,114009036960,instructions,617523994726,l1_reads,224215499913,l1_read_misses,7740505775
ijk_oblivious,4096,4096,4096,16,2112,57.3761,2.39541,ref_cycles,119823837756,instructions,617524000208,l1_reads,224215482137,l1_read_misses,7695441048
ijk_oblivious,4096,4096,4096,16,2112,55.3113,2.48483,ref_cycles,115470877368,instructions,617524002219,l1_reads,224215499958,l1_read_misses,7791870205
ijk_oblivious,4096,4096,4096,16,2112,57.8186,2.37707,ref_cycles,120699460728,instructions,617524001908,l1_reads,224215508113,l1_read_misses,7644908538
ijk_oblivious,4096,4096,4096,16,2112,56.1439,2.44798,ref_cycles,117291518820,instructions,617523995972,l1_reads,224215499696,l1_read_misses,7759976324
ijk_oblivious,4096,4096,4096,16,2112,57.5169,2.38954,ref_cycles,120081346812,instructions,617524004783,l1_reads,224215508104,l1_read_misses,7670642805
ijk_oblivious,4096,4096,4096,16,2112,55.15,2.49209,ref_cycles,115113839148,instructions,617523995411,l1_reads,224215500425,l1_read_misses,7744999809
ijk_oblivious,4096,4096,4096,16,2112,57.5802,2.38691,ref_cycles,120178055256,instructions,617523986696,l1_reads,224215508107,l1_read_misses,7636601667
ijk_oblivious,4096,4096,4096,16,2112,60.9188,2.2561,ref_cycles,127228491264,instructions,617523994317,l1_reads,224215498702,l1_read_misses,7706790964
ijk_oblivious,4096,4096,4096,16,2112,65.7516,2.09027,ref_cycles,137378018232,instructions,617524006907,l1_reads,224215507833,l1_read_misses,7614129681
ikj_oblivious,32,32,32,16,2112,0,inf,ref_cycles,62664,instructions,257996,l1_reads,104980,l1_read_misses,260
ikj_oblivious,32,32,32,16,2112,0,inf,ref_cycles,62076,instructions,257996,l1_reads,104980,l1_read_misses,265
ikj_oblivious,32,32,32,16,2112,0,inf,ref_cycles,66108,instructions,257996,l1_reads,104980,l1_read_misses,250
ikj_oblivious,32,32,32,16,2112,0,inf,ref_cycles,62244,instructions,257996,l1_reads,104980,l1_read_misses,265
ikj_oblivious,32,32,32,16,2112,4e-06,16.384,ref_cycles,62916,instructions,257996,l1_reads,104980,l1_read_misses,264
ikj_oblivious,32,32,32,16,2112,0,inf,ref_cycles,63336,instructions,257996,l1_reads,104980,l1_read_misses,261
ikj_oblivious,32,32,32,16,2112,0,inf,ref_cycles,62244,instructions,257996,l1_reads,104980,l1_read_misses,253
ikj_oblivious,32,32,32,16,2112,4e-06,16.384,ref_cycles,62832,instructions,257996,l1_reads,104980,l1_read_misses,262
ikj_oblivious,32,32,32,16,2112,0,inf,ref_cycles,62496,instructions,257996,l1_reads,104980,l1_read_misses,253
ikj_oblivious,32,32,32,16,2112,0,inf,ref_cycles,63168,instructions,257996,l1_reads,104980,l1_read_misses,264
ikj_oblivious,32,32,32,16,2112,0,inf,ref_cycles,62328,instructions,257996,l1_reads,104980,l1_read_misses,262
ikj_oblivious,32,32,32,16,2112,5e-06,13.1072,ref_cycles,63504,instructions,257999,l1_reads,104980,l1_read_misses,293
ikj_oblivious,32,32,32,16,2112,0,inf,ref_cycles,62328,instructions,257996,l1_reads,104980,l1_read_misses,253
ikj_oblivious,32,32,32,16,2112,0,inf,ref_cycles,61992,instructions,257996,l1_reads,104980,l1_read_misses,257
ikj_oblivious,32,32,32,16,2112,0,inf,ref_cycles,62244,instructions,257996,l1_reads,104980,l1_read_misses,266
ikj_oblivious,32,32,32,16,2112,0,inf,ref_cycles,62076,instructions,257996,l1_reads,104980,l1_read_misses,261
ikj_oblivious,32,32,32,16,2112,4e-06,16.384,ref_cycles,62076,instructions,257996,l1_reads,104980,l1_read_misses,263
ikj_oblivious,32,32,32,16,2112,0,inf,ref_cycles,62580,instructions,257996,l1_reads,104980,l1_read_misses,255
ikj_oblivious,32,32,32,16,2112,0,inf,ref_cycles,61908,instructions,257996,l1_reads,104980,l1_read_misses,267
ikj_oblivious,32,32,32,16,2112,0,inf,ref_cycles,62244,instructions,257996,l1_reads,104980,l1_read_misses,254
ikj_oblivious,512,512,512,16,2112,0.106401,2.52287,ref_cycles,222518940,instructions,1056679317,l1_reads,430056580,l1_read_misses,2699347
ikj_oblivious,512,512,512,16,2112,0.105927,2.53416,ref_cycles,222200412,instructions,1056679282,l1_reads,430056580,l1_read_misses,2699169
ikj_oblivious,512,512,512,16,2112,0.106327,2.52462,ref_cycles,222360600,instructions,1056679218,l1_reads,430056580,l1_read_misses,2715283
ikj_oblivious,512,512,512,16,2112,0.105876,2.53538,ref_cycles,221732784,instructions,1056679210,l1_reads,430056580,l1_read_misses,2702008
ikj_oblivious,512,512,512,16,2112,0.106959,2.5097,ref_cycles,223083084,instructions,1056679274,l1_reads,430056580,l1_read_misses,2719293
ikj_oblivious,512,512,512,16,2112,0.106359,2.52386,ref_cycles,222487356,instructions,1056679282,l1_reads,430056580,l1_read_misses,2718742
ikj_oblivious,512,512,512,16,2112,0.107058,2.50738,ref_cycles,223088124,instructions,1056679295,l1_reads,430056580,l1_read_misses,2574893
ikj_oblivious,512,512,512,16,2112,0.107668,2.49318,ref_cycles,224660520,instructions,1056679243,l1_reads,430056580,l1_read_misses,2722467
ikj_oblivious,512,512,512,16,2112,0.106968,2.50949,ref_cycles,223098624,instructions,1056679253,l1_reads,430056580,l1_read_misses,2709970
ikj_oblivious,512,512,512,16,2112,0.105848,2.53605,ref_cycles,222433008,instructions,1056679281,l1_reads,430056580,l1_read_misses,2719976
ikj_oblivious,512,512,512,16,2112,0.106362,2.52379,ref_cycles,222340776,instructions,1056679223,l1_reads,430056580,l1_read_misses,2733794
ikj_oblivious,512,512,512,16,2112,0.106646,2.51707,ref_cycles,222576648,instructions,1056679267,l1_reads,430056580,l1_read_misses,2719250
ikj_oblivious,512,512,512,16,2112,0.107205,2.50395,ref_cycles,222913572,instructions,1056679350,l1_reads,430056580,l1_read_misses,2712094
ikj_oblivious,512,512,512,16,2112,0.107195,2.50418,ref_cycles,223165908,instructions,1056679329,l1_reads,430056580,l1_read_misses,2715244
ikj_oblivious,512,512,512,16,2112,0.107111,2.50614,ref_cycles,222994884,instructions,1056679309,l1_reads,430056580,l1_read_misses,2589454
ikj_oblivious,512,512,512,16,2112,0.105453,2.54555,ref_cycles,222269544,instructions,1056679241,l1_reads,430056580,l1_read_misses,2715541
ikj_oblivious,512,512,512,16,2112,0.106293,2.52543,ref_cycles,222542628,instructions,1056679216,l1_reads,430056580,l1_read_misses,2671075
ikj_oblivious,512,512,512,16,2112,0.106583,2.51856,ref_cycles,222538932,instructions,1056679299,l1_reads,430056580,l1_read_misses,2699709
ikj_oblivious,512,512,512,16,2112,0.106215,2.52728,ref_cycles,222061896,instructions,1056679236,l1_reads,430056580,l1_read_misses,2692754
ikj_oblivious,512,512,512,16,2112,0.108063,2.48406,ref_cycles,225343608,instructions,1056679265,l1_reads,430056580,l1_read_misses,2713876
ijk_oblivious,4096,4096,4096,16,2112,55,2.49889,ref_cycles,114760313724,instructions,617524001737,l1_reads,224215499960,l1_read_misses,7781165112
ikj_oblivious,4096,4096,4096,16,2112,56.0709,2.45116,ref_cycles,117178680444,instructions,541019888679,l1_reads,220188953099,l1_read_misses,10301055003
ikj_oblivious,4096,4096,4096,16,2112,54.6887,2.51311,ref_cycles,114238913292,instructions,541019884787,l1_reads,220188968858,l1_read_misses,10745135374
ikj_oblivious,4096,4096,4096,16,2112,54.5721,2.51848,ref_cycles,113994333432,instructions,541019889827,l1_reads,220188976262,l1_read_misses,10261255658
ikj_oblivious,4096,4096,4096,16,2112,52.7595,2.60501,ref_cycles,110097012732,instructions,541019920686,l1_reads,220188984611,l1_read_misses,11291680325
ikj_oblivious,4096,4096,4096,16,2112,54.6134,2.51658,ref_cycles,114063615876,instructions,541019881565,l1_reads,220188976267,l1_read_misses,10274040326
ikj_oblivious,4096,4096,4096,16,2112,51.8861,2.64886,ref_cycles,108300918684,instructions,541019877149,l1_reads,220188969362,l1_read_misses,10593600954
ikj_oblivious,4096,4096,4096,16,2112,54.6427,2.51523,ref_cycles,114106876212,instructions,541019889938,l1_reads,220188976268,l1_read_misses,10292649663
ikj_oblivious,4096,4096,4096,16,2112,53.3299,2.57715,ref_cycles,111331454976,instructions,541019883218,l1_reads,220188968628,l1_read_misses,10644020345
ikj_oblivious,4096,4096,4096,16,2112,64.2144,2.14031,ref_cycles,134148163548,instructions,541019893222,l1_reads,220188976075,l1_read_misses,10411008833
ikj_oblivious,4096,4096,4096,16,2112,53.2551,2.58077,ref_cycles,111184449012,instructions,541019891525,l1_reads,220188968942,l1_read_misses,10598018580
ikj_oblivious,4096,4096,4096,16,2112,54.6187,2.51633,ref_cycles,114065914368,instructions,541019914802,l1_reads,220188991777,l1_read_misses,11289717180
ikj_oblivious,4096,4096,4096,16,2112,52.1504,2.63543,ref_cycles,108877684608,instructions,541019878006,l1_reads,220188969088,l1_read_misses,10632646082
ikj_oblivious,4096,4096,4096,16,2112,54.5673,2.5187,ref_cycles,113977428096,instructions,541019879627,l1_reads,220188955812,l1_read_misses,10325004484
ikj_oblivious,4096,4096,4096,16,2112,52.2313,2.63135,ref_cycles,109075786344,instructions,541019877153,l1_reads,220188968980,l1_read_misses,10653529420
ikj_oblivious,4096,4096,4096,16,2112,54.6253,2.51603,ref_cycles,114057282612,instructions,541019890291,l1_reads,220188976263,l1_read_misses,10205101300
ikj_oblivious,4096,4096,4096,16,2112,54.6854,2.51326,ref_cycles,114230213916,instructions,541019931313,l1_reads,220188984521,l1_read_misses,11291418867
ikj_oblivious,4096,4096,4096,16,2112,52.6883,2.60853,ref_cycles,109991525028,instructions,541019878442,l1_reads,220188969037,l1_read_misses,10666419251
ikj_oblivious,4096,4096,4096,16,2112,54.5846,2.51791,ref_cycles,114013118688,instructions,541019879676,l1_reads,220188976265,l1_read_misses,10312102629
ikj_oblivious,4096,4096,4096,16,2112,59.2353,2.32022,ref_cycles,123704583996,instructions,541019889277,l1_reads,220188967618,l1_read_misses,10669643498
ijk_transpose,32,32,32,16,2112,0,inf,ref_cycles,71568,instructions,258610,l1_reads,80718,l1_read_misses,345
ijk_transpose,32,32,32,16,2112,4e-06,16.384,ref_cycles,71316,instructions,258610,l1_reads,80718,l1_read_misses,348
ijk_transpose,32,32,32,16,2112,0,inf,ref_cycles,67536,instructions,258610,l1_reads,80718,l1_read_misses,347
ijk_transpose,32,32,32,16,2112,0,inf,ref_cycles,66948,instructions,258610,l1_reads,80718,l1_read_misses,348
ijk_transpose,32,32,32,16,2112,5e-06,13.1072,ref_cycles,67536,instructions,258611,l1_reads,80718,l1_read_misses,352
ijk_transpose,32,32,32,16,2112,0,inf,ref_cycles,71568,instructions,258610,l1_reads,80718,l1_read_misses,342
ijk_transpose,32,32,32,16,2112,5.1e-05,1.28502,ref_cycles,67368,instructions,258611,l1_reads,80718,l1_read_misses,372
ijk_transpose,32,32,32,16,2112,4e-06,16.384,ref_cycles,66864,instructions,258610,l1_reads,80718,l1_read_misses,347
ijk_transpose,32,32,32,16,2112,0,inf,ref_cycles,66780,instructions,258610,l1_reads,80718,l1_read_misses,350
ijk_transpose,32,32,32,16,2112,0,inf,ref_cycles,71820,instructions,258610,l1_reads,80718,l1_read_misses,335
ijk_transpose,32,32,32,16,2112,0,inf,ref_cycles,66948,instructions,258610,l1_reads,80718,l1_read_misses,351
ijk_transpose,32,32,32,16,2112,0,inf,ref_cycles,66612,instructions,258610,l1_reads,80718,l1_read_misses,342
ijk_transpose,32,32,32,16,2112,0,inf,ref_cycles,66780,instructions,258610,l1_reads,80718,l1_read_misses,351
ijk_transpose,32,32,32,16,2112,0,inf,ref_cycles,67452,instructions,258610,l1_reads,80718,l1_read_misses,345
ijk_transpose,32,32,32,16,2112,0,inf,ref_cycles,66780,instructions,258610,l1_reads,80718,l1_read_misses,347
ijk_transpose,32,32,32,16,2112,0,inf,ref_cycles,67536,instructions,258610,l1_reads,80718,l1_read_misses,347
ijk_transpose,32,32,32,16,2112,0,inf,ref_cycles,67116,instructions,258610,l1_reads,80718,l1_read_misses,345
ijk_transpose,32,32,32,16,2112,4e-06,16.384,ref_cycles,66780,instructions,258610,l1_reads,80718,l1_read_misses,351
ijk_transpose,32,32,32,16,2112,0,inf,ref_cycles,66948,instructions,258610,l1_reads,80718,l1_read_misses,345
ijk_transpose,32,32,32,16,2112,0,inf,ref_cycles,67200,instructions,258610,l1_reads,80718,l1_read_misses,343
ijk_transpose,512,512,512,16,2112,0.144419,1.85873,ref_cycles,302276100,instructions,880742150,l1_reads,271627200,l1_read_misses,8787585
ijk_transpose,512,512,512,16,2112,0.14387,1.86582,ref_cycles,301162596,instructions,880742279,l1_reads,271627200,l1_read_misses,8788543
ijk_transpose,512,512,512,16,2112,0.144112,1.86269,ref_cycles,300564096,instructions,880742216,l1_reads,271627201,l1_read_misses,8788574
ijk_transpose,512,512,512,16,2112,0.144425,1.85865,ref_cycles,302006124,instructions,880742192,l1_reads,271627200,l1_read_misses,8785757
ijk_transpose,512,512,512,16,2112,0.145473,1.84526,ref_cycles,301901712,instructions,880742282,l1_reads,271627200,l1_read_misses,8789320
ijk_transpose,512,512,512,16,2112,0.143936,1.86496,ref_cycles,301170744,instructions,880742192,l1_reads,271627200,l1_read_misses,8787617
ijk_transpose,512,512,512,16,2112,0.144222,1.86127,ref_cycles,301542444,instructions,880742163,l1_reads,271627200,l1_read_misses,8788242
ijk_transpose,512,512,512,16,2112,0.144676,1.85542,ref_cycles,301112028,instructions,880742181,l1_reads,271627200,l1_read_misses,8788148
ijk_transpose,512,512,512,16,2112,0.144854,1.85314,ref_cycles,301048440,instructions,880742265,l1_reads,271627200,l1_read_misses,8789070
ijk_transpose,512,512,512,16,2112,0.145326,1.84713,ref_cycles,302422512,instructions,880742255,l1_reads,271627200,l1_read_misses,8788671
ijk_transpose,512,512,512,16,2112,0.144846,1.85325,ref_cycles,301584528,instructions,880742194,l1_reads,271627193,l1_read_misses,8787811
ijk_transpose,512,512,512,16,2112,0.1448,1.85384,ref_cycles,301405272,instructions,880742193,l1_reads,271627200,l1_read_misses,8787598
ijk_transpose,512,512,512,16,2112,0.14441,1.85884,ref_cycles,300516552,instructions,880742243,l1_reads,271627200,l1_read_misses,8789318
ijk_transpose,512,512,512,16,2112,0.144444,1.85841,ref_cycles,300667920,instructions,880742217,l1_reads,271627200,l1_read_misses,8787736
ikj_oblivious,4096,4096,4096,16,2112,61.2,2.24574,ref_cycles,127858562664,instructions,541019902380,l1_reads,220188976071,l1_read_misses,10252522325
ijk_transpose,512,512,512,16,2112,0.14423,1.86116,ref_cycles,301161168,instructions,880742145,l1_reads,271627200,l1_read_misses,8788411
ijk_transpose,512,512,512,16,2112,0.151403,1.77299,ref_cycles,316914528,instructions,880742181,l1_reads,271627200,l1_read_misses,8787895
ijk_transpose,512,512,512,16,2112,0.145552,1.84426,ref_cycles,302642340,instructions,880742334,l1_reads,271627190,l1_read_misses,8789485
ijk_transpose,512,512,512,16,2112,0.151987,1.76617,ref_cycles,317229192,instructions,880742317,l1_reads,271627200,l1_read_misses,8791465
ijk_transpose,512,512,512,16,2112,0.14484,1.85332,ref_cycles,302595552,instructions,880742214,l1_reads,271627200,l1_read_misses,8788147
ijk_transpose,512,512,512,16,2112,0.15162,1.77045,ref_cycles,316025472,instructions,880742246,l1_reads,271627200,l1_read_misses,8790267
ijk_transpose,4096,4096,4096,16,2112,77.5829,1.77151,ref_cycles,161784897708,instructions,447197027689,l1_reads,137640658760,l1_read_misses,5229873627
ijk_transpose,4096,4096,4096,16,2112,80.9347,1.69815,ref_cycles,168848520876,instructions,447197020874,l1_reads,137640657995,l1_read_misses,5235493507
ijk_transpose,4096,4096,4096,16,2112,77.1894,1.78054,ref_cycles,160953282000,instructions,447197028226,l1_reads,137640673884,l1_read_misses,5233523944
ijk_transpose,4096,4096,4096,16,2112,80.9015,1.69884,ref_cycles,168809425344,instructions,447197019859,l1_reads,137640659475,l1_read_misses,5234058385
ijk_transpose,4096,4096,4096,16,2112,77.913,1.764,ref_cycles,162512828100,instructions,447197012206,l1_reads,137640658755,l1_read_misses,5233119111
ijk_transpose,4096,4096,4096,16,2112,80.9036,1.6988,ref_cycles,168793691052,instructions,447197021743,l1_reads,137640659483,l1_read_misses,5234241951
ijk_transpose,4096,4096,4096,16,2112,90.8862,1.51221,ref_cycles,189659406552,instructions,447197033099,l1_reads,137640658543,l1_read_misses,5235967183
ijk_transpose,4096,4096,4096,16,2112,92.9325,1.47891,ref_cycles,193949783748,instructions,447197056506,l1_reads,137640659456,l1_read_misses,5236766705
ijk_transpose,4096,4096,4096,16,2112,77.3104,1.77775,ref_cycles,161229201000,instructions,447197011357,l1_reads,137640658588,l1_read_misses,5234336256
ijk_transpose,4096,4096,4096,16,2112,80.9316,1.69821,ref_cycles,168841922508,instructions,447197021497,l1_reads,137640657905,l1_read_misses,5234119966
ijk_transpose,4096,4096,4096,16,2112,77.3544,1.77674,ref_cycles,161343075348,instructions,447197011448,l1_reads,137640658624,l1_read_misses,5232021595
ijk_transpose,4096,4096,4096,16,2112,80.8879,1.69913,ref_cycles,168793478112,instructions,447197020209,l1_reads,137640659481,l1_read_misses,5234774685
ijk_transpose,4096,4096,4096,16,2112,77.8415,1.76563,ref_cycles,162387376704,instructions,447197013187,l1_reads,137640658619,l1_read_misses,5232822976
ijk_transpose,4096,4096,4096,16,2112,84.8082,1.62059,ref_cycles,176931195252,instructions,447197026718,l1_reads,137640659460,l1_read_misses,5237718034
ijk_transpose,4096,4096,4096,16,2112,98.419,1.39647,ref_cycles,205429022484,instructions,447197063803,l1_reads,137640658382,l1_read_misses,5239847757
ijk_transpose,4096,4096,4096,16,2112,80.9117,1.69863,ref_cycles,168825606012,instructions,447197021436,l1_reads,137640659483,l1_read_misses,5233606800
ijk_transpose,4096,4096,4096,16,2112,80.5785,1.70565,ref_cycles,167998491444,instructions,447197034155,l1_reads,137640673748,l1_read_misses,5233137946
ijk_transpose,4096,4096,4096,16,2112,80.8983,1.69891,ref_cycles,168802691568,instructions,447197020478,l1_reads,137640657965,l1_read_misses,5233787939
ijk_transpose,4096,4096,4096,16,2112,77.2282,1.77965,ref_cycles,161072540412,instructions,447197011456,l1_reads,137640658803,l1_read_misses,5232045727
ijk_transpose,4096,4096,4096,16,2112,80.8923,1.69904,ref_cycles,168807203964,instructions,447197019498,l1_reads,137640659483,l1_read_misses,5233310974
ijk_transpose,4096,4096,4096,16,2112,89.068,1.54308,ref_cycles,185986513104,instructions,447197031536,l1_reads,137640658346,l1_read_misses,5162002399
