Algorithm,M,N,P,Base,Seed,Execution time,GFLOPS,perf1,perf1_val,perf2,perf2_val,perf3,perf3_val,perf4,perf4_val
ijk_oblivious,32,32,32,2,2112,0,inf,ref_cycles,201348,instructions,922788,l1_reads,263300,l1_read_misses,272
ijk_oblivious,32,32,32,2,2112,0.000128,0.512,ref_cycles,188412,instructions,922789,l1_reads,263300,l1_read_misses,333
ijk_oblivious,32,32,32,2,2112,0,inf,ref_cycles,177240,instructions,922788,l1_reads,263300,l1_read_misses,278
ijk_oblivious,32,32,32,2,2112,0,inf,ref_cycles,177828,instructions,922788,l1_reads,263300,l1_read_misses,271
ijk_oblivious,32,32,32,2,2112,0,inf,ref_cycles,204624,instructions,922788,l1_reads,263300,l1_read_misses,265
ijk_oblivious,32,32,32,2,2112,0,inf,ref_cycles,176736,instructions,922788,l1_reads,263300,l1_read_misses,268
ijk_oblivious,32,32,32,2,2112,0,inf,ref_cycles,177660,instructions,922788,l1_reads,263300,l1_read_misses,278
ijk_oblivious,32,32,32,2,2112,0,inf,ref_cycles,176988,instructions,922788,l1_reads,263300,l1_read_misses,271
ijk_oblivious,32,32,32,2,2112,0,inf,ref_cycles,179508,instructions,922788,l1_reads,263300,l1_read_misses,270
ijk_oblivious,32,32,32,2,2112,0,inf,ref_cycles,169428,instructions,922788,l1_reads,263300,l1_read_misses,274
ijk_oblivious,32,32,32,2,2112,9e-06,7.28178,ref_cycles,178500,instructions,922788,l1_reads,263300,l1_read_misses,277
ijk_oblivious,32,32,32,2,2112,0,inf,ref_cycles,176484,instructions,922788,l1_reads,263300,l1_read_misses,271
ijk_oblivious,32,32,32,2,2112,0,inf,ref_cycles,176148,instructions,922788,l1_reads,263300,l1_read_misses,279
ijk_oblivious,32,32,32,2,2112,0.000106,0.618264,ref_cycles,181440,instructions,922789,l1_reads,263300,l1_read_misses,292
ijk_oblivious,32,32,32,2,2112,0,inf,ref_cycles,177744,instructions,922788,l1_reads,263300,l1_read_misses,280
ijk_oblivious,32,32,32,2,2112,0,inf,ref_cycles,178332,instructions,922788,l1_reads,263300,l1_read_misses,281
ijk_oblivious,32,32,32,2,2112,9e-06,7.28178,ref_cycles,180180,instructions,922788,l1_reads,263300,l1_read_misses,275
ijk_oblivious,32,32,32,2,2112,0,inf,ref_cycles,176232,instructions,922788,l1_reads,263300,l1_read_misses,272
ijk_oblivious,32,32,32,2,2112,0.000106,0.618264,ref_cycles,176652,instructions,922789,l1_reads,263300,l1_read_misses,301
ijk_oblivious,32,32,32,2,2112,0,inf,ref_cycles,190260,instructions,922788,l1_reads,263300,l1_read_misses,278
ijk_oblivious,32,32,32,4,2112,0,inf,ref_cycles,86688,instructions,480932,l1_reads,145540,l1_read_misses,266
ijk_oblivious,32,32,32,4,2112,0,inf,ref_cycles,87612,instructions,480932,l1_reads,145540,l1_read_misses,262
ijk_oblivious,32,32,32,4,2112,0,inf,ref_cycles,89376,instructions,480932,l1_reads,145540,l1_read_misses,254
ijk_oblivious,32,32,32,4,2112,5e-06,13.1072,ref_cycles,87024,instructions,480932,l1_reads,145540,l1_read_misses,266
ijk_oblivious,32,32,32,4,2112,6e-05,1.09227,ref_cycles,88368,instructions,480933,l1_reads,145540,l1_read_misses,282
ijk_oblivious,32,32,32,4,2112,0,inf,ref_cycles,87612,instructions,480932,l1_reads,145540,l1_read_misses,270
ijk_oblivious,32,32,32,4,2112,0,inf,ref_cycles,90384,instructions,480932,l1_reads,145540,l1_read_misses,266
ijk_oblivious,32,32,32,4,2112,6e-06,10.9227,ref_cycles,98532,instructions,480932,l1_reads,145540,l1_read_misses,265
ijk_oblivious,32,32,32,4,2112,6.1e-05,1.07436,ref_cycles,86772,instructions,480933,l1_reads,145540,l1_read_misses,306
ijk_oblivious,32,32,32,4,2112,5e-06,13.1072,ref_cycles,87192,instructions,480932,l1_reads,145540,l1_read_misses,271
ijk_oblivious,32,32,32,4,2112,0,inf,ref_cycles,91476,instructions,480932,l1_reads,145540,l1_read_misses,263
ijk_oblivious,32,32,32,4,2112,5e-06,13.1072,ref_cycles,88872,instructions,480932,l1_reads,145540,l1_read_misses,257
ijk_oblivious,32,32,32,4,2112,5e-06,13.1072,ref_cycles,89964,instructions,480932,l1_reads,145540,l1_read_misses,259
ijk_oblivious,32,32,32,4,2112,0,inf,ref_cycles,90216,instructions,480932,l1_reads,145540,l1_read_misses,255
ijk_oblivious,32,32,32,4,2112,6e-06,10.9227,ref_cycles,86940,instructions,480932,l1_reads,145540,l1_read_misses,263
ijk_oblivious,32,32,32,4,2112,1.1e-05,5.95782,ref_cycles,86016,instructions,480932,l1_reads,145540,l1_read_misses,263
ijk_oblivious,32,32,32,4,2112,0,inf,ref_cycles,93744,instructions,480932,l1_reads,145540,l1_read_misses,275
ijk_oblivious,32,32,32,4,2112,6.4e-05,1.024,ref_cycles,88788,instructions,480933,l1_reads,145540,l1_read_misses,301
ijk_oblivious,32,32,32,4,2112,0,inf,ref_cycles,88620,instructions,480932,l1_reads,145540,l1_read_misses,265
ijk_oblivious,32,32,32,4,2112,4e-06,16.384,ref_cycles,81312,instructions,480932,l1_reads,145540,l1_read_misses,272
ijk_oblivious,32,32,32,8,2112,0,inf,ref_cycles,65268,instructions,348132,l1_reads,116996,l1_read_misses,263
ijk_oblivious,32,32,32,8,2112,0,inf,ref_cycles,64596,instructions,348132,l1_reads,116996,l1_read_misses,266
ijk_oblivious,32,32,32,8,2112,0,inf,ref_cycles,64596,instructions,348132,l1_reads,116996,l1_read_misses,262
ijk_oblivious,32,32,32,8,2112,0,inf,ref_cycles,65856,instructions,348132,l1_reads,116996,l1_read_misses,263
ijk_oblivious,32,32,32,8,2112,8e-06,8.192,ref_cycles,64428,instructions,348132,l1_reads,116996,l1_read_misses,270
ijk_oblivious,32,32,32,8,2112,0,inf,ref_cycles,64848,instructions,348132,l1_reads,116996,l1_read_misses,273
ijk_oblivious,32,32,32,8,2112,0,inf,ref_cycles,69300,instructions,348132,l1_reads,116996,l1_read_misses,278
ijk_oblivious,32,32,32,8,2112,0,inf,ref_cycles,61068,instructions,348132,l1_reads,116996,l1_read_misses,271
ijk_oblivious,32,32,32,8,2112,4e-06,16.384,ref_cycles,65268,instructions,348132,l1_reads,116996,l1_read_misses,266
ijk_oblivious,32,32,32,8,2112,0,inf,ref_cycles,65520,instructions,348132,l1_reads,116996,l1_read_misses,267
ijk_oblivious,32,32,32,8,2112,4e-06,16.384,ref_cycles,65016,instructions,348132,l1_reads,116996,l1_read_misses,263
ijk_oblivious,32,32,32,8,2112,0,inf,ref_cycles,71484,instructions,348132,l1_reads,116996,l1_read_misses,266
ijk_oblivious,32,32,32,8,2112,4e-06,16.384,ref_cycles,64764,instructions,348132,l1_reads,116996,l1_read_misses,268
ijk_oblivious,32,32,32,8,2112,0,inf,ref_cycles,74088,instructions,348132,l1_reads,116996,l1_read_misses,262
ijk_oblivious,32,32,32,8,2112,5e-06,13.1072,ref_cycles,64764,instructions,348132,l1_reads,116996,l1_read_misses,271
ijk_oblivious,32,32,32,8,2112,0,inf,ref_cycles,69216,instructions,348132,l1_reads,116996,l1_read_misses,269
ijk_oblivious,32,32,32,8,2112,8e-06,8.192,ref_cycles,65184,instructions,348132,l1_reads,116996,l1_read_misses,265
ijk_oblivious,32,32,32,8,2112,0,inf,ref_cycles,65100,instructions,348132,l1_reads,116996,l1_read_misses,264
ijk_oblivious,32,32,32,8,2112,0,inf,ref_cycles,64764,instructions,348132,l1_reads,116996,l1_read_misses,265
ijk_oblivious,32,32,32,8,2112,4e-06,16.384,ref_cycles,65268,instructions,348132,l1_reads,116996,l1_read_misses,264
ijk_oblivious,32,32,32,16,2112,0,inf,ref_cycles,63084,instructions,294476,l1_reads,106900,l1_read_misses,267
ijk_oblivious,32,32,32,16,2112,0,inf,ref_cycles,63168,instructions,294476,l1_reads,106900,l1_read_misses,266
ijk_oblivious,32,32,32,16,2112,4e-06,16.384,ref_cycles,66276,instructions,294476,l1_reads,106900,l1_read_misses,250
ijk_oblivious,32,32,32,16,2112,0,inf,ref_cycles,63336,instructions,294476,l1_reads,106900,l1_read_misses,262
ijk_oblivious,32,32,32,16,2112,5.1e-05,1.28502,ref_cycles,64596,instructions,294477,l1_reads,106900,l1_read_misses,283
ijk_oblivious,32,32,32,16,2112,4e-06,16.384,ref_cycles,63420,instructions,294476,l1_reads,106900,l1_read_misses,265
ijk_oblivious,32,32,32,16,2112,0,inf,ref_cycles,63420,instructions,294476,l1_reads,106900,l1_read_misses,258
ijk_oblivious,32,32,32,16,2112,0,inf,ref_cycles,62664,instructions,294476,l1_reads,106900,l1_read_misses,267
ijk_oblivious,32,32,32,16,2112,5e-06,13.1072,ref_cycles,63252,instructions,294476,l1_reads,106900,l1_read_misses,259
ijk_oblivious,32,32,32,16,2112,5.3e-05,1.23653,ref_cycles,68460,instructions,294477,l1_reads,106900,l1_read_misses,282
ijk_oblivious,32,32,32,16,2112,5.2e-05,1.26031,ref_cycles,64092,instructions,294477,l1_reads,106900,l1_read_misses,310
ijk_oblivious,32,32,32,16,2112,0,inf,ref_cycles,63168,instructions,294476,l1_reads,106900,l1_read_misses,263
ijk_oblivious,32,32,32,16,2112,0,inf,ref_cycles,63084,instructions,294476,l1_reads,106900,l1_read_misses,263
ijk_oblivious,32,32,32,16,2112,0,inf,ref_cycles,63084,instructions,294476,l1_reads,106900,l1_read_misses,263
ijk_oblivious,32,32,32,16,2112,0,inf,ref_cycles,63504,instructions,294476,l1_reads,106900,l1_read_misses,275
ijk_oblivious,32,32,32,16,2112,0,inf,ref_cycles,63252,instructions,294476,l1_reads,106900,l1_read_misses,264
ijk_oblivious,32,32,32,16,2112,5e-05,1.31072,ref_cycles,63840,instructions,294477,l1_reads,106900,l1_read_misses,287
ijk_oblivious,32,32,32,16,2112,4e-06,16.384,ref_cycles,63420,instructions,294476,l1_reads,106900,l1_read_misses,261
ijk_oblivious,32,32,32,16,2112,0,inf,ref_cycles,67200,instructions,294476,l1_reads,106900,l1_read_misses,261
ijk_oblivious,32,32,32,16,2112,8e-06,8.192,ref_cycles,72240,instructions,294476,l1_reads,106900,l1_read_misses,249
ijk_oblivious,32,32,32,32,2112,6e-06,10.9227,ref_cycles,77196,instructions,262388,l1_reads,101396,l1_read_misses,257
ijk_oblivious,32,32,32,32,2112,0,inf,ref_cycles,81396,instructions,262388,l1_reads,101396,l1_read_misses,255
ijk_oblivious,32,32,32,32,2112,0,inf,ref_cycles,67116,instructions,262388,l1_reads,101396,l1_read_misses,260
ijk_oblivious,32,32,32,32,2112,0,inf,ref_cycles,67284,instructions,262388,l1_reads,101396,l1_read_misses,264
ijk_oblivious,32,32,32,32,2112,4e-06,16.384,ref_cycles,67116,instructions,262388,l1_reads,101396,l1_read_misses,262
ijk_oblivious,32,32,32,32,2112,0,inf,ref_cycles,67368,instructions,262388,l1_reads,101396,l1_read_misses,254
ijk_oblivious,32,32,32,32,2112,0,inf,ref_cycles,67116,instructions,262388,l1_reads,101396,l1_read_misses,262
ijk_oblivious,32,32,32,32,2112,0,inf,ref_cycles,67284,instructions,262388,l1_reads,101396,l1_read_misses,261
ijk_oblivious,32,32,32,32,2112,0,inf,ref_cycles,66948,instructions,262388,l1_reads,101396,l1_read_misses,263
ijk_oblivious,32,32,32,32,2112,0,inf,ref_cycles,67032,instructions,262388,l1_reads,101396,l1_read_misses,263
ijk_oblivious,32,32,32,32,2112,0,inf,ref_cycles,67116,instructions,262388,l1_reads,101396,l1_read_misses,270
ijk_oblivious,32,32,32,32,2112,4e-06,16.384,ref_cycles,71064,instructions,262388,l1_reads,101396,l1_read_misses,257
ijk_oblivious,32,32,32,32,2112,0,inf,ref_cycles,67032,instructions,262388,l1_reads,101396,l1_read_misses,267
ijk_oblivious,32,32,32,32,2112,0,inf,ref_cycles,66948,instructions,262388,l1_reads,101396,l1_read_misses,267
ijk_oblivious,32,32,32,32,2112,4e-06,16.384,ref_cycles,67200,instructions,262388,l1_reads,101396,l1_read_misses,264
ijk_oblivious,32,32,32,32,2112,0,inf,ref_cycles,67032,instructions,262388,l1_reads,101396,l1_read_misses,262
ijk_oblivious,32,32,32,32,2112,0,inf,ref_cycles,67284,instructions,262388,l1_reads,101396,l1_read_misses,260
ijk_oblivious,32,32,32,32,2112,0,inf,ref_cycles,63000,instructions,262388,l1_reads,101396,l1_read_misses,272
ijk_oblivious,32,32,32,32,2112,0,inf,ref_cycles,67536,instructions,262388,l1_reads,101396,l1_read_misses,257
ijk_oblivious,32,32,32,32,2112,4e-06,16.384,ref_cycles,72156,instructions,262388,l1_reads,101396,l1_read_misses,267
ijk_oblivious,32,32,32,64,2112,0,inf,ref_cycles,67200,instructions,262388,l1_reads,101396,l1_read_misses,262
ijk_oblivious,32,32,32,64,2112,0,inf,ref_cycles,66948,instructions,262388,l1_reads,101396,l1_read_misses,264
ijk_oblivious,32,32,32,64,2112,0,inf,ref_cycles,67200,instructions,262388,l1_reads,101396,l1_read_misses,266
ijk_oblivious,32,32,32,64,2112,0,inf,ref_cycles,67200,instructions,262388,l1_reads,101396,l1_read_misses,266
ijk_oblivious,32,32,32,64,2112,0,inf,ref_cycles,68208,instructions,262388,l1_reads,101396,l1_read_misses,263
ijk_oblivious,32,32,32,64,2112,0,inf,ref_cycles,66948,instructions,262388,l1_reads,101396,l1_read_misses,267
ijk_oblivious,32,32,32,64,2112,9e-06,7.28178,ref_cycles,67284,instructions,262388,l1_reads,101396,l1_read_misses,264
ijk_oblivious,32,32,32,64,2112,0,inf,ref_cycles,67116,instructions,262388,l1_reads,101396,l1_read_misses,261
ijk_oblivious,32,32,32,64,2112,0,inf,ref_cycles,76692,instructions,262388,l1_reads,101396,l1_read_misses,262
ijk_oblivious,32,32,32,64,2112,0,inf,ref_cycles,66948,instructions,262388,l1_reads,101396,l1_read_misses,265
ijk_oblivious,32,32,32,64,2112,0,inf,ref_cycles,67116,instructions,262388,l1_reads,101396,l1_read_misses,268
ijk_oblivious,32,32,32,64,2112,0,inf,ref_cycles,74760,instructions,262388,l1_reads,101396,l1_read_misses,263
ijk_oblivious,32,32,32,64,2112,0,inf,ref_cycles,67284,instructions,262388,l1_reads,101396,l1_read_misses,268
ijk_oblivious,32,32,32,64,2112,0,inf,ref_cycles,66864,instructions,262388,l1_reads,101396,l1_read_misses,257
ijk_oblivious,32,32,32,64,2112,4e-06,16.384,ref_cycles,66864,instructions,262388,l1_reads,101396,l1_read_misses,265
ijk_oblivious,32,32,32,64,2112,5.2e-05,1.26031,ref_cycles,67788,instructions,262389,l1_reads,101396,l1_read_misses,283
ijk_oblivious,32,32,32,64,2112,0,inf,ref_cycles,67956,instructions,262388,l1_reads,101396,l1_read_misses,270
ijk_oblivious,32,32,32,64,2112,0,inf,ref_cycles,67032,instructions,262388,l1_reads,101396,l1_read_misses,266
ijk_oblivious,32,32,32,64,2112,0,inf,ref_cycles,67620,instructions,262388,l1_reads,101396,l1_read_misses,264
ijk_oblivious,32,32,32,64,2112,0,inf,ref_cycles,72240,instructions,262388,l1_reads,101396,l1_read_misses,263
ijk_oblivious,32,32,32,128,2112,0,inf,ref_cycles,73584,instructions,262388,l1_reads,101396,l1_read_misses,267
ijk_oblivious,32,32,32,128,2112,0,inf,ref_cycles,67368,instructions,262388,l1_reads,101396,l1_read_misses,264
ijk_oblivious,32,32,32,128,2112,0,inf,ref_cycles,71484,instructions,262388,l1_reads,101396,l1_read_misses,267
ijk_oblivious,32,32,32,128,2112,0,inf,ref_cycles,67452,instructions,262388,l1_reads,101396,l1_read_misses,264
ijk_oblivious,32,32,32,128,2112,4e-06,16.384,ref_cycles,72324,instructions,262388,l1_reads,101396,l1_read_misses,254
ijk_oblivious,32,32,32,128,2112,0,inf,ref_cycles,66948,instructions,262388,l1_reads,101396,l1_read_misses,267
ijk_oblivious,32,32,32,128,2112,0,inf,ref_cycles,68376,instructions,262388,l1_reads,101396,l1_read_misses,261
ijk_oblivious,32,32,32,128,2112,5e-06,13.1072,ref_cycles,67032,instructions,262388,l1_reads,101396,l1_read_misses,271
ijk_oblivious,32,32,32,128,2112,0,inf,ref_cycles,71316,instructions,262388,l1_reads,101396,l1_read_misses,255
ijk_oblivious,32,32,32,128,2112,0,inf,ref_cycles,67116,instructions,262388,l1_reads,101396,l1_read_misses,260
ijk_oblivious,32,32,32,128,2112,0,inf,ref_cycles,67032,instructions,262388,l1_reads,101396,l1_read_misses,264
ijk_oblivious,32,32,32,128,2112,0,inf,ref_cycles,66864,instructions,262388,l1_reads,101396,l1_read_misses,267
ijk_oblivious,32,32,32,128,2112,5e-06,13.1072,ref_cycles,67032,instructions,262388,l1_reads,101396,l1_read_misses,263
ijk_oblivious,32,32,32,128,2112,4e-06,16.384,ref_cycles,67032,instructions,262388,l1_reads,101396,l1_read_misses,264
ijk_oblivious,32,32,32,128,2112,0,inf,ref_cycles,66864,instructions,262388,l1_reads,101396,l1_read_misses,269
ijk_oblivious,32,32,32,128,2112,4e-06,16.384,ref_cycles,67032,instructions,262388,l1_reads,101396,l1_read_misses,266
ijk_oblivious,32,32,32,128,2112,0,inf,ref_cycles,76356,instructions,262388,l1_reads,101396,l1_read_misses,258
ijk_oblivious,32,32,32,128,2112,0,inf,ref_cycles,68040,instructions,262388,l1_reads,101396,l1_read_misses,263
ijk_oblivious,32,32,32,128,2112,0,inf,ref_cycles,67704,instructions,262389,l1_reads,101396,l1_read_misses,315
ijk_oblivious,32,32,32,128,2112,5e-05,1.31072,ref_cycles,67200,instructions,262389,l1_reads,101396,l1_read_misses,271
ijk_oblivious,32,32,32,256,2112,0,inf,ref_cycles,67032,instructions,262388,l1_reads,101396,l1_read_misses,259
ijk_oblivious,32,32,32,256,2112,4e-06,16.384,ref_cycles,67368,instructions,262388,l1_reads,101396,l1_read_misses,267
ijk_oblivious,32,32,32,256,2112,0,inf,ref_cycles,67620,instructions,262388,l1_reads,101396,l1_read_misses,255
ijk_oblivious,32,32,32,256,2112,0,inf,ref_cycles,66780,instructions,262388,l1_reads,101396,l1_read_misses,264
ijk_oblivious,32,32,32,256,2112,0,inf,ref_cycles,67284,instructions,262388,l1_reads,101396,l1_read_misses,264
ijk_oblivious,32,32,32,256,2112,0,inf,ref_cycles,66780,instructions,262388,l1_reads,101396,l1_read_misses,264
ijk_oblivious,32,32,32,256,2112,4e-06,16.384,ref_cycles,67116,instructions,262388,l1_reads,101396,l1_read_misses,265
ijk_oblivious,32,32,32,256,2112,5e-06,13.1072,ref_cycles,67032,instructions,262388,l1_reads,101396,l1_read_misses,263
ijk_oblivious,32,32,32,256,2112,0,inf,ref_cycles,67032,instructions,262388,l1_reads,101396,l1_read_misses,267
ijk_oblivious,32,32,32,256,2112,4e-06,16.384,ref_cycles,67284,instructions,262388,l1_reads,101396,l1_read_misses,262
ijk_oblivious,32,32,32,256,2112,4e-06,16.384,ref_cycles,67116,instructions,262388,l1_reads,101396,l1_read_misses,256
ijk_oblivious,32,32,32,256,2112,0,inf,ref_cycles,66948,instructions,262388,l1_reads,101396,l1_read_misses,259
ijk_oblivious,32,32,32,256,2112,0,inf,ref_cycles,67452,instructions,262388,l1_reads,101396,l1_read_misses,266
ijk_oblivious,32,32,32,256,2112,0,inf,ref_cycles,67284,instructions,262388,l1_reads,101396,l1_read_misses,262
ijk_oblivious,32,32,32,256,2112,5e-05,1.31072,ref_cycles,67704,instructions,262389,l1_reads,101396,l1_read_misses,273
ijk_oblivious,32,32,32,256,2112,4e-06,16.384,ref_cycles,67368,instructions,262388,l1_reads,101396,l1_read_misses,259
ijk_oblivious,32,32,32,256,2112,0,inf,ref_cycles,67116,instructions,262388,l1_reads,101396,l1_read_misses,257
ijk_oblivious,32,32,32,256,2112,0,inf,ref_cycles,67620,instructions,262388,l1_reads,101396,l1_read_misses,255
ijk_oblivious,32,32,32,256,2112,0,inf,ref_cycles,67284,instructions,262388,l1_reads,101396,l1_read_misses,267
ijk_oblivious,32,32,32,256,2112,0,inf,ref_cycles,67116,instructions,262388,l1_reads,101396,l1_read_misses,265
ijk_oblivious,512,512,512,2,2112,0.29117,0.92192,ref_cycles,608354376,instructions,3779667560,l1_reads,1078535300,l1_read_misses,1491922
ijk_oblivious,512,512,512,2,2112,0.292486,0.917772,ref_cycles,609688548,instructions,3779667776,l1_reads,1078535300,l1_read_misses,1494229
ijk_oblivious,512,512,512,2,2112,0.290728,0.923322,ref_cycles,607579644,instructions,3779667550,l1_reads,1078535300,l1_read_misses,1490387
ijk_oblivious,512,512,512,2,2112,0.291472,0.920965,ref_cycles,608645100,instructions,3779667708,l1_reads,1078535300,l1_read_misses,1485749
ijk_oblivious,512,512,512,2,2112,0.29289,0.916506,ref_cycles,609977256,instructions,3779667826,l1_reads,1078535300,l1_read_misses,1494741
ijk_oblivious,512,512,512,2,2112,0.292523,0.917656,ref_cycles,610088472,instructions,3779667674,l1_reads,1078535300,l1_read_misses,1480166
ijk_oblivious,512,512,512,2,2112,0.291722,0.920176,ref_cycles,609320376,instructions,3779667545,l1_reads,1078535301,l1_read_misses,1490660
ijk_oblivious,512,512,512,2,2112,0.292923,0.916403,ref_cycles,611089164,instructions,3779667626,l1_reads,1078535300,l1_read_misses,1483057
ijk_oblivious,512,512,512,2,2112,0.294055,0.912875,ref_cycles,611899932,instructions,3779667803,l1_reads,1078535300,l1_read_misses,1483380
ijk_oblivious,512,512,512,2,2112,0.291731,0.920147,ref_cycles,609626136,instructions,3779667546,l1_reads,1078535300,l1_read_misses,1476713
ijk_oblivious,512,512,512,2,2112,0.291382,0.921249,ref_cycles,608578992,instructions,3779667539,l1_reads,1078535300,l1_read_misses,1488791
ijk_oblivious,512,512,512,2,2112,0.292392,0.918067,ref_cycles,610267476,instructions,3779667679,l1_reads,1078535300,l1_read_misses,1483084
ijk_oblivious,512,512,512,2,2112,0.291705,0.920229,ref_cycles,609349944,instructions,3779667622,l1_reads,1078535300,l1_read_misses,1492752
ijk_oblivious,512,512,512,2,2112,0.290842,0.92296,ref_cycles,607976208,instructions,3779667605,l1_reads,1078535300,l1_read_misses,1489058
ijk_oblivious,512,512,512,2,2112,0.291599,0.920564,ref_cycles,608472900,instructions,3779667605,l1_reads,1078535300,l1_read_misses,1489732
ijk_oblivious,512,512,512,2,2112,0.292817,0.916735,ref_cycles,610945692,instructions,3779667646,l1_reads,1078535300,l1_read_misses,1483994
ijk_oblivious,512,512,512,2,2112,0.293597,0.914299,ref_cycles,611928156,instructions,3779667724,l1_reads,1078535300,l1_read_misses,1498401
ijk_oblivious,512,512,512,2,2112,0.292066,0.919092,ref_cycles,610516956,instructions,3779667531,l1_reads,1078535300,l1_read_misses,1479113
ijk_oblivious,512,512,512,2,2112,0.293138,0.915731,ref_cycles,611725212,instructions,3779667691,l1_reads,1078535300,l1_read_misses,1487677
ijk_oblivious,512,512,512,2,2112,0.291746,0.9201,ref_cycles,609841176,instructions,3779667652,l1_reads,1078535300,l1_read_misses,1494856
ijk_oblivious,512,512,512,4,2112,0.139907,1.91867,ref_cycles,291824820,instructions,1969825127,l1_reads,596190340,l1_read_misses,1884781
ijk_oblivious,512,512,512,4,2112,0.139458,1.92485,ref_cycles,291332076,instructions,1969825269,l1_reads,596190340,l1_read_misses,1892249
ijk_oblivious,512,512,512,4,2112,0.140118,1.91578,ref_cycles,292795440,instructions,1969825145,l1_reads,596190340,l1_read_misses,1882433
ijk_oblivious,512,512,512,4,2112,0.140373,1.9123,ref_cycles,293873160,instructions,1969825221,l1_reads,596190340,l1_read_misses,1911543
ijk_oblivious,512,512,512,4,2112,0.141994,1.89047,ref_cycles,295892100,instructions,1969825173,l1_reads,596190340,l1_read_misses,1928553
ijk_oblivious,512,512,512,4,2112,0.140806,1.90642,ref_cycles,293680884,instructions,1969825209,l1_reads,596190340,l1_read_misses,1926752
ijk_oblivious,512,512,512,4,2112,0.139232,1.92797,ref_cycles,290627064,instructions,1969825194,l1_reads,596190340,l1_read_misses,1916715
ijk_oblivious,512,512,512,4,2112,0.138997,1.93123,ref_cycles,290912160,instructions,1969825155,l1_reads,596190340,l1_read_misses,1901946
ijk_oblivious,512,512,512,4,2112,0.138905,1.93251,ref_cycles,290140200,instructions,1969825169,l1_reads,596190340,l1_read_misses,1918317
ijk_oblivious,512,512,512,4,2112,0.140365,1.91241,ref_cycles,294261072,instructions,1969825085,l1_reads,596190340,l1_read_misses,1917763
ijk_oblivious,512,512,512,4,2112,0.139766,1.92061,ref_cycles,293416368,instructions,1969825159,l1_reads,596190340,l1_read_misses,1931643
ijk_oblivious,512,512,512,4,2112,0.140671,1.90825,ref_cycles,294875196,instructions,1969825136,l1_reads,596190340,l1_read_misses,1924181
ijk_oblivious,512,512,512,4,2112,0.139783,1.92037,ref_cycles,291688404,instructions,1969825165,l1_reads,596190340,l1_read_misses,1895830
ijk_oblivious,512,512,512,4,2112,0.138694,1.93545,ref_cycles,290099124,instructions,1969825124,l1_reads,596190340,l1_read_misses,1929534
ijk_oblivious,512,512,512,4,2112,0.141976,1.89071,ref_cycles,295896132,instructions,1969825166,l1_reads,596190340,l1_read_misses,1907032
ijk_oblivious,512,512,512,4,2112,0.140139,1.91549,ref_cycles,291887988,instructions,1969825224,l1_reads,596190340,l1_read_misses,1926504
ijk_oblivious,512,512,512,4,2112,0.141599,1.89574,ref_cycles,295112496,instructions,1969825200,l1_reads,596190340,l1_read_misses,1898826
ijk_oblivious,512,512,512,4,2112,0.139122,1.9295,ref_cycles,292261284,instructions,1969825165,l1_reads,596190340,l1_read_misses,1912188
ijk_oblivious,512,512,512,4,2112,0.139315,1.92682,ref_cycles,290954412,instructions,1969825166,l1_reads,596190340,l1_read_misses,1943036
ijk_oblivious,512,512,512,4,2112,0.142369,1.88549,ref_cycles,295234296,instructions,1969825387,l1_reads,596190340,l1_read_misses,1942663
ijk_oblivious,512,512,512,8,2112,0.104689,2.56412,ref_cycles,219558276,instructions,1425876240,l1_reads,479274116,l1_read_misses,3152563
ijk_oblivious,512,512,512,8,2112,0.104864,2.55984,ref_cycles,219899820,instructions,1425876304,l1_reads,479274116,l1_read_misses,3044295
ijk_oblivious,512,512,512,8,2112,0.105184,2.55206,ref_cycles,220300836,instructions,1425876242,l1_reads,479274116,l1_read_misses,2931049
ijk_oblivious,512,512,512,8,2112,0.105455,2.5455,ref_cycles,220151568,instructions,1425876305,l1_reads,479274116,l1_read_misses,3153307
ijk_oblivious,512,512,512,8,2112,0.105852,2.53595,ref_cycles,220935792,instructions,1425876355,l1_reads,479274116,l1_read_misses,3237630
ijk_oblivious,512,512,512,8,2112,0.105564,2.54287,ref_cycles,220355436,instructions,1425876332,l1_reads,479274116,l1_read_misses,3069846
ijk_oblivious,512,512,512,8,2112,0.105954,2.53351,ref_cycles,220693368,instructions,1425876400,l1_reads,479274116,l1_read_misses,3122850
ijk_oblivious,512,512,512,8,2112,0.106124,2.52945,ref_cycles,221428452,instructions,1425876368,l1_reads,479274116,l1_read_misses,3304514
ijk_oblivious,512,512,512,8,2112,0.106048,2.53126,ref_cycles,220941168,instructions,1425876349,l1_reads,479274116,l1_read_misses,3145918
ijk_oblivious,512,512,512,8,2112,0.104557,2.56736,ref_cycles,219458736,instructions,1425876261,l1_reads,479274116,l1_read_misses,3328530
ijk_oblivious,512,512,512,8,2112,0.106191,2.52786,ref_cycles,221164020,instructions,1425876380,l1_reads,479274116,l1_read_misses,3124144
ijk_oblivious,512,512,512,8,2112,0.105315,2.54888,ref_cycles,219990792,instructions,1425876286,l1_reads,479274116,l1_read_misses,2999811
ijk_oblivious,512,512,512,8,2112,0.106135,2.52919,ref_cycles,221074728,instructions,1425876356,l1_reads,479274116,l1_read_misses,3301963
ijk_oblivious,512,512,512,8,2112,0.106357,2.52391,ref_cycles,221720100,instructions,1425876328,l1_reads,479274116,l1_read_misses,3181730
ijk_oblivious,512,512,512,8,2112,0.105387,2.54714,ref_cycles,220376100,instructions,1425876340,l1_reads,479274116,l1_read_misses,3034541
ijk_oblivious,512,512,512,8,2112,0.106128,2.52936,ref_cycles,221324460,instructions,1425876394,l1_reads,479274116,l1_read_misses,3348863
ijk_oblivious,512,512,512,8,2112,0.105282,2.54968,ref_cycles,219913680,instructions,1425876292,l1_reads,479274116,l1_read_misses,3177590
ijk_oblivious,512,512,512,8,2112,0.105161,2.55261,ref_cycles,219953916,instructions,1425876285,l1_reads,479274116,l1_read_misses,3218879
ijk_oblivious,512,512,512,8,2112,0.105668,2.54037,ref_cycles,221074644,instructions,1425876298,l1_reads,479274116,l1_read_misses,3187280
ijk_oblivious,512,512,512,8,2112,0.1054,2.54683,ref_cycles,220083864,instructions,1425876304,l1_reads,479274116,l1_read_misses,2999653
ijk_oblivious,512,512,512,16,2112,0.103221,2.60059,ref_cycles,215809776,instructions,1206101273,l1_reads,437920900,l1_read_misses,2878032
ijk_oblivious,512,512,512,16,2112,0.103705,2.58845,ref_cycles,216304368,instructions,1206101301,l1_reads,437920900,l1_read_misses,2932439
ijk_oblivious,512,512,512,16,2112,0.103794,2.58623,ref_cycles,217087164,instructions,1206101350,l1_reads,437920900,l1_read_misses,3021534
ijk_oblivious,512,512,512,16,2112,0.103822,2.58554,ref_cycles,216423900,instructions,1206101392,l1_reads,437920900,l1_read_misses,2878133
ijk_oblivious,512,512,512,16,2112,0.108515,2.47372,ref_cycles,228022284,instructions,1206101372,l1_reads,437920900,l1_read_misses,2767353
ijk_oblivious,512,512,512,16,2112,0.103799,2.58611,ref_cycles,216537048,instructions,1206101389,l1_reads,437920900,l1_read_misses,3012641
ijk_oblivious,512,512,512,16,2112,0.103755,2.58721,ref_cycles,216506640,instructions,1206101333,l1_reads,437920900,l1_read_misses,2372976
ijk_oblivious,512,512,512,16,2112,0.103111,2.60336,ref_cycles,215890416,instructions,1206101291,l1_reads,437920900,l1_read_misses,2883693
ijk_oblivious,512,512,512,16,2112,0.103673,2.58925,ref_cycles,216318564,instructions,1206101343,l1_reads,437920900,l1_read_misses,2887171
ijk_oblivious,512,512,512,16,2112,0.104027,2.58044,ref_cycles,217148400,instructions,1206101326,l1_reads,437920900,l1_read_misses,2936128
ijk_oblivious,512,512,512,16,2112,0.103311,2.59832,ref_cycles,216090084,instructions,1206101290,l1_reads,437920900,l1_read_misses,2994895
ijk_oblivious,512,512,512,16,2112,0.103078,2.6042,ref_cycles,215198340,instructions,1206101358,l1_reads,437920900,l1_read_misses,2830225
ijk_oblivious,512,512,512,16,2112,0.104563,2.56721,ref_cycles,217632576,instructions,1206101378,l1_reads,437920900,l1_read_misses,2886387
ijk_oblivious,512,512,512,16,2112,0.104184,2.57655,ref_cycles,217256004,instructions,1206101335,l1_reads,437920900,l1_read_misses,2806714
ijk_oblivious,512,512,512,16,2112,0.104699,2.56388,ref_cycles,218020824,instructions,1206101317,l1_reads,437920900,l1_read_misses,2941786
ijk_oblivious,512,512,512,16,2112,0.103076,2.60425,ref_cycles,215508300,instructions,1206101342,l1_reads,437920900,l1_read_misses,2898927
ijk_oblivious,512,512,512,16,2112,0.104257,2.57475,ref_cycles,217598640,instructions,1206101327,l1_reads,437920900,l1_read_misses,2945470
ijk_oblivious,512,512,512,16,2112,0.104125,2.57801,ref_cycles,217045668,instructions,1206101365,l1_reads,437920900,l1_read_misses,2801041
ijk_oblivious,512,512,512,16,2112,0.103723,2.588,ref_cycles,216606180,instructions,1206101288,l1_reads,437920900,l1_read_misses,2975943
ijk_oblivious,512,512,512,16,2112,0.103337,2.59767,ref_cycles,215668320,instructions,1206101334,l1_reads,437920900,l1_read_misses,2962532
ijk_oblivious,512,512,512,32,2112,0.111894,2.39902,ref_cycles,234067932,instructions,1104508208,l1_reads,419775620,l1_read_misses,3542072
ijk_oblivious,512,512,512,32,2112,0.113643,2.36209,ref_cycles,236719644,instructions,1104508291,l1_reads,419775620,l1_read_misses,3616405
ijk_oblivious,512,512,512,32,2112,0.114055,2.35356,ref_cycles,236465208,instructions,1104508455,l1_reads,419775620,l1_read_misses,4081517
ijk_oblivious,512,512,512,32,2112,0.112385,2.38853,ref_cycles,234467520,instructions,1104508343,l1_reads,419775620,l1_read_misses,3800384
ijk_oblivious,512,512,512,32,2112,0.112108,2.39444,ref_cycles,233644740,instructions,1104508312,l1_reads,419775621,l1_read_misses,4176313
ijk_oblivious,512,512,512,32,2112,0.111872,2.39949,ref_cycles,233066988,instructions,1104508351,l1_reads,419775620,l1_read_misses,4257181
ijk_oblivious,512,512,512,32,2112,0.11291,2.37743,ref_cycles,235347084,instructions,1104508251,l1_reads,419775620,l1_read_misses,3807888
ijk_oblivious,512,512,512,32,2112,0.112372,2.38881,ref_cycles,234432576,instructions,1104508245,l1_reads,419775620,l1_read_misses,3518024
ijk_oblivious,512,512,512,32,2112,0.111766,2.40176,ref_cycles,234069948,instructions,1104508193,l1_reads,419775620,l1_read_misses,4034291
ijk_oblivious,512,512,512,32,2112,0.11205,2.39568,ref_cycles,233740164,instructions,1104508266,l1_reads,419775620,l1_read_misses,3337854
ijk_oblivious,512,512,512,32,2112,0.117049,2.29336,ref_cycles,243555648,instructions,1104508327,l1_reads,419775620,l1_read_misses,3856007
ijk_oblivious,512,512,512,32,2112,0.112928,2.37705,ref_cycles,234920448,instructions,1104508331,l1_reads,419775620,l1_read_misses,3507831
ijk_oblivious,512,512,512,32,2112,0.112969,2.37619,ref_cycles,235895268,instructions,1104508309,l1_reads,419775620,l1_read_misses,4265544
ijk_oblivious,512,512,512,32,2112,0.112171,2.39309,ref_cycles,234165624,instructions,1104508246,l1_reads,419775620,l1_read_misses,3533835
ijk_oblivious,512,512,512,32,2112,0.111933,2.39818,ref_cycles,233403660,instructions,1104508325,l1_reads,419775620,l1_read_misses,3368229
ijk_oblivious,512,512,512,32,2112,0.113111,2.3732,ref_cycles,235207056,instructions,1104508368,l1_reads,419775620,l1_read_misses,4253579
ijk_oblivious,512,512,512,32,2112,0.112753,2.38074,ref_cycles,235251240,instructions,1104508226,l1_reads,419775620,l1_read_misses,3823109
ijk_oblivious,512,512,512,32,2112,0.113043,2.37463,ref_cycles,235491984,instructions,1104508305,l1_reads,419775620,l1_read_misses,3552717
ijk_oblivious,512,512,512,32,2112,0.113432,2.36649,ref_cycles,236151468,instructions,1104508341,l1_reads,419775620,l1_read_misses,3691713
ijk_oblivious,512,512,512,32,2112,0.112458,2.38698,ref_cycles,234419892,instructions,1104508264,l1_reads,419775620,l1_read_misses,3400762
ijk_oblivious,512,512,512,64,2112,0.121395,2.21126,ref_cycles,253719396,instructions,1055190836,l1_reads,411117700,l1_read_misses,10578722
ijk_oblivious,512,512,512,64,2112,0.120063,2.23579,ref_cycles,251284740,instructions,1055190833,l1_reads,411117700,l1_read_misses,10453130
ijk_oblivious,512,512,512,64,2112,0.123144,2.17985,ref_cycles,255654084,instructions,1055190984,l1_reads,411117700,l1_read_misses,10279713
ijk_oblivious,512,512,512,64,2112,0.121656,2.20651,ref_cycles,252931644,instructions,1055191009,l1_reads,411117700,l1_read_misses,10376905
ijk_oblivious,512,512,512,64,2112,0.120559,2.22659,ref_cycles,253003044,instructions,1055190850,l1_reads,411117700,l1_read_misses,10430499
ijk_oblivious,512,512,512,64,2112,0.120612,2.22561,ref_cycles,251804448,instructions,1055190888,l1_reads,411117700,l1_read_misses,10522203
ijk_oblivious,512,512,512,64,2112,0.130407,2.05844,ref_cycles,273127764,instructions,1055190910,l1_reads,411117700,l1_read_misses,10638449
ijk_oblivious,512,512,512,64,2112,0.122289,2.19509,ref_cycles,254095884,instructions,1055190949,l1_reads,411117700,l1_read_misses,10571742
ijk_oblivious,512,512,512,64,2112,0.121715,2.20544,ref_cycles,254075136,instructions,1055190853,l1_reads,411117700,l1_read_misses,10438886
ijk_oblivious,512,512,512,64,2112,0.120637,2.22515,ref_cycles,251985132,instructions,1055190833,l1_reads,411117700,l1_read_misses,10547226
ijk_oblivious,512,512,512,64,2112,0.120698,2.22403,ref_cycles,253219092,instructions,1055190887,l1_reads,411117700,l1_read_misses,10565028
ijk_oblivious,512,512,512,64,2112,0.121627,2.20704,ref_cycles,253379112,instructions,1055190969,l1_reads,411117700,l1_read_misses,10335505
ijk_oblivious,512,512,512,64,2112,0.121153,2.21567,ref_cycles,252598752,instructions,1055190944,l1_reads,411117700,l1_read_misses,10610291
ijk_oblivious,512,512,512,64,2112,0.120934,2.21969,ref_cycles,252351204,instructions,1055190909,l1_reads,411117700,l1_read_misses,10607943
ijk_oblivious,512,512,512,64,2112,0.121888,2.20231,ref_cycles,253548540,instructions,1055190962,l1_reads,411117700,l1_read_misses,10589625
ijk_oblivious,512,512,512,64,2112,0.122045,2.19948,ref_cycles,253713516,instructions,1055190990,l1_reads,411117700,l1_read_misses,10423810
ijk_oblivious,512,512,512,64,2112,0.120159,2.234,ref_cycles,251309100,instructions,1055190855,l1_reads,411117700,l1_read_misses,10476532
ijk_oblivious,512,512,512,64,2112,0.130017,2.06462,ref_cycles,273055020,instructions,1055190904,l1_reads,411117700,l1_read_misses,10485689
ijk_oblivious,512,512,512,64,2112,0.120571,2.22637,ref_cycles,251720112,instructions,1055190895,l1_reads,411117700,l1_read_misses,10336950
ijk_oblivious,512,512,512,64,2112,0.120237,2.23255,ref_cycles,251686512,instructions,1055190899,l1_reads,411117700,l1_read_misses,10389259
ijk_oblivious,512,512,512,128,2112,0.14776,1.8167,ref_cycles,309139068,instructions,1030827713,l1_reads,406865156,l1_read_misses,11304053
ijk_oblivious,512,512,512,128,2112,0.13652,1.96627,ref_cycles,285782028,instructions,1030827663,l1_reads,406865156,l1_read_misses,11392262
ijk_oblivious,512,512,512,128,2112,0.136511,1.9664,ref_cycles,285670980,instructions,1030827707,l1_reads,406865156,l1_read_misses,11253040
ijk_oblivious,512,512,512,128,2112,0.136447,1.96732,ref_cycles,285059040,instructions,1030827716,l1_reads,406865156,l1_read_misses,11058590
ijk_oblivious,512,512,512,128,2112,0.137158,1.95713,ref_cycles,286462680,instructions,1030827710,l1_reads,406865156,l1_read_misses,10678981
ijk_oblivious,512,512,512,128,2112,0.136682,1.96394,ref_cycles,285529692,instructions,1030827696,l1_reads,406865156,l1_read_misses,10925004
ijk_oblivious,512,512,512,128,2112,0.137418,1.95342,ref_cycles,286621944,instructions,1030827795,l1_reads,406865156,l1_read_misses,11533218
ijk_oblivious,512,512,512,128,2112,0.137457,1.95287,ref_cycles,286877976,instructions,1030827782,l1_reads,406865156,l1_read_misses,11586103
ijk_oblivious,512,512,512,128,2112,0.136279,1.96975,ref_cycles,284902548,instructions,1030827695,l1_reads,406865156,l1_read_misses,11242345
ijk_oblivious,512,512,512,128,2112,0.136908,1.9607,ref_cycles,285341448,instructions,1030827758,l1_reads,406865156,l1_read_misses,10746983
ijk_oblivious,512,512,512,128,2112,0.137214,1.95633,ref_cycles,286285776,instructions,1030827780,l1_reads,406865156,l1_read_misses,11587639
ijk_oblivious,512,512,512,128,2112,0.137619,1.95057,ref_cycles,287176092,instructions,1030827689,l1_reads,406865156,l1_read_misses,10841295
ijk_oblivious,512,512,512,128,2112,0.137388,1.95385,ref_cycles,287059416,instructions,1030827704,l1_reads,406865156,l1_read_misses,10986901
ijk_oblivious,512,512,512,128,2112,0.137388,1.95385,ref_cycles,286270656,instructions,1030827767,l1_reads,406865156,l1_read_misses,10926320
ijk_oblivious,512,512,512,128,2112,0.136882,1.96107,ref_cycles,286138608,instructions,1030827727,l1_reads,406865156,l1_read_misses,11502505
ijk_oblivious,512,512,512,128,2112,0.1359,1.97524,ref_cycles,284951520,instructions,1030827714,l1_reads,406865156,l1_read_misses,11468225
ijk_oblivious,512,512,512,128,2112,0.137866,1.94708,ref_cycles,287367696,instructions,1030827700,l1_reads,406865156,l1_read_misses,11056699
ijk_oblivious,512,512,512,128,2112,0.136832,1.96179,ref_cycles,285518940,instructions,1030827756,l1_reads,406865156,l1_read_misses,11145813
ijk_oblivious,512,512,512,128,2112,0.137225,1.95617,ref_cycles,286034700,instructions,1030827762,l1_reads,406865156,l1_read_misses,11446250
ijk_oblivious,512,512,512,128,2112,0.136889,1.96097,ref_cycles,285530952,instructions,1030827725,l1_reads,406865156,l1_read_misses,10823980
ijk_oblivious,512,512,512,256,2112,0.14519,1.84886,ref_cycles,302686440,instructions,1018710819,l1_reads,404754580,l1_read_misses,10346300
ijk_oblivious,512,512,512,256,2112,0.146859,1.82784,ref_cycles,304662036,instructions,1018710926,l1_reads,404754580,l1_read_misses,10382922
ijk_oblivious,512,512,512,256,2112,0.14486,1.85307,ref_cycles,303361044,instructions,1018710723,l1_reads,404754580,l1_read_misses,10333638
ijk_oblivious,512,512,512,256,2112,0.145056,1.85056,ref_cycles,302869140,instructions,1018710770,l1_reads,404754580,l1_read_misses,10367352
ijk_oblivious,512,512,512,256,2112,0.145721,1.84212,ref_cycles,303933252,instructions,1018710742,l1_reads,404754580,l1_read_misses,10374313
ijk_oblivious,512,512,512,256,2112,0.144346,1.85967,ref_cycles,301935228,instructions,1018710666,l1_reads,404754580,l1_read_misses,10368839
ijk_oblivious,512,512,512,256,2112,0.144552,1.85702,ref_cycles,303326604,instructions,1018710682,l1_reads,404754580,l1_read_misses,10314853
ijk_oblivious,512,512,512,256,2112,0.145263,1.84793,ref_cycles,303114840,instructions,1018710734,l1_reads,404754580,l1_read_misses,10362930
ijk_oblivious,512,512,512,256,2112,0.145793,1.84121,ref_cycles,304452036,instructions,1018710785,l1_reads,404754580,l1_read_misses,10344387
ijk_oblivious,512,512,512,256,2112,0.145735,1.84194,ref_cycles,303467052,instructions,1018710826,l1_reads,404754580,l1_read_misses,10354741
ijk_oblivious,512,512,512,256,2112,0.144844,1.85327,ref_cycles,302864520,instructions,1018710717,l1_reads,404754580,l1_read_misses,10306518
ijk_oblivious,512,512,512,256,2112,0.145632,1.84325,ref_cycles,303381372,instructions,1018710794,l1_reads,404754580,l1_read_misses,10353332
ijk_oblivious,512,512,512,256,2112,0.145825,1.84081,ref_cycles,304343592,instructions,1018710720,l1_reads,404754580,l1_read_misses,10320405
ijk_oblivious,512,512,512,256,2112,0.144214,1.86137,ref_cycles,301491456,instructions,1018710687,l1_reads,404754580,l1_read_misses,10363545
ijk_oblivious,512,512,512,256,2112,0.145588,1.8438,ref_cycles,303343572,instructions,1018710795,l1_reads,404754580,l1_read_misses,10373876
ijk_oblivious,512,512,512,256,2112,0.145504,1.84487,ref_cycles,303346680,instructions,1018710742,l1_reads,404754580,l1_read_misses,10309320
ijk_oblivious,512,512,512,256,2112,0.144149,1.86221,ref_cycles,302471148,instructions,1018710661,l1_reads,404754580,l1_read_misses,10356351
ijk_oblivious,512,512,512,256,2112,0.14454,1.85717,ref_cycles,301830312,instructions,1018710705,l1_reads,404754580,l1_read_misses,10305328
ijk_oblivious,512,512,512,256,2112,0.145301,1.84744,ref_cycles,303618420,instructions,1018710810,l1_reads,404754580,l1_read_misses,10366817
ijk_oblivious,512,512,512,256,2112,0.14527,1.84784,ref_cycles,303267048,instructions,1018710720,l1_reads,404754580,l1_read_misses,10303814
ijk_oblivious,4096,4096,4096,2,2112,150.68,0.912127,ref_cycles,314613235944,instructions,1935189965545,l1_reads,552210074315,l1_read_misses,1780689347
ijk_oblivious,4096,4096,4096,2,2112,151.406,0.907752,ref_cycles,316000426224,instructions,1935189944216,l1_reads,552210080925,l1_read_misses,1775687452
ijk_oblivious,4096,4096,4096,2,2112,159.137,0.863653,ref_cycles,332399150832,instructions,1935189993713,l1_reads,552210028136,l1_read_misses,1770143641
ijk_oblivious,4096,4096,4096,2,2112,161.259,0.852285,ref_cycles,336848469048,instructions,1935189935328,l1_reads,552210080796,l1_read_misses,1767995248
ijk_oblivious,4096,4096,4096,2,2112,150.329,0.914256,ref_cycles,313943038080,instructions,1935189915705,l1_reads,552210080913,l1_read_misses,1771439948
ijk_oblivious,4096,4096,4096,2,2112,150.006,0.916225,ref_cycles,313289367888,instructions,1935189968002,l1_reads,552210048817,l1_read_misses,1776261032
ijk_oblivious,4096,4096,4096,2,2112,163.805,0.83904,ref_cycles,342202900956,instructions,1935189978627,l1_reads,552210036632,l1_read_misses,1774269817
ijk_oblivious,4096,4096,4096,2,2112,165.131,0.832301,ref_cycles,345040469004,instructions,1935189939010,l1_reads,552210047353,l1_read_misses,1767401454
ijk_oblivious,4096,4096,4096,2,2112,149.795,0.917516,ref_cycles,312799054092,instructions,1935189921783,l1_reads,552210080920,l1_read_misses,1768438673
ijk_oblivious,4096,4096,4096,2,2112,149.53,0.919142,ref_cycles,312318904128,instructions,1935189963864,l1_reads,552210080916,l1_read_misses,1762857574
ijk_oblivious,4096,4096,4096,2,2112,169.177,0.812397,ref_cycles,353400889296,instructions,1935189997443,l1_reads,552210046072,l1_read_misses,1777062121
ijk_oblivious,4096,4096,4096,2,2112,170.019,0.808374,ref_cycles,355178739048,instructions,1935189961001,l1_reads,552210059192,l1_read_misses,1775830946
ijk_oblivious,4096,4096,4096,2,2112,150.644,0.912344,ref_cycles,314569475976,instructions,1935189919579,l1_reads,552210080918,l1_read_misses,1766604352
ijk_oblivious,4096,4096,4096,2,2112,149.579,0.918838,ref_cycles,312405930816,instructions,1935189960786,l1_reads,552210080918,l1_read_misses,1769907230
ijk_oblivious,4096,4096,4096,2,2112,175.872,0.78147,ref_cycles,367423699524,instructions,1935190004035,l1_reads,552210023624,l1_read_misses,1777010497
ijk_oblivious,4096,4096,4096,2,2112,176.7,0.77781,ref_cycles,369229943544,instructions,1935189963705,l1_reads,552210023220,l1_read_misses,1767882996
ijk_oblivious,4096,4096,4096,2,2112,149.462,0.919559,ref_cycles,312150251448,instructions,1935189904438,l1_reads,552210010975,l1_read_misses,1765340643
ijk_oblivious,4096,4096,4096,2,2112,150.023,0.916121,ref_cycles,313296091164,instructions,1935189968048,l1_reads,552210096429,l1_read_misses,1771181164
ijk_oblivious,4096,4096,4096,2,2112,172.882,0.794988,ref_cycles,361033397172,instructions,1935189996247,l1_reads,552210080868,l1_read_misses,1770346612
ijk_oblivious,4096,4096,4096,2,2112,177.158,0.7758,ref_cycles,370175499204,instructions,1935189945499,l1_reads,552210047123,l1_read_misses,1770634890
ijk_oblivious,4096,4096,4096,4,2112,71.7395,1.91581,ref_cycles,149811661104,instructions,1008550639615,l1_reads,305249461387,l1_read_misses,2650258901
ijk_oblivious,4096,4096,4096,4,2112,71.7014,1.91682,ref_cycles,149742628224,instructions,1008550639270,l1_reads,305249461385,l1_read_misses,2602915147
ijk_oblivious,4096,4096,4096,4,2112,71.7399,1.9158,ref_cycles,149793684600,instructions,1008550613108,l1_reads,305249439405,l1_read_misses,2580843439
ijk_oblivious,4096,4096,4096,4,2112,71.8279,1.91345,ref_cycles,149980543608,instructions,1008550609658,l1_reads,305249461387,l1_read_misses,2523355566
ijk_oblivious,4096,4096,4096,4,2112,87.9638,1.56245,ref_cycles,183760453464,instructions,1008550616917,l1_reads,305249461296,l1_read_misses,2542112564
ijk_oblivious,4096,4096,4096,4,2112,90.3585,1.52104,ref_cycles,188793520020,instructions,1008550627921,l1_reads,305249445082,l1_read_misses,2494084759
ijk_oblivious,4096,4096,4096,4,2112,71.9297,1.91074,ref_cycles,150136088088,instructions,1008550598445,l1_reads,305249461386,l1_read_misses,2567239340
ijk_oblivious,4096,4096,4096,4,2112,71.5064,1.92205,ref_cycles,149342306652,instructions,1008550605172,l1_reads,305249461396,l1_read_misses,2528555571
ijk_oblivious,4096,4096,4096,4,2112,71.523,1.92161,ref_cycles,149344842444,instructions,1008550593183,l1_reads,305249461387,l1_read_misses,2554848283
ijk_oblivious,4096,4096,4096,4,2112,72.0266,1.90817,ref_cycles,150371477508,instructions,1008550605034,l1_reads,305249461391,l1_read_misses,2485926027
ijk_oblivious,4096,4096,4096,4,2112,71.9135,1.91117,ref_cycles,150162974388,instructions,1008550608254,l1_reads,305249448410,l1_read_misses,2584811772
ijk_oblivious,4096,4096,4096,4,2112,71.525,1.92155,ref_cycles,149386074936,instructions,1008550594974,l1_reads,305249461388,l1_read_misses,2498664920
ijk_oblivious,4096,4096,4096,4,2112,89.4152,1.53709,ref_cycles,186772675488,instructions,1008550628795,l1_reads,305249461260,l1_read_misses,2556329022
ijk_oblivious,4096,4096,4096,4,2112,92.6904,1.48278,ref_cycles,193645651836,instructions,1008550630810,l1_reads,305249448519,l1_read_misses,2506314840
ijk_oblivious,4096,4096,4096,4,2112,71.5546,1.92076,ref_cycles,149411591532,instructions,1008550607723,l1_reads,305249461388,l1_read_misses,2554643221
ijk_oblivious,4096,4096,4096,4,2112,71.6098,1.91928,ref_cycles,149547238176,instructions,1008550606718,l1_reads,305249461390,l1_read_misses,2525141791
ijk_oblivious,4096,4096,4096,4,2112,71.7127,1.91652,ref_cycles,149720983104,instructions,1008550601762,l1_reads,305249461387,l1_read_misses,2564044205
ijk_oblivious,4096,4096,4096,4,2112,71.7706,1.91497,ref_cycles,149853522924,instructions,1008550603123,l1_reads,305249461387,l1_read_misses,2511714626
ijk_oblivious,4096,4096,4096,4,2112,71.7493,1.91555,ref_cycles,149851727592,instructions,1008550595983,l1_reads,305249441214,l1_read_misses,2557336733
ijk_oblivious,4096,4096,4096,4,2112,73.2036,1.87749,ref_cycles,152879959428,instructions,1008550597527,l1_reads,305249461307,l1_read_misses,2499211860
ijk_oblivious,4096,4096,4096,8,2112,69.9105,1.96593,ref_cycles,146017912992,instructions,730048819484,l1_reads,245388354593,l1_read_misses,4405159242
ijk_oblivious,4096,4096,4096,8,2112,55.1965,2.48999,ref_cycles,115274747952,instructions,730048788942,l1_reads,245388354698,l1_read_misses,4421414818
ijk_oblivious,4096,4096,4096,8,2112,55.1328,2.49287,ref_cycles,115096717512,instructions,730048791907,l1_reads,245388354698,l1_read_misses,4426494977
ijk_oblivious,4096,4096,4096,8,2112,54.9695,2.50028,ref_cycles,114783230016,instructions,730048781168,l1_reads,245388339756,l1_read_misses,4400737239
ijk_oblivious,4096,4096,4096,8,2112,55.1428,2.49242,ref_cycles,115105798080,instructions,730048780974,l1_reads,245388354694,l1_read_misses,4419532772
ijk_oblivious,4096,4096,4096,8,2112,55.2054,2.48959,ref_cycles,115251244752,instructions,730048784447,l1_reads,245388354696,l1_read_misses,4415603843
ijk_oblivious,4096,4096,4096,8,2112,55.2742,2.4865,ref_cycles,115400115600,instructions,730048786507,l1_reads,245388354698,l1_read_misses,4381256372
ijk_oblivious,4096,4096,4096,8,2112,55.1464,2.49226,ref_cycles,115173597924,instructions,730048781281,l1_reads,245388370213,l1_read_misses,4410777762
ijk_oblivious,4096,4096,4096,8,2112,54.9659,2.50044,ref_cycles,114780668940,instructions,730048774702,l1_reads,245388335694,l1_read_misses,4396112990
ijk_oblivious,4096,4096,4096,8,2112,55.2326,2.48837,ref_cycles,115330813836,instructions,730048786085,l1_reads,245388354697,l1_read_misses,4422642243
ijk_oblivious,4096,4096,4096,8,2112,64.7271,2.12336,ref_cycles,135219306600,instructions,730048794259,l1_reads,245388354522,l1_read_misses,4378444665
ijk_oblivious,4096,4096,4096,8,2112,65.0533,2.11271,ref_cycles,135856552104,instructions,730048802216,l1_reads,245388354566,l1_read_misses,4415228300
ijk_oblivious,4096,4096,4096,8,2112,54.9928,2.49922,ref_cycles,114775025904,instructions,730048772266,l1_reads,245388354697,l1_read_misses,4392642624
ijk_oblivious,4096,4096,4096,8,2112,55.1033,2.4942,ref_cycles,115032992340,instructions,730048784813,l1_reads,245388335067,l1_read_misses,4422140228
ijk_oblivious,4096,4096,4096,8,2112,55.1236,2.49329,ref_cycles,115087017108,instructions,730048785973,l1_reads,245388354699,l1_read_misses,4414266400
ijk_oblivious,4096,4096,4096,8,2112,55.2339,2.48831,ref_cycles,115366850088,instructions,730048789354,l1_reads,245388354701,l1_read_misses,4362222569
ijk_oblivious,4096,4096,4096,8,2112,55.1554,2.49185,ref_cycles,115176351192,instructions,730048795669,l1_reads,245388354693,l1_read_misses,4437314877
ijk_oblivious,4096,4096,4096,8,2112,55.4444,2.47886,ref_cycles,115741732764,instructions,730048780209,l1_reads,245388354704,l1_read_misses,4354961757
ijk_oblivious,4096,4096,4096,8,2112,55.187,2.49042,ref_cycles,115263991752,instructions,730048785038,l1_reads,245388339446,l1_read_misses,4424213557
ijk_oblivious,4096,4096,4096,8,2112,55.1282,2.49308,ref_cycles,115130532552,instructions,730048785407,l1_reads,245388354701,l1_read_misses,4409019737
ijk_oblivious,4096,4096,4096,16,2112,63.0748,2.17898,ref_cycles,131719187292,instructions,617524016267,l1_reads,224215507784,l1_read_misses,7718528633
ijk_oblivious,4096,4096,4096,16,2112,63.2893,2.1716,ref_cycles,132185954544,instructions,617524000284,l1_reads,224215507869,l1_read_misses,7602866409
ijk_oblivious,4096,4096,4096,16,2112,54.4929,2.52215,ref_cycles,113779983744,instructions,617523997551,l1_reads,224215508109,l1_read_misses,7739729640
ijk_oblivious,4096,4096,4096,16,2112,55.3597,2.48266,ref_cycles,115524483648,instructions,617523998147,l1_reads,224215481925,l1_read_misses,7626192264
ijk_oblivious,4096,4096,4096,16,2112,54.6235,2.51612,ref_cycles,114019324944,instructions,617524006399,l1_reads,224215508107,l1_read_misses,7780441920
ijk_oblivious,4096,4096,4096,16,2112,54.5309,2.52039,ref_cycles,113889304368,instructions,617523983926,l1_reads,224215508104,l1_read_misses,7596309698
ijk_oblivious,4096,4096,4096,16,2112,54.453,2.52399,ref_cycles,113683952676,instructions,617523998007,l1_reads,224215508105,l1_read_misses,7762294764
ijk_oblivious,4096,4096,4096,16,2112,54.5848,2.5179,ref_cycles,114006113844,instructions,617523997731,l1_reads,224215508105,l1_read_misses,7657230502
ijk_oblivious,4096,4096,4096,16,2112,54.4571,2.5238,ref_cycles,113729716044,instructions,617524006913,l1_reads,224215486418,l1_read_misses,7754323427
ijk_oblivious,4096,4096,4096,16,2112,54.2139,2.53513,ref_cycles,113212217076,instructions,617523983153,l1_reads,224215508107,l1_read_misses,7611579810
ijk_oblivious,4096,4096,4096,16,2112,58.0214,2.36876,ref_cycles,121172810640,instructions,617524002214,l1_reads,224215507821,l1_read_misses,7728139858
ijk_oblivious,4096,4096,4096,16,2112,58.887,2.33395,ref_cycles,122943006648,instructions,617524003212,l1_reads,224215507903,l1_read_misses,7674548245
ijk_oblivious,4096,4096,4096,16,2112,55.9469,2.45659,ref_cycles,116710479228,instructions,617523996375,l1_reads,224215508118,l1_read_misses,7753288152
ijk_oblivious,4096,4096,4096,16,2112,54.4955,2.52202,ref_cycles,113767034388,instructions,617523996819,l1_reads,224215478194,l1_read_misses,7658930482
ijk_oblivious,4096,4096,4096,16,2112,55.9844,2.45495,ref_cycles,116769722412,instructions,617524002121,l1_reads,224215508130,l1_read_misses,7764313579
ijk_oblivious,4096,4096,4096,16,2112,54.3944,2.52671,ref_cycles,113622277860,instructions,617523986507,l1_reads,224215508103,l1_read_misses,7596923839
ijk_oblivious,4096,4096,4096,16,2112,54.3783,2.52746,ref_cycles,113546825196,instructions,617523996802,l1_reads,224215507749,l1_read_misses,7661854969
ijk_oblivious,4096,4096,4096,16,2112,55.8358,2.46148,ref_cycles,116448194856,instructions,617523988483,l1_reads,224215508118,l1_read_misses,7724946328
ijk_oblivious,4096,4096,4096,16,2112,54.6949,2.51283,ref_cycles,114171777216,instructions,617523985696,l1_reads,224215508111,l1_read_misses,7618738185
ijk_oblivious,4096,4096,4096,16,2112,56.3868,2.43743,ref_cycles,117644237004,instructions,617524018845,l1_reads,224215523634,l1_read_misses,7855719269
ijk_oblivious,4096,4096,4096,32,2112,60.6459,2.26625,ref_cycles,126660445884,instructions,565508346963,l1_reads,214925124746,l1_read_misses,5427540137
ijk_oblivious,4096,4096,4096,32,2112,63.6103,2.16064,ref_cycles,132644047704,instructions,565508376977,l1_reads,214925109101,l1_read_misses,5308087450
ijk_oblivious,4096,4096,4096,32,2112,62.2494,2.20788,ref_cycles,129871076076,instructions,565508343965,l1_reads,214925124753,l1_read_misses,5482215190
ijk_oblivious,4096,4096,4096,32,2112,77.8142,1.76624,ref_cycles,162573920460,instructions,565508375946,l1_reads,214925109825,l1_read_misses,6698246797
ijk_oblivious,4096,4096,4096,32,2112,62.4703,2.20007,ref_cycles,130286858520,instructions,565508337956,l1_reads,214925124766,l1_read_misses,5695169892
ijk_oblivious,4096,4096,4096,32,2112,60.8934,2.25704,ref_cycles,127154828220,instructions,565508348237,l1_reads,214925124747,l1_read_misses,5400378997
ijk_oblivious,4096,4096,4096,32,2112,62.3709,2.20358,ref_cycles,130063487568,instructions,565508351149,l1_reads,214925124765,l1_read_misses,5311382157
ijk_oblivious,4096,4096,4096,32,2112,60.6776,2.26507,ref_cycles,126730961616,instructions,565508342807,l1_reads,214925124744,l1_read_misses,5453506252
ijk_oblivious,4096,4096,4096,32,2112,62.1191,2.21251,ref_cycles,129573272556,instructions,565508344942,l1_reads,214925091826,l1_read_misses,5460384938
ijk_oblivious,4096,4096,4096,32,2112,60.4937,2.27195,ref_cycles,126355950252,instructions,565508339360,l1_reads,214925124744,l1_read_misses,5399502147
ijk_oblivious,4096,4096,4096,32,2112,66.1511,2.07765,ref_cycles,138031626852,instructions,565508347592,l1_reads,214925124523,l1_read_misses,5831634132
ijk_oblivious,4096,4096,4096,32,2112,66.2517,2.0745,ref_cycles,138354481776,instructions,565508345624,l1_reads,214925124464,l1_read_misses,5918737063
ijk_oblivious,4096,4096,4096,32,2112,62.2743,2.20699,ref_cycles,129902911152,instructions,565508347294,l1_reads,214925124759,l1_read_misses,5406998932
ijk_oblivious,4096,4096,4096,32,2112,62.1765,2.21047,ref_cycles,129711522948,instructions,565508345420,l1_reads,214925091010,l1_read_misses,5406282545
ijk_oblivious,4096,4096,4096,32,2112,62.1811,2.2103,ref_cycles,129679612020,instructions,565508362100,l1_reads,214925140279,l1_read_misses,5628544161
ijk_oblivious,4096,4096,4096,32,2112,60.585,2.26853,ref_cycles,126530337528,instructions,565508337288,l1_reads,214925124746,l1_read_misses,5581601930
ijk_oblivious,4096,4096,4096,32,2112,62.0276,2.21577,ref_cycles,129370565184,instructions,565508336383,l1_reads,214925124769,l1_read_misses,5844814995
ijk_oblivious,4096,4096,4096,32,2112,60.6174,2.26732,ref_cycles,126564344676,instructions,565508334757,l1_reads,214925124742,l1_read_misses,5521207758
ijk_oblivious,4096,4096,4096,32,2112,60.4876,2.27218,ref_cycles,126321220200,instructions,565508332803,l1_reads,214925124742,l1_read_misses,5694297636
ijk_oblivious,4096,4096,4096,32,2112,62.3481,2.20438,ref_cycles,130022506404,instructions,565508350385,l1_reads,214925095054,l1_read_misses,5323572592
ijk_oblivious,4096,4096,4096,64,2112,76.8594,1.78819,ref_cycles,160560147468,instructions,540257886876,l1_reads,210492269366,l1_read_misses,6684553500
ijk_oblivious,4096,4096,4096,64,2112,77.5718,1.77176,ref_cycles,161973893928,instructions,540257882715,l1_reads,210492269357,l1_read_misses,7125851945
ijk_oblivious,4096,4096,4096,64,2112,64.5084,2.13056,ref_cycles,134735622000,instructions,540257849480,l1_reads,210492233987,l1_read_misses,6481567612
ijk_oblivious,4096,4096,4096,64,2112,66.4668,2.06778,ref_cycles,138662290536,instructions,540257861521,l1_reads,210492269719,l1_read_misses,6172497282
ijk_oblivious,4096,4096,4096,64,2112,64.8539,2.11921,ref_cycles,135446316432,instructions,540257859351,l1_reads,210492269707,l1_read_misses,6008749833
ijk_oblivious,4096,4096,4096,64,2112,66.4642,2.06786,ref_cycles,138616755984,instructions,540257866384,l1_reads,210492269723,l1_read_misses,6021127455
ijk_oblivious,4096,4096,4096,64,2112,66.0098,2.0821,ref_cycles,137848749024,instructions,540257849907,l1_reads,210492269710,l1_read_misses,6666235013
ijk_oblivious,4096,4096,4096,64,2112,66.2723,2.07385,ref_cycles,138263705580,instructions,540257854355,l1_reads,210492234465,l1_read_misses,6583211370
ijk_oblivious,4096,4096,4096,64,2112,70.0159,1.96297,ref_cycles,146193836460,instructions,540257868472,l1_reads,210492269424,l1_read_misses,6548287862
ijk_oblivious,4096,4096,4096,64,2112,71.9845,1.90929,ref_cycles,150240470016,instructions,540257875265,l1_reads,210492269383,l1_read_misses,6559712493
ijk_oblivious,4096,4096,4096,64,2112,64.6253,2.12671,ref_cycles,134974873572,instructions,540257856856,l1_reads,210492233916,l1_read_misses,6234719584
ijk_oblivious,4096,4096,4096,64,2112,66.2822,2.07354,ref_cycles,138274110744,instructions,540257856296,l1_reads,210492269723,l1_read_misses,6591209775
ijk_oblivious,4096,4096,4096,64,2112,64.7685,2.122,ref_cycles,135284750496,instructions,540257862356,l1_reads,210492269708,l1_read_misses,6062919067
ijk_oblivious,4096,4096,4096,64,2112,66.4703,2.06767,ref_cycles,138670648620,instructions,540257860666,l1_reads,210492269726,l1_read_misses,6120319899
ijk_oblivious,4096,4096,4096,64,2112,65.0786,2.11189,ref_cycles,135904908468,instructions,540257853643,l1_reads,210492269709,l1_read_misses,6341078165
ijk_oblivious,4096,4096,4096,64,2112,66.5846,2.06413,ref_cycles,138868546656,instructions,540257865381,l1_reads,210492269717,l1_read_misses,5994106501
ijk_oblivious,4096,4096,4096,64,2112,65.1315,2.11018,ref_cycles,136070626356,instructions,540257878988,l1_reads,210492285221,l1_read_misses,5993561867
ijk_oblivious,4096,4096,4096,64,2112,66.2848,2.07346,ref_cycles,138245979816,instructions,540257853066,l1_reads,210492231771,l1_read_misses,6653128631
ijk_oblivious,4096,4096,4096,64,2112,78.6329,1.74786,ref_cycles,164289440532,instructions,540257872652,l1_reads,210492269419,l1_read_misses,7435176848
ijk_oblivious,4096,4096,4096,64,2112,82.7233,1.66143,ref_cycles,172843591452,instructions,540257885210,l1_reads,210492269391,l1_read_misses,7495105907
ijk_oblivious,4096,4096,4096,128,2112,70.0307,1.96255,ref_cycles,146218284324,instructions,527783915792,l1_reads,208314941528,l1_read_misses,6817361187
ijk_oblivious,4096,4096,4096,128,2112,71.9507,1.91018,ref_cycles,150081061452,instructions,527783907811,l1_reads,208314967199,l1_read_misses,6988431023
ijk_oblivious,4096,4096,4096,128,2112,69.9517,1.96477,ref_cycles,146121434424,instructions,527783904444,l1_reads,208314967176,l1_read_misses,6943961166
ijk_oblivious,4096,4096,4096,128,2112,72.094,1.90638,ref_cycles,150388248612,instructions,527783920363,l1_reads,208314967204,l1_read_misses,6249060527
ijk_oblivious,4096,4096,4096,128,2112,69.9855,1.96382,ref_cycles,146176465932,instructions,527783901622,l1_reads,208314967178,l1_read_misses,7016720073
ijk_oblivious,4096,4096,4096,128,2112,72.0191,1.90837,ref_cycles,150253223316,instructions,527783917292,l1_reads,208314932903,l1_read_misses,6425722008
ijk_oblivious,4096,4096,4096,128,2112,80.7417,1.70221,ref_cycles,168600653340,instructions,527783919937,l1_reads,208314966889,l1_read_misses,7538880123
ijk_oblivious,4096,4096,4096,128,2112,86.4892,1.58909,ref_cycles,180779957232,instructions,527783938382,l1_reads,208314982269,l1_read_misses,7945516642
ijk_oblivious,4096,4096,4096,128,2112,70.3978,1.95232,ref_cycles,146995368744,instructions,527783917073,l1_reads,208314928639,l1_read_misses,5992988496
ijk_oblivious,4096,4096,4096,128,2112,72.0687,1.90706,ref_cycles,150357712260,instructions,527783915914,l1_reads,208314967199,l1_read_misses,6488831824
ijk_oblivious,4096,4096,4096,128,2112,70.1372,1.95957,ref_cycles,146487328176,instructions,527783914550,l1_reads,208314967179,l1_read_misses,6202712087
ijk_oblivious,4096,4096,4096,128,2112,72.6734,1.89119,ref_cycles,151651675728,instructions,527783915342,l1_reads,208314967191,l1_read_misses,6934253196
ijk_oblivious,4096,4096,4096,128,2112,70.0482,1.96206,ref_cycles,146261190432,instructions,527783912621,l1_reads,208314967176,l1_read_misses,6273411944
ijk_oblivious,4096,4096,4096,128,2112,71.9661,1.90977,ref_cycles,150120385548,instructions,527783905551,l1_reads,208314925091,l1_read_misses,7143217511
ijk_oblivious,4096,4096,4096,128,2112,82.4876,1.66618,ref_cycles,172182047268,instructions,527783938930,l1_reads,208314982327,l1_read_misses,7065442767
ijk_oblivious,4096,4096,4096,128,2112,72.0839,1.90665,ref_cycles,150354821736,instructions,527783919132,l1_reads,208314967190,l1_read_misses,6403180756
ijk_oblivious,4096,4096,4096,128,2112,70.0427,1.96222,ref_cycles,146282786916,instructions,527783910220,l1_reads,208314931048,l1_read_misses,6665729139
ijk_oblivious,4096,4096,4096,128,2112,72.0285,1.90812,ref_cycles,150266174856,instructions,527783915680,l1_reads,208314967201,l1_read_misses,6755733117
ijk_oblivious,4096,4096,4096,128,2112,69.9463,1.96492,ref_cycles,146119381884,instructions,527783905948,l1_reads,208314967178,l1_read_misses,6726087615
ijk_oblivious,4096,4096,4096,128,2112,71.997,1.90895,ref_cycles,150204385044,instructions,527783909715,l1_reads,208314967202,l1_read_misses,6901061681
ijk_oblivious,4096,4096,4096,256,2112,74.1607,1.85326,ref_cycles,154884974496,instructions,521580001537,l1_reads,207234352264,l1_read_misses,7638762495
ijk_oblivious,4096,4096,4096,256,2112,76.1017,1.80599,ref_cycles,158774625912,instructions,521579997482,l1_reads,207234308953,l1_read_misses,8103078470
ijk_oblivious,4096,4096,4096,256,2112,86.4702,1.58944,ref_cycles,180642612276,instructions,521580023473,l1_reads,207234351838,l1_read_misses,7745773093
ijk_oblivious,4096,4096,4096,256,2112,95.7996,1.43465,ref_cycles,200128973772,instructions,521580028532,l1_reads,207234351895,l1_read_misses,8893881163
ijk_oblivious,4096,4096,4096,256,2112,74.0784,1.85532,ref_cycles,154708077552,instructions,521579998130,l1_reads,207234307141,l1_read_misses,7776362464
ijk_oblivious,4096,4096,4096,256,2112,76.1374,1.80514,ref_cycles,158799439764,instructions,521580009744,l1_reads,207234352291,l1_read_misses,7166225216
ijk_oblivious,4096,4096,4096,256,2112,74.1675,1.85309,ref_cycles,154908850068,instructions,521580008121,l1_reads,207234352265,l1_read_misses,7140670404
ijk_oblivious,4096,4096,4096,256,2112,76.0993,1.80605,ref_cycles,158754806868,instructions,521579997672,l1_reads,207234352289,l1_read_misses,8016633525
ijk_oblivious,4096,4096,4096,256,2112,74.2565,1.85087,ref_cycles,155086192632,instructions,521579999347,l1_reads,207234352271,l1_read_misses,7755983556
ijk_oblivious,4096,4096,4096,256,2112,81.8075,1.68003,ref_cycles,170746089444,instructions,521580012836,l1_reads,207234310466,l1_read_misses,7759516300
ijk_oblivious,4096,4096,4096,256,2112,89.7112,1.53201,ref_cycles,187430253360,instructions,521580027669,l1_reads,207234351812,l1_read_misses,8137863467
ijk_oblivious,4096,4096,4096,256,2112,76.118,1.8056,ref_cycles,158773951644,instructions,521579999365,l1_reads,207234352290,l1_read_misses,7775199502
ijk_oblivious,4096,4096,4096,256,2112,74.2366,1.85136,ref_cycles,155024075136,instructions,521580007942,l1_reads,207234312118,l1_read_misses,7168095842
ijk_oblivious,4096,4096,4096,256,2112,76.1009,1.80601,ref_cycles,158786002200,instructions,521580007179,l1_reads,207234352286,l1_read_misses,7507276296
ijk_oblivious,4096,4096,4096,256,2112,74.1587,1.85331,ref_cycles,154849346568,instructions,521579999994,l1_reads,207234352268,l1_read_misses,7790918849
ijk_oblivious,4096,4096,4096,256,2112,76.1658,1.80447,ref_cycles,158876957988,instructions,521580009665,l1_reads,207234309451,l1_read_misses,7185528577
ijk_oblivious,4096,4096,4096,256,2112,74.4546,1.84594,ref_cycles,155477392560,instructions,521580008422,l1_reads,207234352269,l1_read_misses,7135367952
ijk_oblivious,4096,4096,4096,256,2112,82.59,1.66411,ref_cycles,172449254124,instructions,521580006491,l1_reads,207234351511,l1_read_misses,8151618625
ijk_oblivious,4096,4096,4096,256,2112,88.8569,1.54675,ref_cycles,185688925548,instructions,521580014081,l1_reads,207234272840,l1_read_misses,8757729297
ijk_oblivious,4096,4096,4096,256,2112,76.0286,1.80773,ref_cycles,158583726756,instructions,521580018077,l1_reads,207234367796,l1_read_misses,7079234071
ijk_oblivious,4096,4096,4096,256,2112,74.2112,1.852,ref_cycles,155006577348,instructions,521580001474,l1_reads,207234352265,l1_read_misses,7658288688
