node_id,child_points,mass,cmx,cmy,cmz,xl,xr,yl,yr,zl,zr
1,6,3.77632,-0.16048,-0.106888,-0.162579,-1,0,-1,0,-1,0
2,4,2.33837,0.2765,-0.150873,-0.098204,0,1,-1,0,-1,0
3,6,3.49388,-0.130938,0.0963814,-0.190634,-1,0,0,1,-1,0
4,5,3.35839,0.127998,0.0568401,-0.272111,0,1,0,1,-1,0
5,5,3.14509,-0.148681,-0.110479,0.18584,-1,0,-1,0,0,1
6,4,2.54292,0.0216907,-0.0388077,0.183099,0,1,-1,0,0,1
10,1,0.758199,-0.492815,0.134148,0.0645975,-0.5,-0.25,0,0.25,0,0.25
11,4,2.37766,-0.0323219,0.0501651,0.13872,-0.25,0,0,0.25,0,0.25
14,1,0.58128,-0.328687,0.00941148,0.333295,-0.5,-0.25,0,0.25,0.25,0.5
15,2,1.1144,-0.106971,0.113234,0.384919,-0.25,0,0,0.25,0.25,0.5
24,4,2.46024,0.0199697,0.0291021,0.329473,0,1,0,1,0,1
