node_id,child_points,mass,cmx,cmy,cmz,xl,xr,yl,yr,zl,zr
13,2,1.18975,-0.129364,-0.181539,-0.283581,-0.25,0,-0.25,0,-0.5,-0.25
16,1,0.743267,-0.475049,-0.0782889,-0.158689,-0.5,-0.25,-0.25,0,-0.25,0
17,3,1.84331,-0.0537225,-0.0702369,-0.0860483,-0.25,0,-0.25,0,-0.25,0
32,2,1.17017,0.238976,-0.175856,-0.102888,0,0.25,-0.25,0,-0.25,0
33,2,1.1682,0.314088,-0.125848,-0.0935125,0.25,0.5,-0.25,0,-0.25,0
43,2,1.27247,-0.139897,0.0842632,-0.31807,-0.25,0,0,0.25,-0.5,-0.25
46,1,0.545954,-0.296967,0.0919112,-0.026237,-0.5,-0.25,0,0.25,-0.25,0
47,3,1.67546,-0.0700318,0.107042,-0.147419,-0.25,0,0,0.25,-0.25,0
58,2,1.24254,0.0376436,0.0589363,-0.386754,0,0.25,0,0.25,-0.5,-0.25
62,2,1.49053,0.068024,0.0141929,-0.225933,0,0.25,0,0.25,-0.25,0
63,1,0.62532,0.450491,0.15433,-0.154381,0.25,0.5,0,0.25,-0.25,0
75,1,0.731341,-0.235569,-0.250195,0.246569,-0.25,0,-0.5,-0.25,0,0.25
77,3,1.6658,-0.0363292,-0.0807475,0.08163,-0.25,0,-0.25,0,0,0.25
80,1,0.747949,-0.313948,-0.0400819,0.358551,-0.5,-0.25,-0.25,0,0.25,0.5
92,2,1.41147,0.0151819,-0.0530683,0.0600624,0,0.25,-0.25,0,0,0.25
96,2,1.13145,0.0298104,-0.0210178,0.336585,0,0.25,-0.25,0,0.25,0.5
106,1,0.758199,-0.492815,0.134148,0.0645975,-0.5,-0.25,0,0.25,0,0.25
109,2,1.15345,-0.0183291,0.062916,0.0846508,-0.125,0,0,0.125,0,0.125
113,2,1.22421,-0.045506,0.0381512,0.189665,-0.125,0,0,0.125,0.125,0.25
118,1,0.58128,-0.328687,0.00941148,0.333295,-0.5,-0.25,0,0.25,0.25,0.5
119,2,1.1144,-0.106971,0.113234,0.384919,-0.25,0,0,0.25,0.25,0.5
129,3,1.88773,0.0204683,0.0314431,0.238427,0,0.5,0,0.5,0,0.5
133,1,0.572514,0.0183255,0.0213833,0.629679,0,0.5,0,0.5,0.5,1
