node_id,child_points,mass,cmx,cmy,cmz,xl,xr,yl,yr,zl,zr
0,42,25.9468,-0.0428253,-0.00966254,0.0169068,-1,1,-1,1,-1,1
1,6,3.77632,-0.16048,-0.106888,-0.162579,-1,0,-1,0,-1,0
9,6,3.77632,-0.16048,-0.106888,-0.162579,-0.5,0,-0.5,0,-0.5,0
13,2,1.18975,-0.129364,-0.181539,-0.283581,-0.25,0,-0.25,0,-0.5,-0.25
16,1,0.743267,-0.475049,-0.0782889,-0.158689,-0.5,-0.25,-0.25,0,-0.25,0
17,3,1.84331,-0.0537225,-0.0702369,-0.0860483,-0.25,0,-0.25,0,-0.25,0
18,4,2.33837,0.2765,-0.150873,-0.098204,0,1,-1,0,-1,0
19,6,3.49388,-0.130938,0.0963814,-0.190634,-1,0,0,1,-1,0
25,6,3.49388,-0.130938,0.0963814,-0.190634,-0.5,0,0,0.5,-0.5,0
27,2,1.27247,-0.139897,0.0842632,-0.31807,-0.25,0,0,0.25,-0.5,-0.25
30,1,0.545954,-0.296967,0.0919112,-0.026237,-0.5,-0.25,0,0.25,-0.25,0
31,3,1.67546,-0.0700318,0.107042,-0.147419,-0.25,0,0,0.25,-0.25,0
36,5,3.35839,0.127998,0.0568401,-0.272111,0,1,0,1,-1,0
37,5,3.14509,-0.148681,-0.110479,0.18584,-1,0,-1,0,0,1
38,4,2.54292,0.0216907,-0.0388077,0.183099,0,1,-1,0,0,1
39,8,4.83154,-0.157459,0.0729882,0.207284,-1,0,0,1,0,1
41,8,4.83154,-0.157459,0.0729882,0.207284,-0.5,0,0,0.5,0,0.5
42,1,0.758199,-0.492815,0.134148,0.0645975,-0.5,-0.25,0,0.25,0,0.25
43,4,2.37766,-0.0323219,0.0501651,0.13872,-0.25,0,0,0.25,0,0.25
46,1,0.58128,-0.328687,0.00941148,0.333295,-0.5,-0.25,0,0.25,0.25,0.5
47,2,1.1144,-0.106971,0.113234,0.384919,-0.25,0,0,0.25,0.25,0.5
56,4,2.46024,0.0199697,0.0291021,0.329473,0,1,0,1,0,1
