mass,x,y,z,fx,fy,fz
0.573695,-0.0210856,0.0999225,0.0798508,41.2029,-1163.81,114.942
0.57976,-0.0156015,0.0262966,0.0894005,31.3766,-247.345,-197.412
0.605788,0.328241,-0.0469323,-0.116957,-541.386,-124.959,77.9487
0.545954,-0.296967,0.0919112,-0.026237,331.749,-150.893,47.2791
0.609756,-0.0268618,-0.0331443,-0.204695,501.366,1057.5,-591.037
0.572514,0.0183255,0.0213833,0.629679,-74.0432,-15.0139,-317.55
0.731341,-0.235569,-0.250195,0.246569,268.807,414.312,-205.161
0.565056,-0.0020124,-0.000163882,0.00998869,6436.56,-888.829,-29729.3
0.624818,0.0402639,0.0471743,0.208425,-2116.41,-1229.66,411.052
0.579143,-0.0679024,0.248107,-0.044436,60.9525,-522.015,78.8633
0.552633,-0.0251385,0.0182091,-0.246785,1298.3,-1127.68,1058.74
0.545137,-0.0742947,0.195779,0.27905,130.689,-529.193,-294.385
0.743267,-0.475049,-0.0782889,-0.158689,361.802,85.8703,130.604
0.659393,-0.159607,0.131646,-0.341107,371.193,-459.342,457.983
0.758199,-0.492815,0.134148,0.0645975,384.805,-150.995,-36.2848
0.562411,0.298844,-0.210851,-0.0682595,-720.43,103.099,-177.64
0.581324,0.245028,-0.244391,-0.0883009,139.6,645.423,175.709
0.779466,0.123059,0.0247646,-0.220792,-852.475,-247.05,265.349
0.588849,0.233001,-0.108197,-0.117288,-199.695,96.3246,144.046
0.658278,0.0159877,0.0193205,-0.3475,-235.295,-33.8974,925.81
0.555518,-0.0890302,0.0351819,0.164155,983.999,-207.001,-157.765
0.552158,-0.00856708,-0.0644521,0.117678,355.467,269.628,-144.388
0.613076,-0.118699,0.0333009,-0.293293,596.689,-85.5934,518.829
0.54368,-0.117933,0.0470705,-0.156117,475.754,-284.713,-12.3164
0.547431,-0.0473756,-0.10802,-0.273672,140.052,685.999,473.341
0.544815,0.053773,-0.0173777,0.259118,-1195.79,995.337,-869.671
0.642315,-0.19924,-0.244197,-0.292026,217.021,337.855,243.872
0.66869,-0.00934807,0.0406179,0.210857,1678.92,-1614.52,491.194
0.676182,0.0159464,0.0385207,0.275616,-176.303,-886.664,-2279.07
0.548584,-0.0996195,-0.180152,0.119139,264.203,569.554,-127.867
0.58128,-0.328687,0.00941148,0.333295,528.638,-770.311,177.146
0.652131,-0.0141491,-0.0323864,-0.0152929,1083.99,2881.74,2000.42
0.687679,0.0309803,-0.108773,0.122484,-859.426,1309.16,-244.142
0.586731,0.00459907,0.00653419,0.227516,203.915,2005.31,-662.023
0.584262,0.0620431,0.103571,-0.430981,-195.794,-260.59,516.137
0.62532,0.450491,0.15433,-0.154381,-278.604,-147.659,63.018
0.586635,0.00755601,-0.0243985,0.408529,-117.433,150.842,-612.502
0.581424,-0.126278,-0.15159,-0.0409807,359.44,480.447,142.232
0.747949,-0.313948,-0.0400819,0.358551,156.233,790.14,-669.025
0.569265,-0.138263,0.0341875,0.486301,135.366,-67.529,-393.939
0.711065,0.00769462,0.00260418,-0.231568,-2010.19,91.4061,-56.3216
0.723789,0.000171744,-0.00014216,0.00075548,-7955.11,-1770.51,29232.1
