Algorithm,M,BS1,BS2,L1-loads,L2-stores,L2-accesses,L3-loads,L3-stores,Mem-loads,Mem-stores,Seconds
ijk_l2_tiled,4096,16,128,233985087191,69199793560,8785586204,6546035,1328311,69209385794,0,53.465311021
ijk_l2_tiled,4096,16,128,234143308244,69249787741,9309079474,6487252,1529735,69254985541,0,55.234533172
ijk_l2_tiled,4096,16,128,234037444366,69211102084,8754183142,6377854,1346085,69197075367,0,53.416092439
ijk_l2_tiled,4096,16,128,233970257827,69193556754,9186571559,7832755,1288219,69205907020,0,54.019554659
ijk_l2_tiled,4096,16,128,233982257152,69200772181,8889957952,7873017,1353361,69197420947,0,53.400027503
ijk_l2_tiled,4096,16,128,233985284404,69200655054,9154518624,8145845,1224891,69199460793,0,53.623178713
ijk_l2_tiled,4096,16,128,233989196984,69199968314,8961291810,8022856,1340849,69193069982,0,53.027027723
ijk_l2_tiled,4096,16,128,234103936086,69248344290,9452488726,8171017,1567955,69232901539,0,53.178977956
ijk_l2_tiled,4096,16,128,233992197851,69198562469,8753901488,7419793,1293397,69197609532,0,53.176409998
ijk_l2_tiled,4096,16,128,234023548476,69204248162,9146674935,7890893,1267597,69189388547,0,52.992869339
ijk_l2_tiled,4096,16,128,234013847706,69219049842,9021141762,8040946,1463097,69188934814,0,58.702024561
ijk_l2_tiled,4096,16,128,234020971787,69216669168,9282413645,8660752,1537825,69202233928,0,65.256334486
ijk_l2_tiled,4096,16,128,234012881558,69205301345,8870539060,7806363,1284618,69193566134,0,54.902507435
ijk_l2_tiled,4096,16,128,234040250749,69215045295,8956137804,6361223,1230685,69192556330,0,53.921258362
ijk_l2_tiled,4096,16,128,234038546163,69243769268,9597066280,8573663,1599303,69236142387,0,54.656223621
ijk_l2_tiled,4096,16,128,234000295427,69201206189,9198923844,8126285,1310867,69192944321,0,53.691357492
ijk_l2_tiled,4096,16,128,233999067915,69197653369,8944876332,7770389,1316407,69205699492,0,55.182765167
ijk_l2_tiled,4096,16,128,233990846564,69204759546,9128126783,7706529,1216448,69193555694,0,53.494261634
ijk_l2_tiled,4096,16,128,234029682470,69223965985,9572775854,8592288,1604572,69246958768,0,54.888436724
ijk_l2_tiled,512,16,128,475501521,139841750,3113501,31693,16656,142043617,0,0.108952355
ijk_l2_tiled,512,16,128,478337959,139484750,3060068,32963,15220,142863824,0,0.109023620
ijk_l2_tiled,512,16,128,472107426,139330379,3425741,32560,14546,142914794,0,0.121255653
ijk_l2_tiled,512,16,128,471057650,141475479,3272936,34409,17415,140400097,0,0.108587626
ijk_l2_tiled,512,16,128,476876983,140359806,3379755,31886,17759,141908494,0,0.108261729
ijk_l2_tiled,512,16,128,469816857,140960742,3415899,32216,14545,141181908,0,0.117225158
ijk_l2_tiled,512,16,128,471387390,138813798,3370133,31358,14142,143485632,0,0.109488011
ijk_l2_tiled,512,16,128,470387106,141980489,3304934,33604,16111,140133968,0,0.109278720
ijk_l2_tiled,512,16,128,468673330,142360243,3241291,20735,14429,140018786,0,0.118009991
ijk_l2_tiled,512,16,128,469205209,140173497,3466556,31691,14566,141810147,0,0.108694933
ijk_l2_tiled,512,16,128,475839542,139925575,3355023,31580,17345,142113577,0,0.107924562
ijk_l2_tiled,512,16,128,467098446,139977778,3347405,26394,13581,141434913,0,0.119026614
ijk_l2_tiled,512,16,128,473794442,139905700,3137028,27755,17607,142153731,0,0.110421663
ijk_l2_tiled,512,16,128,477268286,139789644,3401563,31495,18091,142359815,0,0.108631754
ijk_l2_tiled,512,16,128,470603069,140752205,3315419,37236,12941,141307334,0,0.122393678
ijk_l2_tiled,512,16,128,475095686,139639431,3425412,30430,16860,142531494,0,0.108809699
ijk_l2_tiled,512,16,128,472027668,141017323,3515148,34335,16977,141208111,0,0.108918861
ijk_l2_tiled,512,16,128,475297977,140651925,3079428,38505,15032,141578244,0,0.123915202
ijk_l2_tiled,512,16,128,475767227,139750385,3367626,30979,16151,142284872,0,0.108130848
ijk_l2_tiled,512,16,128,475183412,139875231,3428784,31422,16059,142258128,0,0.108467823
ijk_l2_tiled,512,16,128,470954103,141077992,3614706,30796,16433,140961598,0,0.116506408
ijk_l2_tiled,4096,16,128,233978335481,69192171133,9095921519,8018037,1330386,69203450824,0,53.070238611
